
<svg xmlns="http://www.w3.org/2000/svg" version="1.1" xmlns:xlink="http://www.w3.org/1999/xlink" preserveAspectRatio="none" x="0px" y="0px" width="728px" height="90px" viewBox="0 0 728 90">
<defs>
<g id="Suite_BabyGear_728x90_html5_psd_Asset_1_Suite_Products_Baby_Gear_footer__2016_Mattel_0_Layer0_0_MEMBER_0_FILL">
<path fill="#999999" stroke="none" d="
M -20.85 -5.1
Q -21.5 -4.7 -21.9 -4.05 -22.25 -3.4 -22.25 -2.7 -22.25 -1.95 -21.9 -1.3 -21.5 -0.7 -20.9 -0.3 -20.25 0.05 -19.5 0.05 -18.8 0.05 -18.15 -0.3 -17.5 -0.65 -17.1 -1.3 -16.75 -2.1 -16.75 -2.7 -16.75 -3.35 -17.15 -4.05 -17.45 -4.7 -18.15 -5.1 -18.95 -5.45 -19.5 -5.45 -20.05 -5.45 -20.85 -5.1
M -21.5 -3.85
Q -21.2 -4.4 -20.65 -4.7 -20.05 -5 -19.5 -5 -18.9 -5 -18.4 -4.7 -17.95 -4.45 -17.5 -3.85 -17.2 -3.25 -17.2 -2.7 -17.2 -2.05 -17.5 -1.55 -17.8 -1 -18.35 -0.7 -18.95 -0.4 -19.5 -0.4 -20.1 -0.4 -20.65 -0.7 -21.2 -1 -21.5 -1.55 -21.8 -2.05 -21.8 -2.7 -21.8 -3.25 -21.5 -3.85
M -20.95 -2.7
Q -20.95 -1.95 -20.55 -1.55 -20.15 -1.1 -19.5 -1.1 -19 -1.1 -18.65 -1.4 -18.3 -1.6 -18.2 -2.1
L -18.65 -2.25
Q -18.7 -1.9 -18.95 -1.75 -19.15 -1.55 -19.55 -1.55 -19.95 -1.55 -20.2 -1.8 -20.45 -2.15 -20.45 -2.65 -20.45 -3.15 -20.2 -3.5 -19.9 -3.8 -19.5 -3.8 -19.15 -3.8 -19 -3.7 -18.8 -3.55 -18.65 -3.25
L -18.25 -3.35
Q -18.3 -3.75 -18.65 -4 -19.05 -4.25 -19.5 -4.25 -19.75 -4.25 -20.25 -4.05 -20.6 -3.85 -20.75 -3.5 -20.95 -3.25 -20.95 -2.7 Z"/>
</g>

<g id="Suite_BabyGear_728x90_html5_psd_Asset_1_Suite_Products_Baby_Gear_footer__2016_Mattel_0_Layer0_0_MEMBER_1_FILL">
<path fill="#999999" stroke="none" d="
M -16.05 -1.15
Q -16.35 -0.8 -16.45 -0.45
L -16.55 0 -13 0 -13 -0.65 -15.65 -0.65 -15.35 -1 -14.6 -1.65
Q -13.95 -2.2 -13.6 -2.6
L -13.15 -3.25
Q -13 -3.55 -13 -3.9 -13 -4.5 -13.45 -4.95 -13.85 -5.35 -14.7 -5.35 -15.5 -5.35 -15.9 -4.95 -16.35 -4.6 -16.4 -3.8
L -15.75 -3.75
Q -15.75 -4.25 -15.45 -4.55 -15.15 -4.85 -14.7 -4.85 -14.25 -4.85 -13.95 -4.55 -13.7 -4.3 -13.7 -3.9 -13.7 -3.55 -14 -3.1 -14.4 -2.6 -15.2 -2
L -16.05 -1.15 Z"/>
</g>

<g id="Suite_BabyGear_728x90_html5_psd_Asset_1_Suite_Products_Baby_Gear_footer__2016_Mattel_0_Layer0_0_MEMBER_2_FILL">
<path fill="#999999" stroke="none" d="
M -12.3 -2.65
Q -12.3 -1.1 -11.8 -0.45 -11.35 0.1 -10.55 0.1 -9.95 0.1 -9.6 -0.2 -9.2 -0.55 -9 -1.1 -8.8 -1.9 -8.8 -2.65 -8.8 -3.45 -8.95 -3.9 -9 -4.2 -9.25 -4.7 -9.5 -5.05 -9.8 -5.2 -10.1 -5.35 -10.55 -5.35 -11.1 -5.35 -11.55 -5.05 -11.95 -4.7 -12.1 -4.15 -12.3 -3.7 -12.3 -2.65
M -11.65 -2.65
Q -11.65 -3.85 -11.3 -4.45 -11 -4.85 -10.55 -4.85 -10.1 -4.85 -9.8 -4.4 -9.5 -3.95 -9.5 -2.65 -9.5 -1.35 -9.8 -0.9 -10.1 -0.45 -10.55 -0.45 -11 -0.45 -11.3 -0.9 -11.65 -1.3 -11.65 -2.65 Z"/>
</g>

<g id="Suite_BabyGear_728x90_html5_psd_Asset_1_Suite_Products_Baby_Gear_footer__2016_Mattel_0_Layer0_0_MEMBER_3_FILL">
<path fill="#999999" stroke="none" d="
M -6.95 -3.75
L -6.35 -4.2 -6.35 0 -5.7 0 -5.7 -5.35 -6.1 -5.35
Q -6.25 -5 -6.7 -4.65 -7.05 -4.3 -7.65 -4.05
L -7.65 -3.4 -6.95 -3.75 Z"/>
</g>

<g id="Suite_BabyGear_728x90_html5_psd_Asset_1_Suite_Products_Baby_Gear_footer__2016_Mattel_0_Layer0_0_MEMBER_4_FILL">
<path fill="#999999" stroke="none" d="
M -0.6 -4.05
Q -0.7 -4.7 -1.05 -5 -1.45 -5.35 -2.1 -5.35 -2.9 -5.35 -3.45 -4.75 -4 -4.15 -4 -2.5 -4 -1.05 -3.5 -0.5 -2.95 0.1 -2.15 0.1 -1.7 0.1 -1.3 -0.15 -0.9 -0.4 -0.7 -0.8 -0.5 -1.2 -0.5 -1.75 -0.5 -2.45 -0.95 -3 -1.4 -3.45 -2.05 -3.45
L -2.8 -3.3
Q -3.1 -3.15 -3.35 -2.75 -3.35 -3.55 -3.2 -4 -3 -4.45 -2.7 -4.65 -2.4 -4.85 -2.15 -4.85 -1.7 -4.85 -1.5 -4.55 -1.3 -4.35 -1.25 -4
L -0.6 -4.05
M -3.25 -1.75
Q -3.25 -2.25 -2.95 -2.55 -2.65 -2.9 -2.2 -2.9 -1.75 -2.9 -1.45 -2.55 -1.15 -2.25 -1.15 -1.7 -1.15 -1.1 -1.45 -0.8 -1.75 -0.45 -2.2 -0.45 -2.45 -0.45 -2.7 -0.6 -3 -0.75 -3.1 -1.1 -3.25 -1.4 -3.25 -1.75 Z"/>
</g>

<g id="Suite_BabyGear_728x90_html5_psd_Asset_1_Suite_Products_Baby_Gear_footer__2016_Mattel_0_Layer0_0_MEMBER_5_FILL">
<path fill="#999999" stroke="none" d="
M 6.65 -5.35
L 5.05 -0.75 3.55 -5.35 2.5 -5.35 2.5 0 3.15 0 3.15 -4.55 4.7 0 5.35 0 6.9 -4.5 6.9 0 7.6 0 7.6 -5.35 6.65 -5.35 Z"/>
</g>

<g id="Suite_BabyGear_728x90_html5_psd_Asset_1_Suite_Products_Baby_Gear_footer__2016_Mattel_0_Layer0_0_MEMBER_6_FILL">
<path fill="#999999" stroke="none" d="
M 9.4 -3.85
Q 9.05 -3.7 8.8 -3.45 8.6 -3.05 8.55 -2.75
L 9.2 -2.7
Q 9.3 -3.1 9.5 -3.25 9.75 -3.4 10.2 -3.4 10.7 -3.4 10.95 -3.2 11.1 -3.05 11.1 -2.65
L 11.1 -2.45
Q 10.8 -2.3 9.95 -2.25
L 9.35 -2.15 8.9 -1.9 8.55 -1.55
Q 8.4 -1.3 8.4 -1 8.4 -0.65 8.75 -0.2 9.15 0.1 9.75 0.1 10.15 0.1 10.45 -0.05 10.95 -0.25 11.15 -0.5
L 11.3 0 12 0 11.8 -0.45 11.75 -3.1
Q 11.65 -3.45 11.55 -3.55
L 11.1 -3.85 10.3 -3.95 9.4 -3.85
M 9.45 -1.55
L 10.05 -1.7
Q 10.75 -1.8 11.1 -1.95
L 11.1 -1.7
Q 11.1 -1.2 11 -1.05 10.85 -0.7 10.6 -0.6 10.3 -0.45 9.9 -0.45 9.55 -0.45 9.3 -0.6 9.1 -0.8 9.1 -1.05
L 9.2 -1.35 9.45 -1.55 Z"/>
</g>

<g id="Suite_BabyGear_728x90_html5_psd_Asset_1_Suite_Products_Baby_Gear_footer__2016_Mattel_0_Layer0_0_MEMBER_7_FILL">
<path fill="#999999" stroke="none" d="
M 12.9 -4.85
L 12.9 -3.85 12.45 -3.85 12.45 -3.35 12.9 -3.35 12.9 -1.15
Q 12.9 -0.65 13 -0.35
L 13.3 -0.05
Q 13.5 0.05 13.85 0.05
L 14.35 0 14.25 -0.6 13.95 -0.55 13.7 -0.6 13.6 -0.75 13.55 -1.1 13.55 -3.35 14.25 -3.35 14.25 -3.85 13.55 -3.85 13.55 -5.25 12.9 -4.85 Z"/>
</g>

<g id="Suite_BabyGear_728x90_html5_psd_Asset_1_Suite_Products_Baby_Gear_footer__2016_Mattel_0_Layer0_0_MEMBER_8_FILL">
<path fill="#999999" stroke="none" d="
M 15 -1.15
Q 15 -0.5 15.1 -0.35 15.2 -0.15 15.35 -0.05 15.65 0.05 15.9 0.05
L 16.4 0 16.3 -0.6 16 -0.55 15.8 -0.6 15.7 -0.75 15.65 -1.1 15.65 -3.35 16.3 -3.35 16.3 -3.85 15.65 -3.85 15.65 -5.25 15 -4.85 15 -3.85 14.5 -3.85 14.5 -3.35 15 -3.35 15 -1.15 Z"/>
</g>

<g id="Suite_BabyGear_728x90_html5_psd_Asset_1_Suite_Products_Baby_Gear_footer__2016_Mattel_0_Layer0_0_MEMBER_9_FILL">
<path fill="#999999" stroke="none" d="
M 19.8 -3.45
Q 19.35 -3.95 18.55 -3.95 17.65 -3.95 17.25 -3.4 16.75 -2.9 16.75 -1.9 16.75 -0.95 17.25 -0.45 17.7 0.1 18.6 0.1 19.3 0.1 19.7 -0.25 20.15 -0.55 20.3 -1.15
L 19.6 -1.25
Q 19.45 -0.8 19.2 -0.65 19 -0.45 18.6 -0.45 18.1 -0.45 17.75 -0.8 17.5 -1.05 17.4 -1.75
L 20.3 -1.75 20.3 -1.95
Q 20.3 -2.95 19.8 -3.45
M 17.8 -3.1
Q 18.1 -3.4 18.55 -3.4 19.05 -3.4 19.35 -3.05 19.6 -2.8 19.6 -2.3
L 17.45 -2.3
Q 17.45 -2.75 17.8 -3.1 Z"/>
</g>

<g id="Suite_BabyGear_728x90_html5_psd_Asset_1_Suite_Products_Baby_Gear_footer__2016_Mattel_0_Layer0_0_MEMBER_10_FILL">
<path fill="#999999" stroke="none" d="
M 21.75 -5.35
L 21.1 -5.35 21.1 0 21.75 0 21.75 -5.35 Z"/>
</g>
</defs>

<g transform="matrix( 1, 0, 0, 1, 646,78) ">
<g transform="matrix( 1, 0, 0, 1.0013885498046875, 22.3,6) ">
<use xlink:href="#Suite_BabyGear_728x90_html5_psd_Asset_1_Suite_Products_Baby_Gear_footer__2016_Mattel_0_Layer0_0_MEMBER_0_FILL"/>
</g>

<g transform="matrix( 1, 0, 0, 1.0013885498046875, 22.3,6) ">
<use xlink:href="#Suite_BabyGear_728x90_html5_psd_Asset_1_Suite_Products_Baby_Gear_footer__2016_Mattel_0_Layer0_0_MEMBER_1_FILL"/>
</g>

<g transform="matrix( 1, 0, 0, 1.0013885498046875, 22.3,6) ">
<use xlink:href="#Suite_BabyGear_728x90_html5_psd_Asset_1_Suite_Products_Baby_Gear_footer__2016_Mattel_0_Layer0_0_MEMBER_2_FILL"/>
</g>

<g transform="matrix( 1, 0, 0, 1.0013885498046875, 22.3,6) ">
<use xlink:href="#Suite_BabyGear_728x90_html5_psd_Asset_1_Suite_Products_Baby_Gear_footer__2016_Mattel_0_Layer0_0_MEMBER_3_FILL"/>
</g>

<g transform="matrix( 1, 0, 0, 1.0013885498046875, 22.3,6) ">
<use xlink:href="#Suite_BabyGear_728x90_html5_psd_Asset_1_Suite_Products_Baby_Gear_footer__2016_Mattel_0_Layer0_0_MEMBER_4_FILL"/>
</g>

<g transform="matrix( 1, 0, 0, 1.0013885498046875, 22.3,6) ">
<use xlink:href="#Suite_BabyGear_728x90_html5_psd_Asset_1_Suite_Products_Baby_Gear_footer__2016_Mattel_0_Layer0_0_MEMBER_5_FILL"/>
</g>

<g transform="matrix( 1, 0, 0, 1.0013885498046875, 22.3,6) ">
<use xlink:href="#Suite_BabyGear_728x90_html5_psd_Asset_1_Suite_Products_Baby_Gear_footer__2016_Mattel_0_Layer0_0_MEMBER_6_FILL"/>
</g>

<g transform="matrix( 1, 0, 0, 1.0013885498046875, 22.3,6) ">
<use xlink:href="#Suite_BabyGear_728x90_html5_psd_Asset_1_Suite_Products_Baby_Gear_footer__2016_Mattel_0_Layer0_0_MEMBER_7_FILL"/>
</g>

<g transform="matrix( 1, 0, 0, 1.0013885498046875, 22.3,6) ">
<use xlink:href="#Suite_BabyGear_728x90_html5_psd_Asset_1_Suite_Products_Baby_Gear_footer__2016_Mattel_0_Layer0_0_MEMBER_8_FILL"/>
</g>

<g transform="matrix( 1, 0, 0, 1.0013885498046875, 22.3,6) ">
<use xlink:href="#Suite_BabyGear_728x90_html5_psd_Asset_1_Suite_Products_Baby_Gear_footer__2016_Mattel_0_Layer0_0_MEMBER_9_FILL"/>
</g>

<g transform="matrix( 1, 0, 0, 1.0013885498046875, 22.3,6) ">
<use xlink:href="#Suite_BabyGear_728x90_html5_psd_Asset_1_Suite_Products_Baby_Gear_footer__2016_Mattel_0_Layer0_0_MEMBER_10_FILL"/>
</g>
</g>
</svg>
