
<svg xmlns="http://www.w3.org/2000/svg" version="1.1" xmlns:xlink="http://www.w3.org/1999/xlink" preserveAspectRatio="none" x="0px" y="0px" width="320px" height="50px" viewBox="0 0 320 50">
<defs>
<g id="Suite_Toys_320x50_html5_psd_Asset_Suite_Products_Toys_In_search_of_adventure___new_discoveries__0_Layer0_0_MEMBER_0_FILL">
<path fill="#FFFFFF" stroke="none" d="
M 23.2 13.5
L 23.2 11.65 21.75 11.65 21.75 3.25 23.2 3.25 23.2 1.35 18.15 1.35 18.15 3.25 19.65 3.25 19.65 11.65 18.15 11.65 18.15 13.5 23.2 13.5 Z"/>
</g>

<g id="Suite_Toys_320x50_html5_psd_Asset_Suite_Products_Toys_In_search_of_adventure___new_discoveries__0_Layer0_0_MEMBER_1_FILL">
<path fill="#FFFFFF" stroke="none" d="
M 32.5 6.3
Q 31.9 5.3 30.45 5.3 29.1 5.3 27.6 6.7
L 27.6 5.45 24.45 5.45 24.45 7.15 25.65 7.15 25.65 11.85 24.45 11.85 24.45 13.5 28.8 13.5 28.8 11.85 27.7 11.85 27.7 8.05
Q 28.8 7.1 29.75 7.1 30.5 7.1 30.75 7.65 30.95 7.9 30.95 8.5
L 30.95 11.85 29.85 11.85 29.85 13.5 34.15 13.5 34.15 11.85 32.95 11.85 32.95 8
Q 32.95 7 32.5 6.3 Z"/>
</g>

<g id="Suite_Toys_320x50_html5_psd_Asset_Suite_Products_Toys_In_search_of_adventure___new_discoveries__0_Layer0_0_MEMBER_2_FILL">
<path fill="#FFFFFF" stroke="none" d="
M 43.9 7.3
Q 43.9 8.3 45 8.3 46 8.3 46 7.2 46 6.65 45.55 6.2 44.6 5.25 42.85 5.25 41.25 5.25 40.35 6.1 39.55 6.8 39.55 7.85 39.55 8.8 40.3 9.4 40.95 9.9 42.7 10.35 44.3 10.75 44.3 11.3 44.3 12.2 42.85 12.2 42 12.2 41.35 11.95
L 41.4 11.6
Q 41.4 10.55 40.3 10.55 39.85 10.55 39.55 10.85 39.25 11.2 39.25 11.6 39.25 12.25 39.7 12.7 40.7 13.7 42.8 13.7 44.25 13.7 45.2 13.05 46.2 12.35 46.2 11.1 46.2 10.05 45.4 9.5 44.8 9.05 43.15 8.65 41.45 8.2 41.45 7.6 41.45 6.75 42.8 6.75 43.25 6.75 43.95 6.95
L 43.9 7.3 Z"/>
</g>

<g id="Suite_Toys_320x50_html5_psd_Asset_Suite_Products_Toys_In_search_of_adventure___new_discoveries__0_Layer0_0_MEMBER_3_FILL">
<path fill="#FFFFFF" stroke="none" d="
M 55.25 11.1
Q 53.8 11.95 52.3 11.95 50 11.95 49.65 10.15
L 55.5 10.15 55.55 9.15
Q 55.55 7.45 54.55 6.4 53.5 5.3 51.65 5.3 49.8 5.3 48.65 6.55 47.55 7.75 47.55 9.5 47.55 11.35 48.8 12.5 50 13.65 52 13.65 53.85 13.65 55.05 12.95
L 55.25 11.1
M 51.6 6.9
Q 53.45 6.9 53.55 8.75
L 49.6 8.75
Q 49.95 6.9 51.6 6.9 Z"/>
</g>

<g id="Suite_Toys_320x50_html5_psd_Asset_Suite_Products_Toys_In_search_of_adventure___new_discoveries__0_Layer0_0_MEMBER_4_FILL">
<path fill="#FFFFFF" stroke="none" d="
M 63.85 8.4
Q 63.85 7.2 63.25 6.35 62.35 5.3 60.35 5.3 58.8 5.3 57.9 5.95 57.1 6.55 57.1 7.35 57.1 8.4 58.2 8.4 59.3 8.4 59.3 7.35
L 59.2 6.95
Q 59.6 6.85 60 6.85 61.15 6.85 61.6 7.45 61.9 7.85 61.9 8.55
L 61.9 9.2
Q 61.15 8.95 59.85 8.95 58.4 8.95 57.5 9.6 56.6 10.3 56.6 11.4 56.6 12.45 57.4 13.1 58.15 13.65 59.25 13.65 60.75 13.65 61.95 12.65
L 61.95 13.5 65.05 13.5 65.05 11.85 63.85 11.85 63.85 8.4
M 61.9 10.2
L 61.9 11.5
Q 60.95 12.2 59.85 12.2 58.65 12.2 58.65 11.2 58.65 10.05 60.25 10.05 61.25 10.05 61.9 10.2 Z"/>
</g>

<g id="Suite_Toys_320x50_html5_psd_Asset_Suite_Products_Toys_In_search_of_adventure___new_discoveries__0_Layer0_0_MEMBER_5_FILL">
<path fill="#FFFFFF" stroke="none" d="
M 73.15 6.6
Q 73.15 5.3 71.65 5.3 70.3 5.3 69.05 7.25
L 69.05 5.45 65.95 5.45 65.95 7.15 67.15 7.15 67.15 11.85 65.95 11.85 65.95 13.5 70.55 13.5 70.55 11.85 69.15 11.85 69.15 8.7
Q 69.75 7.5 70.75 7.15 71.05 7.85 71.95 7.85 72.45 7.85 72.8 7.5 73.15 7.1 73.15 6.6 Z"/>
</g>

<g id="Suite_Toys_320x50_html5_psd_Asset_Suite_Products_Toys_In_search_of_adventure___new_discoveries__0_Layer0_0_MEMBER_6_FILL">
<path fill="#FFFFFF" stroke="none" d="
M 81.1 12.95
L 81.25 11.1
Q 79.75 11.95 78.4 11.95 77.3 11.95 76.55 11.3 75.75 10.6 75.75 9.45 75.75 8.2 76.45 7.5 77 6.9 77.8 6.9 78.85 6.9 79.25 7.45 79 7.8 79 8.15 79 8.65 79.35 9 79.7 9.35 80.2 9.35 81.5 9.35 81.5 8 81.5 6.95 80.5 6.15 79.45 5.3 77.85 5.3 76.1 5.3 74.9 6.55 73.75 7.75 73.75 9.4 73.75 11.3 75 12.5 76.25 13.65 78.2 13.65 79.85 13.65 81.1 12.95 Z"/>
</g>

<g id="Suite_Toys_320x50_html5_psd_Asset_Suite_Products_Toys_In_search_of_adventure___new_discoveries__0_Layer0_0_MEMBER_7_FILL">
<path fill="#FFFFFF" stroke="none" d="
M 91.3 11.85
L 91.3 8
Q 91.3 6.85 90.75 6.15 90.05 5.3 88.75 5.3 87.55 5.3 86 6.65
L 86 0 82.8 0 82.8 1.7 84 1.7 84 11.85 82.8 11.85 82.8 13.5 87.15 13.5 87.15 11.85 86 11.85 86 8.05
Q 87.1 7.1 88.1 7.1 88.7 7.1 89 7.5 89.25 7.75 89.25 8.5
L 89.25 11.85 88.15 11.85 88.15 13.5 92.5 13.5 92.5 11.85 91.3 11.85 Z"/>
</g>

<g id="Suite_Toys_320x50_html5_psd_Asset_Suite_Products_Toys_In_search_of_adventure___new_discoveries__0_Layer0_0_MEMBER_8_FILL">
<path fill="#FFFFFF" stroke="none" d="
M 101.75 13.65
Q 103.7 13.65 104.9 12.4 106.1 11.2 106.1 9.45 106.1 7.7 104.95 6.55 103.7 5.3 101.75 5.3 99.85 5.3 98.65 6.55 97.45 7.75 97.45 9.45 97.45 11.25 98.6 12.4 99.8 13.65 101.75 13.65
M 103.4 11.3
Q 102.75 12 101.75 12 100.8 12 100.15 11.3 99.55 10.6 99.55 9.45 99.55 8.35 100.15 7.65 100.8 6.95 101.75 6.95 102.75 6.95 103.4 7.65 104 8.35 104 9.45 104 10.6 103.4 11.3 Z"/>
</g>

<g id="Suite_Toys_320x50_html5_psd_Asset_Suite_Products_Toys_In_search_of_adventure___new_discoveries__0_Layer0_0_MEMBER_9_FILL">
<path fill="#FFFFFF" stroke="none" d="
M 111.45 1.6
Q 111.8 2.35 112.6 2.35 113.05 2.35 113.35 2.05 113.7 1.75 113.7 1.2 113.7 0.6 113.2 0.25 112.7 -0.15 111.9 -0.15 110.55 -0.15 109.7 0.7 108.65 1.7 108.65 3.85
L 108.65 5.45 107.25 5.45 107.25 7.15 108.65 7.15 108.65 11.85 107.45 11.85 107.45 13.5 112.2 13.5 112.2 11.85 110.65 11.85 110.65 7.15 112.75 7.15 112.75 5.45 110.65 5.45 110.65 3.55
Q 110.65 2.45 111 1.95 111.15 1.75 111.45 1.6 Z"/>
</g>

<g id="Suite_Toys_320x50_html5_psd_Asset_Suite_Products_Toys_In_search_of_adventure___new_discoveries__0_Layer0_0_MEMBER_10_FILL">
<path fill="#FFFFFF" stroke="none" d="
M 123.05 8.55
L 123.05 9.2
Q 122.3 8.95 121 8.95 119.55 8.95 118.65 9.6 117.75 10.3 117.75 11.4 117.75 12.5 118.55 13.1 119.25 13.65 120.35 13.65 121.85 13.65 123.05 12.65
L 123.05 13.5 126.2 13.5 126.2 11.85 125 11.85 125 8.4
Q 125 7.15 124.35 6.35 123.55 5.3 121.45 5.3 119.9 5.3 119.05 5.95 118.25 6.5 118.25 7.35 118.25 8.4 119.3 8.4 120.4 8.4 120.4 7.35
L 120.35 6.95
Q 120.65 6.85 121.15 6.85 122.3 6.85 122.7 7.45 123.05 7.9 123.05 8.55
M 123.05 10.2
L 123.05 11.5
Q 122.05 12.2 121 12.2 119.8 12.2 119.8 11.2 119.8 10.05 121.35 10.05 122.3 10.05 123.05 10.2 Z"/>
</g>

<g id="Suite_Toys_320x50_html5_psd_Asset_Suite_Products_Toys_In_search_of_adventure___new_discoveries__0_Layer0_0_MEMBER_11_FILL">
<path fill="#FFFFFF" stroke="none" d="
M 133.1 1.7
L 133.1 6.05
Q 132.25 5.3 130.85 5.3 129.25 5.3 128.1 6.5 127 7.75 127 9.5 127 11.35 128.05 12.5 129.15 13.65 130.75 13.65 132 13.65 133.1 12.65
L 133.1 13.5 136.3 13.5 136.3 11.85 135.1 11.85 135.1 0 131.9 0 131.9 1.7 133.1 1.7
M 133.1 7.65
L 133.1 11.1
Q 132.15 11.95 131.2 11.95 130.25 11.95 129.7 11.3 129.05 10.65 129.05 9.5 129.05 8.35 129.7 7.65 130.3 7 131.2 7 132.15 7 133.1 7.65 Z"/>
</g>

<g id="Suite_Toys_320x50_html5_psd_Asset_Suite_Products_Toys_In_search_of_adventure___new_discoveries__0_Layer0_0_MEMBER_12_FILL">
<path fill="#FFFFFF" stroke="none" d="
M 142.4 13.65
L 145.6 7.15 146.55 7.15 146.55 5.45 142.45 5.45 142.45 7.05 143.65 7.05 141.7 11.25 139.8 7.05 140.95 7.05 140.95 5.45 136.8 5.45 136.8 7.15 137.75 7.15 140.95 13.65 142.4 13.65 Z"/>
</g>

<g id="Suite_Toys_320x50_html5_psd_Asset_Suite_Products_Toys_In_search_of_adventure___new_discoveries__0_Layer0_0_MEMBER_13_FILL">
<path fill="#FFFFFF" stroke="none" d="
M 155.05 9.15
Q 155.05 7.45 154.05 6.4 153 5.3 151.1 5.3 149.3 5.3 148.15 6.55 147 7.75 147 9.5 147 11.35 148.25 12.5 149.5 13.65 151.5 13.65 153.35 13.65 154.55 12.95
L 154.7 11.1
Q 153.3 11.95 151.8 11.95 149.55 11.95 149.1 10.15
L 154.95 10.15 155.05 9.15
M 149.1 8.75
Q 149.45 6.9 151.1 6.9 152.95 6.9 153.05 8.75
L 149.1 8.75 Z"/>
</g>

<g id="Suite_Toys_320x50_html5_psd_Asset_Suite_Products_Toys_In_search_of_adventure___new_discoveries__0_Layer0_0_MEMBER_14_FILL">
<path fill="#FFFFFF" stroke="none" d="
M 164.25 6.3
Q 163.55 5.3 162.15 5.3 160.75 5.3 159.35 6.7
L 159.35 5.45 156.2 5.45 156.2 7.15 157.4 7.15 157.4 11.85 156.2 11.85 156.2 13.5 160.5 13.5 160.5 11.85 159.4 11.85 159.4 8.05
Q 160.5 7.1 161.5 7.1 162.2 7.1 162.5 7.65 162.65 7.95 162.65 8.5
L 162.65 11.85 161.55 11.85 161.55 13.5 165.85 13.5 165.85 11.85 164.65 11.85 164.65 8
Q 164.65 7 164.25 6.3 Z"/>
</g>

<g id="Suite_Toys_320x50_html5_psd_Asset_Suite_Products_Toys_In_search_of_adventure___new_discoveries__0_Layer0_0_MEMBER_15_FILL">
<path fill="#FFFFFF" stroke="none" d="
M 172.35 7.15
L 172.35 5.45 169.9 5.45 169.9 2.85 167.9 3.75 167.9 5.45 166.35 5.45 166.35 7.15 167.9 7.15 167.9 11.3
Q 167.9 12.1 168.2 12.55 168.75 13.65 170.35 13.65 171.3 13.65 172.3 13.2
L 172.45 11.45
Q 171.55 11.85 170.9 11.85 170.25 11.85 170.05 11.5 169.9 11.2 169.9 10.9
L 169.9 7.15 172.35 7.15 Z"/>
</g>

<g id="Suite_Toys_320x50_html5_psd_Asset_Suite_Products_Toys_In_search_of_adventure___new_discoveries__0_Layer0_0_MEMBER_16_FILL">
<path fill="#FFFFFF" stroke="none" d="
M 182.95 13.5
L 182.95 11.85 181.75 11.85 181.75 5.45 178.5 5.45 178.5 7.15 179.75 7.15 179.75 10.9
Q 178.65 11.85 177.65 11.85 176.95 11.85 176.65 11.3 176.5 11 176.5 10.45
L 176.5 5.45 173.3 5.45 173.3 7.15 174.5 7.15 174.5 10.95
Q 174.5 11.9 174.9 12.6 175.55 13.65 177 13.65 178.4 13.65 179.8 12.25
L 179.8 13.5 182.95 13.5 Z"/>
</g>

<g id="Suite_Toys_320x50_html5_psd_Asset_Suite_Products_Toys_In_search_of_adventure___new_discoveries__0_Layer0_0_MEMBER_17_FILL">
<path fill="#FFFFFF" stroke="none" d="
M 187.15 5.45
L 184 5.45 184 7.15 185.2 7.15 185.2 11.85 184 11.85 184 13.5 188.6 13.5 188.6 11.85 187.2 11.85 187.2 8.7
Q 187.9 7.45 188.85 7.15 189.15 7.85 190 7.85 190.5 7.85 190.85 7.5 191.2 7.1 191.2 6.6 191.2 5.3 189.7 5.3 188.4 5.3 187.15 7.25
L 187.15 5.45 Z"/>
</g>

<g id="Suite_Toys_320x50_html5_psd_Asset_Suite_Products_Toys_In_search_of_adventure___new_discoveries__0_Layer0_0_MEMBER_18_FILL">
<path fill="#FFFFFF" stroke="none" d="
M 196.6 11.95
Q 194.3 11.95 193.95 10.15
L 199.75 10.15 199.85 9.15
Q 199.85 7.45 198.85 6.4 197.8 5.3 195.9 5.3 194.1 5.3 192.95 6.55 191.8 7.75 191.8 9.5 191.8 11.35 193.05 12.5 194.3 13.65 196.3 13.65 198.15 13.65 199.35 12.95
L 199.5 11.1
Q 198.1 11.95 196.6 11.95
M 193.9 8.75
Q 194.25 6.9 195.9 6.9 197.75 6.9 197.85 8.75
L 193.9 8.75 Z"/>
</g>

<g id="Suite_Toys_320x50_html5_psd_Asset_Suite_Products_Toys_In_search_of_adventure___new_discoveries__0_Layer0_0_MEMBER_19_FILL">
<path fill="#FFFFFF" stroke="none" d="
M 17.6 34.4
Q 17.6 35.85 18.75 36.75 19.9 37.7 21.95 37.7 24.1 37.7 25.7 36.25
L 27.45 37.7 28.6 36.4 26.85 34.9
Q 27.55 33.85 27.9 32.45
L 28.95 32.45 28.95 30.8 25.3 30.8 25.3 32.45 26.25 32.45
Q 26.05 33.05 25.6 33.9
L 22.95 31.5
Q 25.5 30.25 25.5 28.35 25.5 27.1 24.6 26.3 23.65 25.55 22.15 25.55 20.65 25.55 19.65 26.5 18.8 27.3 18.8 28.45 18.8 29.7 20 31.1 17.6 32.3 17.6 34.4
M 21.8 30.5
Q 20.85 29.4 20.85 28.45 20.85 27.95 21.2 27.55 21.6 27.1 22.15 27.1 22.75 27.1 23.1 27.5 23.45 27.85 23.45 28.35 23.45 29.75 21.8 30.5
M 21.1 32.15
L 24.35 35.15
Q 23.25 36 21.95 36 20.9 36 20.3 35.45 19.7 34.95 19.7 34.25 19.7 33 21.1 32.15 Z"/>
</g>

<g id="Suite_Toys_320x50_html5_psd_Asset_Suite_Products_Toys_In_search_of_adventure___new_discoveries__0_Layer0_0_MEMBER_20_FILL">
<path fill="#FFFFFF" stroke="none" d="
M 42.6 31.95
Q 42.6 31 42.15 30.3 41.5 29.25 40.05 29.25 38.7 29.25 37.25 30.7
L 37.25 29.4 34.1 29.4 34.1 31.1 35.3 31.1 35.3 35.85 34.1 35.85 34.1 37.5 38.4 37.5 38.4 35.85 37.3 35.85 37.3 32.05
Q 38.4 31.1 39.4 31.1 40.1 31.1 40.4 31.65 40.55 31.95 40.55 32.45
L 40.55 35.85 39.45 35.85 39.45 37.5 43.8 37.5 43.8 35.85 42.6 35.85 42.6 31.95 Z"/>
</g>

<g id="Suite_Toys_320x50_html5_psd_Asset_Suite_Products_Toys_In_search_of_adventure___new_discoveries__0_Layer0_0_MEMBER_21_FILL">
<path fill="#FFFFFF" stroke="none" d="
M 52.1 36.9
L 52.25 35.1
Q 50.85 35.95 49.35 35.95 47.05 35.95 46.7 34.15
L 52.5 34.15 52.6 33.15
Q 52.6 31.45 51.6 30.4 50.55 29.25 48.65 29.25 46.85 29.25 45.7 30.5 44.6 31.75 44.6 33.5 44.6 35.35 45.85 36.5 47.05 37.65 49.05 37.65 50.85 37.65 52.1 36.9
M 46.65 32.75
Q 47 30.9 48.65 30.9 50.5 30.9 50.6 32.75
L 46.65 32.75 Z"/>
</g>

<g id="Suite_Toys_320x50_html5_psd_Asset_Suite_Products_Toys_In_search_of_adventure___new_discoveries__0_Layer0_0_MEMBER_22_FILL">
<path fill="#FFFFFF" stroke="none" d="
M 53.25 31.1
L 54.45 31.1 56.45 37.8 57.85 37.8 59.9 32.85 61.9 37.8 63.3 37.8 65.3 31.1 66.5 31.1 66.5 29.4 62.35 29.4 62.35 31.1 63.65 31.1 62.55 35.05 60.7 30.25 59.3 30.25 57.4 35.05 56.3 31.1 57.45 31.1 57.45 29.4 53.25 29.4 53.25 31.1 Z"/>
</g>

<g id="Suite_Toys_320x50_html5_psd_Asset_Suite_Products_Toys_In_search_of_adventure___new_discoveries__0_Layer0_0_MEMBER_23_FILL">
<path fill="#FFFFFF" stroke="none" d="
M 82.3 35.3
L 82.3 19.55 78 19.55 78 21.8 79.65 21.8 79.65 27.6
Q 78.4 26.55 76.65 26.55 74.5 26.55 73 28.2 71.5 29.85 71.5 32.2 71.5 34.6 72.9 36.15 74.3 37.7 76.45 37.7 78.25 37.7 79.65 36.3
L 79.65 37.5 83.9 37.5 83.9 35.3 82.3 35.3
M 77.1 28.85
Q 78.45 28.85 79.65 29.7
L 79.65 34.3
Q 78.4 35.4 77.1 35.4 75.85 35.4 75.1 34.55 74.25 33.65 74.25 32.15 74.25 30.6 75.1 29.7 75.9 28.85 77.1 28.85 Z"/>
</g>

<g id="Suite_Toys_320x50_html5_psd_Asset_Suite_Products_Toys_In_search_of_adventure___new_discoveries__0_Layer0_0_MEMBER_24_FILL">
<path fill="#FFFFFF" stroke="none" d="
M 89.55 35.3
L 89.55 26.75 85.2 26.75 85.2 29 86.85 29 86.85 35.3 85.2 35.3 85.2 37.5 91.15 37.5 91.15 35.3 89.55 35.3
M 89.2 24.6
Q 89.75 24.05 89.75 23.35 89.75 22.6 89.2 22.1 88.65 21.55 87.95 21.55 87.25 21.55 86.7 22.1 86.15 22.6 86.15 23.35 86.15 24.05 86.65 24.6 87.2 25.1 87.9 25.1 88.6 25.1 89.2 24.6 Z"/>
</g>

<g id="Suite_Toys_320x50_html5_psd_Asset_Suite_Products_Toys_In_search_of_adventure___new_discoveries__0_Layer0_0_MEMBER_25_FILL">
<path fill="#FFFFFF" stroke="none" d="
M 98.95 29.25
Q 98.95 30.6 100.4 30.6 100.95 30.6 101.35 30.2 101.7 29.8 101.7 29.15 101.7 28.35 101.1 27.75 100.6 27.2 99.55 26.85 98.5 26.55 97.5 26.55 95.4 26.55 94.2 27.6 93.1 28.55 93.1 29.95 93.1 31.3 94.1 32 95 32.65 97.35 33.3 99.45 33.8 99.45 34.6 99.45 35.15 98.85 35.45 98.35 35.75 97.5 35.75 96.45 35.75 95.55 35.4
L 95.6 34.95
Q 95.6 34.3 95.15 33.9 94.75 33.55 94.15 33.55 93.55 33.55 93.1 33.95 92.7 34.4 92.7 34.95 92.7 35.8 93.35 36.4 93.9 36.95 95.05 37.35 96.2 37.7 97.45 37.7 99.4 37.7 100.65 36.8 102 35.85 102 34.25 102 32.9 100.95 32.15 100.15 31.6 97.95 31 96.65 30.65 96.2 30.4 95.65 30.05 95.65 29.6 95.65 29.15 96.1 28.85 96.6 28.5 97.45 28.5 98.35 28.5 99 28.8
L 98.95 29.25 Z"/>
</g>

<g id="Suite_Toys_320x50_html5_psd_Asset_Suite_Products_Toys_In_search_of_adventure___new_discoveries__0_Layer0_0_MEMBER_26_FILL">
<path fill="#FFFFFF" stroke="none" d="
M 114.1 30.15
Q 114.1 28.8 112.75 27.7 111.3 26.55 109.2 26.55 106.85 26.55 105.3 28.25 103.75 29.9 103.75 32.05 103.75 34.6 105.45 36.15 107.1 37.7 109.7 37.7 111.85 37.7 113.5 36.7
L 113.75 34.3
Q 111.6 35.45 109.9 35.45 108.45 35.45 107.45 34.55 106.4 33.6 106.4 32.1 106.4 30.45 107.35 29.5 108.1 28.7 109.15 28.7 110.5 28.7 111.1 29.45 110.75 29.8 110.75 30.35 110.75 31 111.25 31.5 111.7 32 112.35 32 113.1 32 113.6 31.5 114.1 31 114.1 30.15 Z"/>
</g>

<g id="Suite_Toys_320x50_html5_psd_Asset_Suite_Products_Toys_In_search_of_adventure___new_discoveries__0_Layer0_0_MEMBER_27_FILL">
<path fill="#FFFFFF" stroke="none" d="
M 125.75 28.25
Q 124.15 26.55 121.55 26.55 119 26.55 117.35 28.25 115.8 29.85 115.8 32.15 115.8 34.45 117.35 36.05 118.95 37.7 121.55 37.7 124.1 37.7 125.7 36 127.25 34.4 127.25 32.15 127.25 29.8 125.75 28.25
M 123.7 34.55
Q 122.85 35.45 121.55 35.45 120.25 35.45 119.4 34.55 118.55 33.6 118.55 32.15 118.55 30.65 119.4 29.75 120.25 28.8 121.55 28.8 122.85 28.8 123.7 29.75 124.5 30.65 124.5 32.15 124.5 33.6 123.7 34.55 Z"/>
</g>

<g id="Suite_Toys_320x50_html5_psd_Asset_Suite_Products_Toys_In_search_of_adventure___new_discoveries__0_Layer0_0_MEMBER_28_FILL">
<path fill="#FFFFFF" stroke="none" d="
M 139.6 29
L 140.85 29 140.85 26.75 135.35 26.75 135.35 28.9 137 28.9 134.4 34.5 131.85 28.9 133.35 28.9 133.35 26.75 127.85 26.75 127.85 29 129.15 29 133.4 37.7 135.3 37.7 139.6 29 Z"/>
</g>

<g id="Suite_Toys_320x50_html5_psd_Asset_Suite_Products_Toys_In_search_of_adventure___new_discoveries__0_Layer0_0_MEMBER_29_FILL">
<path fill="#FFFFFF" stroke="none" d="
M 152 33.05
Q 152.15 32.45 152.15 31.7 152.15 29.45 150.8 28.05 149.4 26.55 146.9 26.55 144.5 26.55 142.95 28.2 141.45 29.8 141.45 32.15 141.45 34.65 143.1 36.2 144.75 37.7 147.4 37.7 149.9 37.7 151.45 36.7
L 151.7 34.3
Q 149.65 35.45 147.8 35.45 144.75 35.45 144.25 33.05
L 152 33.05
M 146.9 28.7
Q 148.05 28.7 148.75 29.4 149.4 30.05 149.45 31.15
L 144.2 31.15
Q 144.4 29.9 145.2 29.25 145.9 28.7 146.9 28.7 Z"/>
</g>

<g id="Suite_Toys_320x50_html5_psd_Asset_Suite_Products_Toys_In_search_of_adventure___new_discoveries__0_Layer0_0_MEMBER_30_FILL">
<path fill="#FFFFFF" stroke="none" d="
M 163.25 28.3
Q 163.25 27.55 162.75 27.05 162.2 26.55 161.25 26.55 159.55 26.55 157.8 29.2
L 157.8 26.75 153.65 26.75 153.65 29 155.25 29 155.25 35.3 153.65 35.3 153.65 37.5 159.8 37.5 159.8 35.3 157.9 35.3 157.9 31.05
Q 158.8 29.5 160.05 29.05 160.6 30 161.65 30 162.3 30 162.75 29.5 163.25 29 163.25 28.3 Z"/>
</g>

<g id="Suite_Toys_320x50_html5_psd_Asset_Suite_Products_Toys_In_search_of_adventure___new_discoveries__0_Layer0_0_MEMBER_31_FILL">
<path fill="#FFFFFF" stroke="none" d="
M 170.25 35.3
L 168.7 35.3 168.7 26.75 164.35 26.75 164.35 29 166 29 166 35.3 164.35 35.3 164.35 37.5 170.25 37.5 170.25 35.3
M 168.3 24.6
Q 168.85 24.05 168.85 23.35 168.85 22.6 168.35 22.1 167.8 21.55 167.1 21.55 166.4 21.55 165.85 22.1 165.3 22.6 165.3 23.35 165.3 24.05 165.8 24.6 166.35 25.1 167.05 25.1 167.75 25.1 168.3 24.6 Z"/>
</g>

<g id="Suite_Toys_320x50_html5_psd_Asset_Suite_Products_Toys_In_search_of_adventure___new_discoveries__0_Layer0_0_MEMBER_32_FILL">
<path fill="#FFFFFF" stroke="none" d="
M 181.25 28.05
Q 179.85 26.55 177.35 26.55 174.95 26.55 173.4 28.2 171.9 29.8 171.9 32.15 171.9 34.65 173.55 36.2 175.2 37.7 177.85 37.7 180.35 37.7 181.9 36.7
L 182.15 34.3
Q 180.1 35.45 178.2 35.45 175.2 35.45 174.7 33.05
L 182.45 33.05 182.55 31.7
Q 182.55 29.45 181.25 28.05
M 177.3 28.7
Q 178.5 28.7 179.2 29.4 179.85 30.05 179.9 31.15
L 174.65 31.15
Q 174.85 29.9 175.65 29.25 176.35 28.7 177.3 28.7 Z"/>
</g>

<g id="Suite_Toys_320x50_html5_psd_Asset_Suite_Products_Toys_In_search_of_adventure___new_discoveries__0_Layer0_0_MEMBER_33_FILL">
<path fill="#FFFFFF" stroke="none" d="
M 192.95 30.2
Q 193.3 29.8 193.3 29.15 193.3 28.35 192.7 27.75 191.5 26.55 189.1 26.55 187 26.55 185.8 27.6 184.7 28.55 184.7 29.95 184.7 31.3 185.7 32 186.6 32.65 188.95 33.3 191.05 33.85 191.05 34.6 191.05 35.15 190.45 35.45 189.95 35.75 189.1 35.75 188.05 35.75 187.15 35.4
L 187.2 34.95
Q 187.2 34.3 186.75 33.9 186.35 33.55 185.75 33.55 185.15 33.55 184.7 33.95 184.3 34.4 184.3 34.95 184.3 35.8 184.95 36.4 185.5 36.95 186.65 37.35 187.8 37.7 189.05 37.7 191 37.7 192.25 36.8 193.6 35.85 193.6 34.25 193.6 32.9 192.55 32.15 191.7 31.6 189.5 31 188.2 30.65 187.75 30.4 187.25 30.05 187.25 29.6 187.25 29.15 187.7 28.85 188.2 28.5 189.05 28.5 189.95 28.5 190.55 28.8
L 190.5 29.25
Q 190.5 29.85 190.9 30.25 191.3 30.6 191.95 30.6 192.55 30.6 192.95 30.2 Z"/>
</g>

<g id="Suite_Toys_320x50_html5_psd_Asset_Suite_Products_Toys_In_search_of_adventure___new_discoveries__0_Layer0_0_MEMBER_34_FILL">
<path fill="#FFFFFF" stroke="none" d="
M 196.3 37.1
Q 196.9 37.7 197.7 37.7 198.55 37.7 199.15 37.1 199.75 36.5 199.75 35.7 199.75 34.85 199.15 34.25 198.55 33.65 197.7 33.65 196.85 33.65 196.3 34.25 195.7 34.85 195.7 35.7 195.7 36.55 196.3 37.1 Z"/>
</g>
</defs>

<g transform="matrix( 1, 0, 0, 1, 16,21) ">
<g transform="matrix( 0.5689849853515625, 0, 0, 0.567535400390625, -9.15,0.4) ">
<use xlink:href="#Suite_Toys_320x50_html5_psd_Asset_Suite_Products_Toys_In_search_of_adventure___new_discoveries__0_Layer0_0_MEMBER_0_FILL"/>
</g>

<g transform="matrix( 0.5689849853515625, 0, 0, 0.567535400390625, -9.15,0.4) ">
<use xlink:href="#Suite_Toys_320x50_html5_psd_Asset_Suite_Products_Toys_In_search_of_adventure___new_discoveries__0_Layer0_0_MEMBER_1_FILL"/>
</g>

<g transform="matrix( 0.5689849853515625, 0, 0, 0.567535400390625, -9.15,0.4) ">
<use xlink:href="#Suite_Toys_320x50_html5_psd_Asset_Suite_Products_Toys_In_search_of_adventure___new_discoveries__0_Layer0_0_MEMBER_2_FILL"/>
</g>

<g transform="matrix( 0.5689849853515625, 0, 0, 0.567535400390625, -9.15,0.4) ">
<use xlink:href="#Suite_Toys_320x50_html5_psd_Asset_Suite_Products_Toys_In_search_of_adventure___new_discoveries__0_Layer0_0_MEMBER_3_FILL"/>
</g>

<g transform="matrix( 0.5689849853515625, 0, 0, 0.567535400390625, -9.15,0.4) ">
<use xlink:href="#Suite_Toys_320x50_html5_psd_Asset_Suite_Products_Toys_In_search_of_adventure___new_discoveries__0_Layer0_0_MEMBER_4_FILL"/>
</g>

<g transform="matrix( 0.5689849853515625, 0, 0, 0.567535400390625, -9.15,0.4) ">
<use xlink:href="#Suite_Toys_320x50_html5_psd_Asset_Suite_Products_Toys_In_search_of_adventure___new_discoveries__0_Layer0_0_MEMBER_5_FILL"/>
</g>

<g transform="matrix( 0.5689849853515625, 0, 0, 0.567535400390625, -9.15,0.4) ">
<use xlink:href="#Suite_Toys_320x50_html5_psd_Asset_Suite_Products_Toys_In_search_of_adventure___new_discoveries__0_Layer0_0_MEMBER_6_FILL"/>
</g>

<g transform="matrix( 0.5689849853515625, 0, 0, 0.567535400390625, -9.15,0.4) ">
<use xlink:href="#Suite_Toys_320x50_html5_psd_Asset_Suite_Products_Toys_In_search_of_adventure___new_discoveries__0_Layer0_0_MEMBER_7_FILL"/>
</g>

<g transform="matrix( 0.5689849853515625, 0, 0, 0.567535400390625, -9.15,0.4) ">
<use xlink:href="#Suite_Toys_320x50_html5_psd_Asset_Suite_Products_Toys_In_search_of_adventure___new_discoveries__0_Layer0_0_MEMBER_8_FILL"/>
</g>

<g transform="matrix( 0.5689849853515625, 0, 0, 0.567535400390625, -9.15,0.4) ">
<use xlink:href="#Suite_Toys_320x50_html5_psd_Asset_Suite_Products_Toys_In_search_of_adventure___new_discoveries__0_Layer0_0_MEMBER_9_FILL"/>
</g>

<g transform="matrix( 0.5689849853515625, 0, 0, 0.567535400390625, -9.15,0.4) ">
<use xlink:href="#Suite_Toys_320x50_html5_psd_Asset_Suite_Products_Toys_In_search_of_adventure___new_discoveries__0_Layer0_0_MEMBER_10_FILL"/>
</g>

<g transform="matrix( 0.5689849853515625, 0, 0, 0.567535400390625, -9.15,0.4) ">
<use xlink:href="#Suite_Toys_320x50_html5_psd_Asset_Suite_Products_Toys_In_search_of_adventure___new_discoveries__0_Layer0_0_MEMBER_11_FILL"/>
</g>

<g transform="matrix( 0.5689849853515625, 0, 0, 0.567535400390625, -9.15,0.4) ">
<use xlink:href="#Suite_Toys_320x50_html5_psd_Asset_Suite_Products_Toys_In_search_of_adventure___new_discoveries__0_Layer0_0_MEMBER_12_FILL"/>
</g>

<g transform="matrix( 0.5689849853515625, 0, 0, 0.567535400390625, -9.15,0.4) ">
<use xlink:href="#Suite_Toys_320x50_html5_psd_Asset_Suite_Products_Toys_In_search_of_adventure___new_discoveries__0_Layer0_0_MEMBER_13_FILL"/>
</g>

<g transform="matrix( 0.5689849853515625, 0, 0, 0.567535400390625, -9.15,0.4) ">
<use xlink:href="#Suite_Toys_320x50_html5_psd_Asset_Suite_Products_Toys_In_search_of_adventure___new_discoveries__0_Layer0_0_MEMBER_14_FILL"/>
</g>

<g transform="matrix( 0.5689849853515625, 0, 0, 0.567535400390625, -9.15,0.4) ">
<use xlink:href="#Suite_Toys_320x50_html5_psd_Asset_Suite_Products_Toys_In_search_of_adventure___new_discoveries__0_Layer0_0_MEMBER_15_FILL"/>
</g>

<g transform="matrix( 0.5689849853515625, 0, 0, 0.567535400390625, -9.15,0.4) ">
<use xlink:href="#Suite_Toys_320x50_html5_psd_Asset_Suite_Products_Toys_In_search_of_adventure___new_discoveries__0_Layer0_0_MEMBER_16_FILL"/>
</g>

<g transform="matrix( 0.5689849853515625, 0, 0, 0.567535400390625, -9.15,0.4) ">
<use xlink:href="#Suite_Toys_320x50_html5_psd_Asset_Suite_Products_Toys_In_search_of_adventure___new_discoveries__0_Layer0_0_MEMBER_17_FILL"/>
</g>

<g transform="matrix( 0.5689849853515625, 0, 0, 0.567535400390625, -9.15,0.4) ">
<use xlink:href="#Suite_Toys_320x50_html5_psd_Asset_Suite_Products_Toys_In_search_of_adventure___new_discoveries__0_Layer0_0_MEMBER_18_FILL"/>
</g>

<g transform="matrix( 0.5689849853515625, 0, 0, 0.567535400390625, -9.15,0.4) ">
<use xlink:href="#Suite_Toys_320x50_html5_psd_Asset_Suite_Products_Toys_In_search_of_adventure___new_discoveries__0_Layer0_0_MEMBER_19_FILL"/>
</g>

<g transform="matrix( 0.5689849853515625, 0, 0, 0.567535400390625, -9.15,0.4) ">
<use xlink:href="#Suite_Toys_320x50_html5_psd_Asset_Suite_Products_Toys_In_search_of_adventure___new_discoveries__0_Layer0_0_MEMBER_20_FILL"/>
</g>

<g transform="matrix( 0.5689849853515625, 0, 0, 0.567535400390625, -9.15,0.4) ">
<use xlink:href="#Suite_Toys_320x50_html5_psd_Asset_Suite_Products_Toys_In_search_of_adventure___new_discoveries__0_Layer0_0_MEMBER_21_FILL"/>
</g>

<g transform="matrix( 0.5689849853515625, 0, 0, 0.567535400390625, -9.15,0.4) ">
<use xlink:href="#Suite_Toys_320x50_html5_psd_Asset_Suite_Products_Toys_In_search_of_adventure___new_discoveries__0_Layer0_0_MEMBER_22_FILL"/>
</g>

<g transform="matrix( 0.5689849853515625, 0, 0, 0.567535400390625, -9.15,0.4) ">
<use xlink:href="#Suite_Toys_320x50_html5_psd_Asset_Suite_Products_Toys_In_search_of_adventure___new_discoveries__0_Layer0_0_MEMBER_23_FILL"/>
</g>

<g transform="matrix( 0.5689849853515625, 0, 0, 0.567535400390625, -9.15,0.4) ">
<use xlink:href="#Suite_Toys_320x50_html5_psd_Asset_Suite_Products_Toys_In_search_of_adventure___new_discoveries__0_Layer0_0_MEMBER_24_FILL"/>
</g>

<g transform="matrix( 0.5689849853515625, 0, 0, 0.567535400390625, -9.15,0.4) ">
<use xlink:href="#Suite_Toys_320x50_html5_psd_Asset_Suite_Products_Toys_In_search_of_adventure___new_discoveries__0_Layer0_0_MEMBER_25_FILL"/>
</g>

<g transform="matrix( 0.5689849853515625, 0, 0, 0.567535400390625, -9.15,0.4) ">
<use xlink:href="#Suite_Toys_320x50_html5_psd_Asset_Suite_Products_Toys_In_search_of_adventure___new_discoveries__0_Layer0_0_MEMBER_26_FILL"/>
</g>

<g transform="matrix( 0.5689849853515625, 0, 0, 0.567535400390625, -9.15,0.4) ">
<use xlink:href="#Suite_Toys_320x50_html5_psd_Asset_Suite_Products_Toys_In_search_of_adventure___new_discoveries__0_Layer0_0_MEMBER_27_FILL"/>
</g>

<g transform="matrix( 0.5689849853515625, 0, 0, 0.567535400390625, -9.15,0.4) ">
<use xlink:href="#Suite_Toys_320x50_html5_psd_Asset_Suite_Products_Toys_In_search_of_adventure___new_discoveries__0_Layer0_0_MEMBER_28_FILL"/>
</g>

<g transform="matrix( 0.5689849853515625, 0, 0, 0.567535400390625, -9.15,0.4) ">
<use xlink:href="#Suite_Toys_320x50_html5_psd_Asset_Suite_Products_Toys_In_search_of_adventure___new_discoveries__0_Layer0_0_MEMBER_29_FILL"/>
</g>

<g transform="matrix( 0.5689849853515625, 0, 0, 0.567535400390625, -9.15,0.4) ">
<use xlink:href="#Suite_Toys_320x50_html5_psd_Asset_Suite_Products_Toys_In_search_of_adventure___new_discoveries__0_Layer0_0_MEMBER_30_FILL"/>
</g>

<g transform="matrix( 0.5689849853515625, 0, 0, 0.567535400390625, -9.15,0.4) ">
<use xlink:href="#Suite_Toys_320x50_html5_psd_Asset_Suite_Products_Toys_In_search_of_adventure___new_discoveries__0_Layer0_0_MEMBER_31_FILL"/>
</g>

<g transform="matrix( 0.5689849853515625, 0, 0, 0.567535400390625, -9.15,0.4) ">
<use xlink:href="#Suite_Toys_320x50_html5_psd_Asset_Suite_Products_Toys_In_search_of_adventure___new_discoveries__0_Layer0_0_MEMBER_32_FILL"/>
</g>

<g transform="matrix( 0.5689849853515625, 0, 0, 0.567535400390625, -9.15,0.4) ">
<use xlink:href="#Suite_Toys_320x50_html5_psd_Asset_Suite_Products_Toys_In_search_of_adventure___new_discoveries__0_Layer0_0_MEMBER_33_FILL"/>
</g>

<g transform="matrix( 0.5689849853515625, 0, 0, 0.567535400390625, -9.15,0.4) ">
<use xlink:href="#Suite_Toys_320x50_html5_psd_Asset_Suite_Products_Toys_In_search_of_adventure___new_discoveries__0_Layer0_0_MEMBER_34_FILL"/>
</g>
</g>
</svg>
