
<svg xmlns="http://www.w3.org/2000/svg" version="1.1" xmlns:xlink="http://www.w3.org/1999/xlink" preserveAspectRatio="none" x="0px" y="0px" width="300px" height="250px" viewBox="0 0 300 250">
<defs>
<g id="Suite_BabyGear_300x250_html5_psd_Asset_Suite_Products_Baby_Gear_footer_copy_CTA_Shop_now_0_Layer0_0_MEMBER_0_FILL">
<path fill="#FFFFFF" stroke="none" d="
M -45.3 -3.05
Q -45.3 -1.75 -43.8 -0.75 -42.25 0.25 -40.15 0.25 -37.9 0.25 -36.55 -0.85 -35.15 -2 -35.15 -4 -35.15 -5.8 -36.4 -6.9 -37.35 -7.65 -39.65 -8.45 -41 -8.95 -41.45 -9.35 -42.25 -9.9 -42.25 -10.7 -42.25 -12.45 -40 -12.45 -38.8 -12.45 -38.15 -12 -38.3 -11.55 -38.3 -11.35 -38.3 -10.75 -37.85 -10.35 -37.4 -9.9 -36.7 -9.9 -35.25 -9.9 -35.25 -11.5 -35.25 -12.8 -36.6 -13.7 -38 -14.6 -40 -14.6 -42.15 -14.6 -43.45 -13.4 -44.75 -12.25 -44.75 -10.5 -44.75 -8.7 -43.45 -7.65 -42.55 -6.9 -40.2 -6.05 -38.95 -5.6 -38.35 -5.2 -37.6 -4.6 -37.6 -3.8 -37.6 -1.85 -40.15 -1.85 -41.6 -1.85 -42.4 -2.5 -42.2 -3 -42.2 -3.35 -42.2 -3.9 -42.65 -4.3 -43.1 -4.75 -43.8 -4.75 -44.5 -4.75 -44.9 -4.3 -45.3 -3.85 -45.3 -3.05 Z"/>
</g>

<g id="Suite_BabyGear_300x250_html5_psd_Asset_Suite_Products_Baby_Gear_footer_copy_CTA_Shop_now_0_Layer0_0_MEMBER_1_FILL">
<path fill="#FFFFFF" stroke="none" d="
M -33.65 -13.95
L -32.25 -13.95 -32.25 -1.95 -33.65 -1.95 -33.65 0 -28.55 0 -28.55 -1.95 -29.85 -1.95 -29.85 -6.45
Q -28.45 -7.55 -27.4 -7.55 -26.7 -7.55 -26.35 -7.1 -26.05 -6.7 -26.05 -5.95
L -26.05 -1.95 -27.35 -1.95 -27.35 0 -22.25 0 -22.25 -1.95 -23.65 -1.95 -23.65 -6.55
Q -23.65 -7.8 -24.3 -8.7 -25.05 -9.7 -26.6 -9.7 -28.15 -9.7 -29.85 -8.1
L -29.85 -15.95 -33.65 -15.95 -33.65 -13.95 Z"/>
</g>

<g id="Suite_BabyGear_300x250_html5_psd_Asset_Suite_Products_Baby_Gear_footer_copy_CTA_Shop_now_0_Layer0_0_MEMBER_2_FILL">
<path fill="#FFFFFF" stroke="none" d="
M -16.25 -9.7
Q -18.5 -9.7 -19.95 -8.2 -21.3 -6.8 -21.3 -4.75 -21.3 -2.7 -19.95 -1.3 -18.55 0.15 -16.25 0.15 -14 0.15 -12.55 -1.3 -11.15 -2.75 -11.15 -4.75 -11.15 -6.8 -12.5 -8.2 -13.95 -9.7 -16.25 -9.7
M -18.15 -6.9
Q -17.4 -7.7 -16.25 -7.7 -15.1 -7.7 -14.35 -6.9 -13.6 -6.05 -13.6 -4.75 -13.6 -3.45 -14.35 -2.6 -15.1 -1.8 -16.25 -1.8 -17.4 -1.8 -18.15 -2.6 -18.85 -3.45 -18.85 -4.75 -18.85 -6.05 -18.15 -6.9 Z"/>
</g>

<g id="Suite_BabyGear_300x250_html5_psd_Asset_Suite_Products_Baby_Gear_footer_copy_CTA_Shop_now_0_Layer0_0_MEMBER_3_FILL">
<path fill="#FFFFFF" stroke="none" d="
M -0.25 -8.35
Q -1.45 -9.7 -3.35 -9.7 -4.9 -9.7 -6.15 -8.45
L -6.15 -9.55 -9.85 -9.55 -9.85 -7.55 -8.45 -7.55 -8.45 2.3 -9.85 2.3 -9.85 4.25 -4.55 4.25 -4.55 2.3 -6.1 2.3 -6.1 -0.75
Q -4.85 0.15 -3.5 0.15 -1.6 0.15 -0.3 -1.3 1 -2.75 1 -4.8 1 -6.95 -0.25 -8.35
M -3.85 -7.65
Q -2.8 -7.65 -2.1 -6.9 -1.4 -6.1 -1.4 -4.8 -1.4 -3.45 -2.15 -2.6 -2.85 -1.85 -3.85 -1.85 -4.9 -1.85 -6.1 -2.6
L -6.1 -6.7
Q -5 -7.65 -3.85 -7.65 Z"/>
</g>

<g id="Suite_BabyGear_300x250_html5_psd_Asset_Suite_Products_Baby_Gear_footer_copy_CTA_Shop_now_0_Layer0_0_MEMBER_4_FILL">
<path fill="#FFFFFF" stroke="none" d="
M 8.65 -1.95
L 7.2 -1.95 7.2 0 12.3 0 12.3 -1.95 11 -1.95 11 -6.45
Q 12.4 -7.55 13.45 -7.55 14.3 -7.55 14.65 -6.9 14.85 -6.5 14.85 -5.95
L 14.85 -1.95 13.5 -1.95 13.5 0 18.6 0 18.6 -1.95 17.2 -1.95 17.2 -6.55
Q 17.2 -7.7 16.7 -8.5 15.9 -9.7 14.25 -9.7 12.7 -9.7 10.9 -8
L 10.9 -9.55 7.2 -9.55 7.2 -7.55 8.65 -7.55 8.65 -1.95 Z"/>
</g>

<g id="Suite_BabyGear_300x250_html5_psd_Asset_Suite_Products_Baby_Gear_footer_copy_CTA_Shop_now_0_Layer0_0_MEMBER_5_FILL">
<path fill="#FFFFFF" stroke="none" d="
M 24.6 -9.7
Q 22.35 -9.7 20.9 -8.2 19.55 -6.8 19.55 -4.75 19.55 -2.7 20.9 -1.3 22.3 0.15 24.6 0.15 26.9 0.15 28.35 -1.3 29.7 -2.7 29.7 -4.75 29.7 -6.8 28.35 -8.2 26.9 -9.7 24.6 -9.7
M 22.7 -6.9
Q 23.45 -7.7 24.6 -7.7 25.75 -7.7 26.5 -6.9 27.25 -6.05 27.25 -4.75 27.25 -3.45 26.5 -2.6 25.75 -1.8 24.6 -1.8 23.45 -1.8 22.7 -2.6 22 -3.45 22 -4.75 22 -6.05 22.7 -6.9 Z"/>
</g>

<g id="Suite_BabyGear_300x250_html5_psd_Asset_Suite_Products_Baby_Gear_footer_copy_CTA_Shop_now_0_Layer0_0_MEMBER_6_FILL">
<path fill="#FFFFFF" stroke="none" d="
M 30.45 -7.55
L 31.85 -7.55 34.2 0.35 35.9 0.35 38.25 -5.45 40.65 0.35 42.3 0.35 44.65 -7.55 46.05 -7.55 46.05 -9.55 41.15 -9.55 41.15 -7.55 42.7 -7.55 41.4 -2.9 39.2 -8.55 37.55 -8.55 35.3 -2.9 34 -7.55 35.35 -7.55 35.35 -9.55 30.45 -9.55 30.45 -7.55 Z"/>
</g>
</defs>

<g transform="matrix( 1, 0, 0, 1, 116,209) ">
<g transform="matrix( 0.7608642578125, 0, 0, 0.7560882568359375, 34.3,11.75) ">
<use xlink:href="#Suite_BabyGear_300x250_html5_psd_Asset_Suite_Products_Baby_Gear_footer_copy_CTA_Shop_now_0_Layer0_0_MEMBER_0_FILL"/>
</g>

<g transform="matrix( 0.7608642578125, 0, 0, 0.7560882568359375, 34.3,11.75) ">
<use xlink:href="#Suite_BabyGear_300x250_html5_psd_Asset_Suite_Products_Baby_Gear_footer_copy_CTA_Shop_now_0_Layer0_0_MEMBER_1_FILL"/>
</g>

<g transform="matrix( 0.7608642578125, 0, 0, 0.7560882568359375, 34.3,11.75) ">
<use xlink:href="#Suite_BabyGear_300x250_html5_psd_Asset_Suite_Products_Baby_Gear_footer_copy_CTA_Shop_now_0_Layer0_0_MEMBER_2_FILL"/>
</g>

<g transform="matrix( 0.7608642578125, 0, 0, 0.7560882568359375, 34.3,11.75) ">
<use xlink:href="#Suite_BabyGear_300x250_html5_psd_Asset_Suite_Products_Baby_Gear_footer_copy_CTA_Shop_now_0_Layer0_0_MEMBER_3_FILL"/>
</g>

<g transform="matrix( 0.7608642578125, 0, 0, 0.7560882568359375, 34.3,11.75) ">
<use xlink:href="#Suite_BabyGear_300x250_html5_psd_Asset_Suite_Products_Baby_Gear_footer_copy_CTA_Shop_now_0_Layer0_0_MEMBER_4_FILL"/>
</g>

<g transform="matrix( 0.7608642578125, 0, 0, 0.7560882568359375, 34.3,11.75) ">
<use xlink:href="#Suite_BabyGear_300x250_html5_psd_Asset_Suite_Products_Baby_Gear_footer_copy_CTA_Shop_now_0_Layer0_0_MEMBER_5_FILL"/>
</g>

<g transform="matrix( 0.7608642578125, 0, 0, 0.7560882568359375, 34.3,11.75) ">
<use xlink:href="#Suite_BabyGear_300x250_html5_psd_Asset_Suite_Products_Baby_Gear_footer_copy_CTA_Shop_now_0_Layer0_0_MEMBER_6_FILL"/>
</g>
</g>
</svg>
