
<svg xmlns="http://www.w3.org/2000/svg" version="1.1" xmlns:xlink="http://www.w3.org/1999/xlink" preserveAspectRatio="none" x="0px" y="0px" width="300px" height="250px" viewBox="0 0 300 250">
<defs>
<g id="Suite_Toys_300x250_html5_psd_Asset_Suite_Products_Toys_images_3_in_1_Sit__Stride___Ride_Lion_0_Layer0_0_MEMBER_0_FILL">
<path fill="#6B6E71" stroke="none" d="
M 32.45 4.7
Q 32.45 3.85 31.75 3.25 31 2.65 29.9 2.65 28.3 2.65 27.65 3.6 27.4 4 27.4 4.35 27.4 5.2 28.15 5.2 28.85 5.2 28.85 4.5 28.85 4.15 28.6 4 28.9 3.6 29.85 3.6 31.35 3.6 31.35 4.7 31.35 5.35 30.65 5.8 29.95 6.15 29.2 6.15
L 28.85 6.15 28.85 7.05 29.15 7.05
Q 30.1 7.05 30.55 7.3 31.45 7.7 31.45 8.55 31.45 9.15 31 9.55 30.5 9.95 29.75 9.95 28.8 9.95 28.3 9.45 28.55 9.2 28.55 8.9 28.55 8.25 27.85 8.25 27.1 8.25 27.1 9.1 27.1 9.45 27.35 9.85 28 10.85 29.75 10.85 30.95 10.85 31.75 10.25 32.55 9.6 32.55 8.6 32.55 7.4 31.4 6.8
L 30.65 6.55
Q 31.1 6.45 31.45 6.25 32.45 5.65 32.45 4.7 Z"/>
</g>

<g id="Suite_Toys_300x250_html5_psd_Asset_Suite_Products_Toys_images_3_in_1_Sit__Stride___Ride_Lion_0_Layer0_0_MEMBER_1_FILL">
<path fill="#6B6E71" stroke="none" d="
M 33.5 5.15
L 33.5 6.3 36.75 6.3 36.75 5.15 33.5 5.15 Z"/>
</g>

<g id="Suite_Toys_300x250_html5_psd_Asset_Suite_Products_Toys_images_3_in_1_Sit__Stride___Ride_Lion_0_Layer0_0_MEMBER_2_FILL">
<path fill="#6B6E71" stroke="none" d="
M 38.25 1.85
Q 38.25 2.65 39.05 2.65 39.35 2.65 39.6 2.4 39.85 2.2 39.85 1.85 39.85 1.55 39.6 1.35 39.35 1.1 39.05 1.1 38.25 1.1 38.25 1.85
M 40.6 9.25
L 40.6 8.35 39.7 8.35 39.7 3.8 37.75 3.8 37.75 4.75 38.6 4.75 38.6 8.35 37.75 8.35 37.75 9.25 40.6 9.25 Z"/>
</g>

<g id="Suite_Toys_300x250_html5_psd_Asset_Suite_Products_Toys_images_3_in_1_Sit__Stride___Ride_Lion_0_Layer0_0_MEMBER_3_FILL">
<path fill="#6B6E71" stroke="none" d="
M 47.05 5.55
Q 47.05 4.85 46.75 4.4 46.35 3.7 45.35 3.7 44.3 3.7 43.35 4.75
L 43.35 3.8 41.45 3.8 41.45 4.75 42.3 4.75 42.3 8.35 41.45 8.35 41.45 9.25 44.2 9.25 44.2 8.35 43.4 8.35 43.4 5.55
Q 44.15 4.7 45 4.7 45.65 4.7 45.85 5.15
L 45.95 5.8 45.95 8.35 45.15 8.35 45.15 9.25 47.9 9.25 47.9 8.35 47.05 8.35 47.05 5.55 Z"/>
</g>

<g id="Suite_Toys_300x250_html5_psd_Asset_Suite_Products_Toys_images_3_in_1_Sit__Stride___Ride_Lion_0_Layer0_0_MEMBER_4_FILL">
<path fill="#6B6E71" stroke="none" d="
M 48.65 5.15
L 48.65 6.3 51.9 6.3 51.9 5.15 48.65 5.15 Z"/>
</g>

<g id="Suite_Toys_300x250_html5_psd_Asset_Suite_Products_Toys_images_3_in_1_Sit__Stride___Ride_Lion_0_Layer0_0_MEMBER_5_FILL">
<path fill="#6B6E71" stroke="none" d="
M 55.45 2.7
L 54.95 2.7 52.8 3.3 53.05 4.2 54.35 3.9 54.35 8.35 52.85 8.35 52.85 9.25 56.95 9.25 56.95 8.35 55.45 8.35 55.45 2.7 Z"/>
</g>

<g id="Suite_Toys_300x250_html5_psd_Asset_Suite_Products_Toys_images_3_in_1_Sit__Stride___Ride_Lion_0_Layer0_0_MEMBER_6_FILL">
<path fill="#6B6E71" stroke="none" d="
M 63.8 1.8
Q 64.6 1.8 65.05 2.15 64.9 2.3 64.9 2.6 64.9 3.3 65.65 3.3 66.4 3.3 66.4 2.5 66.4 1.8 65.65 1.3 64.9 0.8 63.8 0.8 62.6 0.8 61.9 1.45 61.15 2.05 61.15 3.05 61.15 4.05 61.9 4.7 62.4 5.1 63.75 5.6 65.4 6.3 65.4 7.1 65.4 8.4 63.7 8.4 62.75 8.4 62.2 7.95 62.35 7.75 62.35 7.4 62.35 6.7 61.6 6.7 60.85 6.7 60.85 7.6 60.85 8.3 61.65 8.85 62.5 9.4 63.7 9.4 64.95 9.4 65.7 8.75 66.5 8.1 66.5 7 66.5 6 65.8 5.4 65.25 4.95 64 4.5 63.15 4.15 62.8 3.9 62.3 3.5 62.3 2.95 62.3 2.45 62.7 2.15 63.15 1.8 63.8 1.8 Z"/>
</g>

<g id="Suite_Toys_300x250_html5_psd_Asset_Suite_Products_Toys_images_3_in_1_Sit__Stride___Ride_Lion_0_Layer0_0_MEMBER_7_FILL">
<path fill="#6B6E71" stroke="none" d="
M 67.7 3.8
L 67.7 4.75 68.6 4.75 68.6 8.35 67.7 8.35 67.7 9.25 70.55 9.25 70.55 8.35 69.65 8.35 69.65 3.8 67.7 3.8
M 69 1.1
Q 68.7 1.1 68.45 1.35 68.2 1.55 68.2 1.85 68.2 2.65 69 2.65 69.3 2.65 69.55 2.4 69.8 2.2 69.8 1.85 69.8 1.55 69.55 1.35 69.35 1.1 69 1.1 Z"/>
</g>

<g id="Suite_Toys_300x250_html5_psd_Asset_Suite_Products_Toys_images_3_in_1_Sit__Stride___Ride_Lion_0_Layer0_0_MEMBER_8_FILL">
<path fill="#6B6E71" stroke="none" d="
M 73.25 2.1
L 72.15 2.55 72.15 3.8 71.15 3.8 71.15 4.75 72.15 4.75 72.15 7.9
Q 72.15 8.35 72.3 8.7 72.65 9.35 73.65 9.35 74.25 9.35 74.85 9.05
L 74.95 8.05
Q 74.25 8.4 73.95 8.4 73.45 8.4 73.3 8.1
L 73.25 7.7 73.25 4.75 74.9 4.75 74.9 3.8 73.25 3.8 73.25 2.1 Z"/>
</g>

<g id="Suite_Toys_300x250_html5_psd_Asset_Suite_Products_Toys_images_3_in_1_Sit__Stride___Ride_Lion_0_Layer0_0_MEMBER_9_FILL">
<path fill="#6B6E71" stroke="none" d="
M 75.4 10.85
L 75.7 11.3
Q 77.7 10.15 77.7 8.65 77.7 7.55 76.75 7.55 76.4 7.55 76.15 7.8 75.9 8.05 75.9 8.4 75.9 9.1 76.6 9.25 76.6 9.95 75.4 10.85 Z"/>
</g>

<g id="Suite_Toys_300x250_html5_psd_Asset_Suite_Products_Toys_images_3_in_1_Sit__Stride___Ride_Lion_0_Layer0_0_MEMBER_10_FILL">
<path fill="#6B6E71" stroke="none" d="
M 87.25 2.5
Q 87.25 1.8 86.5 1.3 85.75 0.8 84.65 0.8 83.45 0.8 82.75 1.45 82 2.05 82 3.05 82 4.05 82.75 4.7 83.25 5.1 84.6 5.6 86.2 6.25 86.2 7.1 86.2 8.4 84.55 8.4 83.6 8.4 83.05 7.95 83.2 7.75 83.2 7.4 83.2 6.7 82.45 6.7 81.7 6.7 81.7 7.6 81.7 8.3 82.5 8.85 83.35 9.4 84.55 9.4 85.8 9.4 86.55 8.75 87.35 8.1 87.35 7 87.35 6 86.65 5.4 86.1 4.95 84.85 4.5 84 4.15 83.65 3.9 83.15 3.5 83.15 2.95 83.15 1.8 84.65 1.8 85.45 1.8 85.9 2.15 85.75 2.3 85.75 2.6 85.75 3.3 86.5 3.3 87.25 3.3 87.25 2.5 Z"/>
</g>

<g id="Suite_Toys_300x250_html5_psd_Asset_Suite_Products_Toys_images_3_in_1_Sit__Stride___Ride_Lion_0_Layer0_0_MEMBER_11_FILL">
<path fill="#6B6E71" stroke="none" d="
M 92 4.75
L 92 3.8 90.35 3.8 90.35 2.1 89.25 2.55 89.25 3.8 88.2 3.8 88.2 4.75 89.25 4.75 89.25 7.9
Q 89.25 8.35 89.4 8.7 89.75 9.35 90.7 9.35 91.35 9.35 91.95 9.05
L 92.05 8.05
Q 91.35 8.4 91.05 8.4 90.55 8.4 90.4 8.1
L 90.35 7.7 90.35 4.75 92 4.75 Z"/>
</g>

<g id="Suite_Toys_300x250_html5_psd_Asset_Suite_Products_Toys_images_3_in_1_Sit__Stride___Ride_Lion_0_Layer0_0_MEMBER_12_FILL">
<path fill="#6B6E71" stroke="none" d="
M 97.4 4.5
Q 97.4 3.7 96.5 3.7 95.6 3.7 94.8 5.05
L 94.8 3.8 92.95 3.8 92.95 4.75 93.75 4.75 93.75 8.35 92.95 8.35 92.95 9.25 95.85 9.25 95.85 8.35 94.85 8.35 94.85 5.85
Q 95.25 5.05 96 4.75 96.2 5.25 96.7 5.25 97.4 5.25 97.4 4.5 Z"/>
</g>

<g id="Suite_Toys_300x250_html5_psd_Asset_Suite_Products_Toys_images_3_in_1_Sit__Stride___Ride_Lion_0_Layer0_0_MEMBER_13_FILL">
<path fill="#6B6E71" stroke="none" d="
M 98.05 3.8
L 98.05 4.75 98.9 4.75 98.9 8.35 98.05 8.35 98.05 9.25 100.9 9.25 100.9 8.35 100 8.35 100 3.8 98.05 3.8
M 99.9 1.35
Q 99.65 1.1 99.35 1.1 98.55 1.1 98.55 1.85 98.55 2.65 99.35 2.65 99.65 2.65 99.9 2.4 100.15 2.2 100.15 1.85 100.15 1.55 99.9 1.35 Z"/>
</g>

<g id="Suite_Toys_300x250_html5_psd_Asset_Suite_Products_Toys_images_3_in_1_Sit__Stride___Ride_Lion_0_Layer0_0_MEMBER_14_FILL">
<path fill="#6B6E71" stroke="none" d="
M 104.45 3.7
Q 103.3 3.7 102.55 4.55 101.8 5.35 101.8 6.55 101.8 7.8 102.55 8.55 103.25 9.35 104.35 9.35 105.3 9.35 106.1 8.55
L 106.1 9.25 108 9.25 108 8.35 107.15 8.35 107.15 0 105.15 0 105.15 0.95 106.1 0.95 106.1 4.3
Q 105.4 3.7 104.45 3.7
M 104.6 4.65
Q 105.35 4.65 106.1 5.2
L 106.1 7.7
Q 105.4 8.4 104.55 8.4 103.85 8.4 103.4 7.9 102.9 7.4 102.9 6.55 102.95 5.7 103.4 5.15 103.9 4.65 104.6 4.65 Z"/>
</g>

<g id="Suite_Toys_300x250_html5_psd_Asset_Suite_Products_Toys_images_3_in_1_Sit__Stride___Ride_Lion_0_Layer0_0_MEMBER_15_FILL">
<path fill="#6B6E71" stroke="none" d="
M 113.85 7.85
Q 112.75 8.45 111.9 8.45 110.2 8.45 109.95 6.9
L 114.05 6.9 114.1 6.3
Q 114.1 5.2 113.45 4.5 112.75 3.7 111.5 3.7 110.3 3.7 109.55 4.55 108.8 5.35 108.8 6.55 108.8 7.8 109.6 8.55 110.45 9.35 111.75 9.35 112.95 9.35 113.75 8.85
L 113.85 7.85
M 111.5 4.6
Q 112.9 4.6 113 6.05
L 109.95 6.05
Q 110.2 4.6 111.5 4.6 Z"/>
</g>

<g id="Suite_Toys_300x250_html5_psd_Asset_Suite_Products_Toys_images_3_in_1_Sit__Stride___Ride_Lion_0_Layer0_0_MEMBER_16_FILL">
<path fill="#6B6E71" stroke="none" d="
M 42.4 15.1
Q 41.45 15.1 40.85 15.75 40.3 16.3 40.3 17.05 40.3 17.95 41.1 18.85 39.45 19.75 39.45 21.15 39.45 22.1 40.1 22.7 40.85 23.3 42.1 23.3 43.6 23.3 44.75 22.25
L 46 23.35 46.6 22.6 45.35 21.5
Q 45.8 20.75 46.1 19.8
L 46.85 19.8 46.85 18.85 44.5 18.85 44.5 19.75 45.2 19.75
Q 44.9 20.55 44.65 20.9
L 42.65 19.05
Q 44.4 18.05 44.4 16.85 44.4 16.05 43.85 15.6 43.3 15.1 42.4 15.1
M 42.05 18.45
Q 41.4 17.7 41.4 17.05 41.4 16.6 41.7 16.3 41.95 16 42.4 16 43.3 16 43.3 16.85 43.3 17.75 42.05 18.45
M 40.55 21.1
Q 40.55 20.2 41.7 19.45
L 44 21.6
Q 43.25 22.35 42.1 22.35 41.4 22.35 40.95 21.95 40.55 21.6 40.55 21.1 Z"/>
</g>

<g id="Suite_Toys_300x250_html5_psd_Asset_Suite_Products_Toys_images_3_in_1_Sit__Stride___Ride_Lion_0_Layer0_0_MEMBER_17_FILL">
<path fill="#6B6E71" stroke="none" d="
M 50.55 22.15
L 50.55 23.2 53.75 23.2 53.75 22.15 52.7 22.15 52.7 19.9 54.05 19.9 55.95 23.2 57.7 23.2 57.7 22.15 56.7 22.15 55.2 19.6
Q 56.85 19 56.85 17.3 56.85 16.15 56 15.5 55.15 14.85 53.75 14.85
L 50.55 14.85 50.55 15.9 51.55 15.9 51.55 22.15 50.55 22.15
M 52.7 15.9
L 53.65 15.9
Q 55.7 15.9 55.7 17.35 55.7 18.1 55.1 18.5 54.55 18.9 53.65 18.9
L 52.7 18.9 52.7 15.9 Z"/>
</g>

<g id="Suite_Toys_300x250_html5_psd_Asset_Suite_Products_Toys_images_3_in_1_Sit__Stride___Ride_Lion_0_Layer0_0_MEMBER_18_FILL">
<path fill="#6B6E71" stroke="none" d="
M 59.6 16.6
Q 59.95 16.6 60.15 16.35 60.4 16.1 60.4 15.8 60.4 15.45 60.2 15.25 59.95 15 59.65 15 58.85 15 58.85 15.8 58.85 16.1 59.1 16.35 59.3 16.6 59.6 16.6
M 61.15 23.2
L 61.15 22.25 60.3 22.25 60.3 17.75 58.3 17.75 58.3 18.65 59.2 18.65 59.2 22.25 58.3 22.25 58.3 23.2 61.15 23.2 Z"/>
</g>

<g id="Suite_Toys_300x250_html5_psd_Asset_Suite_Products_Toys_images_3_in_1_Sit__Stride___Ride_Lion_0_Layer0_0_MEMBER_19_FILL">
<path fill="#6B6E71" stroke="none" d="
M 66.35 14.85
L 66.35 18.2
Q 65.7 17.65 64.75 17.65 63.6 17.65 62.85 18.5 62.1 19.3 62.1 20.5 62.1 21.75 62.85 22.5 63.55 23.3 64.65 23.3 65.6 23.3 66.4 22.5
L 66.4 23.2 68.3 23.2 68.3 22.25 67.45 22.25 67.45 13.9 65.45 13.9 65.45 14.85 66.35 14.85
M 63.7 19.1
Q 64.15 18.6 64.85 18.6 65.7 18.6 66.35 19.1
L 66.35 21.65
Q 65.65 22.35 64.85 22.35 64.15 22.35 63.65 21.85 63.2 21.3 63.2 20.45 63.2 19.6 63.7 19.1 Z"/>
</g>

<g id="Suite_Toys_300x250_html5_psd_Asset_Suite_Products_Toys_images_3_in_1_Sit__Stride___Ride_Lion_0_Layer0_0_MEMBER_20_FILL">
<path fill="#6B6E71" stroke="none" d="
M 69.1 20.45
Q 69.1 21.75 69.9 22.5 70.7 23.3 72.05 23.3 73.1 23.3 74.05 22.75
L 74.15 21.75
Q 73.2 22.35 72.2 22.35 70.4 22.35 70.2 20.8
L 74.3 20.8 74.35 20.2
Q 74.35 19.15 73.7 18.4 73 17.65 71.8 17.65 70.6 17.65 69.85 18.5 69.1 19.3 69.1 20.45
M 71.75 18.55
Q 73.15 18.55 73.25 20
L 70.2 20
Q 70.4 18.55 71.75 18.55 Z"/>
</g>

<g id="Suite_Toys_300x250_html5_psd_Asset_Suite_Products_Toys_images_3_in_1_Sit__Stride___Ride_Lion_0_Layer0_0_MEMBER_21_FILL">
<path fill="#6B6E71" stroke="none" d="
M 81.5 15.9
L 81.5 14.85 78.2 14.85 78.2 15.9 79.2 15.9 79.2 22.15 78.2 22.15 78.2 23.2 84.1 23.2 84.1 20.95 83 20.95 83 22.15 80.35 22.15 80.35 15.9 81.5 15.9 Z"/>
</g>

<g id="Suite_Toys_300x250_html5_psd_Asset_Suite_Products_Toys_images_3_in_1_Sit__Stride___Ride_Lion_0_Layer0_0_MEMBER_22_FILL">
<path fill="#6B6E71" stroke="none" d="
M 85.1 22.25
L 85.1 23.2 87.95 23.2 87.95 22.25 87.1 22.25 87.1 17.75 85.1 17.75 85.1 18.65 86 18.65 86 22.25 85.1 22.25
M 86.4 16.6
Q 86.75 16.6 86.95 16.35 87.2 16.1 87.2 15.8 87.2 15.45 87 15.25 86.75 15 86.45 15 85.65 15 85.65 15.8 85.65 16.1 85.9 16.35 86.1 16.6 86.4 16.6 Z"/>
</g>

<g id="Suite_Toys_300x250_html5_psd_Asset_Suite_Products_Toys_images_3_in_1_Sit__Stride___Ride_Lion_0_Layer0_0_MEMBER_23_FILL">
<path fill="#6B6E71" stroke="none" d="
M 88.9 20.45
Q 88.9 21.65 89.65 22.45 90.45 23.3 91.75 23.3 93 23.3 93.8 22.45 94.6 21.65 94.6 20.45 94.6 19.25 93.8 18.45 93 17.65 91.75 17.65 90.5 17.65 89.65 18.5 88.9 19.3 88.9 20.45
M 90 20.45
Q 90 19.6 90.5 19.1 90.95 18.55 91.75 18.55 92.5 18.55 93 19.1 93.45 19.6 93.45 20.45 93.45 21.3 93 21.8 92.5 22.35 91.75 22.35 90.95 22.35 90.5 21.8 90 21.3 90 20.45 Z"/>
</g>

<g id="Suite_Toys_300x250_html5_psd_Asset_Suite_Products_Toys_images_3_in_1_Sit__Stride___Ride_Lion_0_Layer0_0_MEMBER_24_FILL">
<path fill="#6B6E71" stroke="none" d="
M 101.95 23.2
L 101.95 22.25 101.1 22.25 101.1 19.45
Q 101.1 18.9 100.85 18.3 100.35 17.65 99.4 17.65 98.35 17.65 97.4 18.7
L 97.4 17.75 95.55 17.75 95.55 18.65 96.4 18.65 96.4 22.25 95.55 22.25 95.55 23.2 98.25 23.2 98.25 22.25 97.45 22.25 97.45 19.45
Q 98.35 18.65 99.1 18.65 99.7 18.65 99.9 19.05 100.05 19.3 100.05 19.7
L 100.05 22.25 99.2 22.25 99.2 23.2 101.95 23.2 Z"/>
</g>
</defs>

<g transform="matrix( 1, 0, 0, 1, 186,220) ">
<g transform="matrix( 0.8753509521484375, 0, 0, 0.874847412109375, -23.5,0.35) ">
<use xlink:href="#Suite_Toys_300x250_html5_psd_Asset_Suite_Products_Toys_images_3_in_1_Sit__Stride___Ride_Lion_0_Layer0_0_MEMBER_0_FILL"/>
</g>

<g transform="matrix( 0.8753509521484375, 0, 0, 0.874847412109375, -23.5,0.35) ">
<use xlink:href="#Suite_Toys_300x250_html5_psd_Asset_Suite_Products_Toys_images_3_in_1_Sit__Stride___Ride_Lion_0_Layer0_0_MEMBER_1_FILL"/>
</g>

<g transform="matrix( 0.8753509521484375, 0, 0, 0.874847412109375, -23.5,0.35) ">
<use xlink:href="#Suite_Toys_300x250_html5_psd_Asset_Suite_Products_Toys_images_3_in_1_Sit__Stride___Ride_Lion_0_Layer0_0_MEMBER_2_FILL"/>
</g>

<g transform="matrix( 0.8753509521484375, 0, 0, 0.874847412109375, -23.5,0.35) ">
<use xlink:href="#Suite_Toys_300x250_html5_psd_Asset_Suite_Products_Toys_images_3_in_1_Sit__Stride___Ride_Lion_0_Layer0_0_MEMBER_3_FILL"/>
</g>

<g transform="matrix( 0.8753509521484375, 0, 0, 0.874847412109375, -23.5,0.35) ">
<use xlink:href="#Suite_Toys_300x250_html5_psd_Asset_Suite_Products_Toys_images_3_in_1_Sit__Stride___Ride_Lion_0_Layer0_0_MEMBER_4_FILL"/>
</g>

<g transform="matrix( 0.8753509521484375, 0, 0, 0.874847412109375, -23.5,0.35) ">
<use xlink:href="#Suite_Toys_300x250_html5_psd_Asset_Suite_Products_Toys_images_3_in_1_Sit__Stride___Ride_Lion_0_Layer0_0_MEMBER_5_FILL"/>
</g>

<g transform="matrix( 0.8753509521484375, 0, 0, 0.874847412109375, -23.5,0.35) ">
<use xlink:href="#Suite_Toys_300x250_html5_psd_Asset_Suite_Products_Toys_images_3_in_1_Sit__Stride___Ride_Lion_0_Layer0_0_MEMBER_6_FILL"/>
</g>

<g transform="matrix( 0.8753509521484375, 0, 0, 0.874847412109375, -23.5,0.35) ">
<use xlink:href="#Suite_Toys_300x250_html5_psd_Asset_Suite_Products_Toys_images_3_in_1_Sit__Stride___Ride_Lion_0_Layer0_0_MEMBER_7_FILL"/>
</g>

<g transform="matrix( 0.8753509521484375, 0, 0, 0.874847412109375, -23.5,0.35) ">
<use xlink:href="#Suite_Toys_300x250_html5_psd_Asset_Suite_Products_Toys_images_3_in_1_Sit__Stride___Ride_Lion_0_Layer0_0_MEMBER_8_FILL"/>
</g>

<g transform="matrix( 0.8753509521484375, 0, 0, 0.874847412109375, -23.5,0.35) ">
<use xlink:href="#Suite_Toys_300x250_html5_psd_Asset_Suite_Products_Toys_images_3_in_1_Sit__Stride___Ride_Lion_0_Layer0_0_MEMBER_9_FILL"/>
</g>

<g transform="matrix( 0.8753509521484375, 0, 0, 0.874847412109375, -23.5,0.35) ">
<use xlink:href="#Suite_Toys_300x250_html5_psd_Asset_Suite_Products_Toys_images_3_in_1_Sit__Stride___Ride_Lion_0_Layer0_0_MEMBER_10_FILL"/>
</g>

<g transform="matrix( 0.8753509521484375, 0, 0, 0.874847412109375, -23.5,0.35) ">
<use xlink:href="#Suite_Toys_300x250_html5_psd_Asset_Suite_Products_Toys_images_3_in_1_Sit__Stride___Ride_Lion_0_Layer0_0_MEMBER_11_FILL"/>
</g>

<g transform="matrix( 0.8753509521484375, 0, 0, 0.874847412109375, -23.5,0.35) ">
<use xlink:href="#Suite_Toys_300x250_html5_psd_Asset_Suite_Products_Toys_images_3_in_1_Sit__Stride___Ride_Lion_0_Layer0_0_MEMBER_12_FILL"/>
</g>

<g transform="matrix( 0.8753509521484375, 0, 0, 0.874847412109375, -23.5,0.35) ">
<use xlink:href="#Suite_Toys_300x250_html5_psd_Asset_Suite_Products_Toys_images_3_in_1_Sit__Stride___Ride_Lion_0_Layer0_0_MEMBER_13_FILL"/>
</g>

<g transform="matrix( 0.8753509521484375, 0, 0, 0.874847412109375, -23.5,0.35) ">
<use xlink:href="#Suite_Toys_300x250_html5_psd_Asset_Suite_Products_Toys_images_3_in_1_Sit__Stride___Ride_Lion_0_Layer0_0_MEMBER_14_FILL"/>
</g>

<g transform="matrix( 0.8753509521484375, 0, 0, 0.874847412109375, -23.5,0.35) ">
<use xlink:href="#Suite_Toys_300x250_html5_psd_Asset_Suite_Products_Toys_images_3_in_1_Sit__Stride___Ride_Lion_0_Layer0_0_MEMBER_15_FILL"/>
</g>

<g transform="matrix( 0.8753509521484375, 0, 0, 0.874847412109375, -23.5,0.35) ">
<use xlink:href="#Suite_Toys_300x250_html5_psd_Asset_Suite_Products_Toys_images_3_in_1_Sit__Stride___Ride_Lion_0_Layer0_0_MEMBER_16_FILL"/>
</g>

<g transform="matrix( 0.8753509521484375, 0, 0, 0.874847412109375, -23.5,0.35) ">
<use xlink:href="#Suite_Toys_300x250_html5_psd_Asset_Suite_Products_Toys_images_3_in_1_Sit__Stride___Ride_Lion_0_Layer0_0_MEMBER_17_FILL"/>
</g>

<g transform="matrix( 0.8753509521484375, 0, 0, 0.874847412109375, -23.5,0.35) ">
<use xlink:href="#Suite_Toys_300x250_html5_psd_Asset_Suite_Products_Toys_images_3_in_1_Sit__Stride___Ride_Lion_0_Layer0_0_MEMBER_18_FILL"/>
</g>

<g transform="matrix( 0.8753509521484375, 0, 0, 0.874847412109375, -23.5,0.35) ">
<use xlink:href="#Suite_Toys_300x250_html5_psd_Asset_Suite_Products_Toys_images_3_in_1_Sit__Stride___Ride_Lion_0_Layer0_0_MEMBER_19_FILL"/>
</g>

<g transform="matrix( 0.8753509521484375, 0, 0, 0.874847412109375, -23.5,0.35) ">
<use xlink:href="#Suite_Toys_300x250_html5_psd_Asset_Suite_Products_Toys_images_3_in_1_Sit__Stride___Ride_Lion_0_Layer0_0_MEMBER_20_FILL"/>
</g>

<g transform="matrix( 0.8753509521484375, 0, 0, 0.874847412109375, -23.5,0.35) ">
<use xlink:href="#Suite_Toys_300x250_html5_psd_Asset_Suite_Products_Toys_images_3_in_1_Sit__Stride___Ride_Lion_0_Layer0_0_MEMBER_21_FILL"/>
</g>

<g transform="matrix( 0.8753509521484375, 0, 0, 0.874847412109375, -23.5,0.35) ">
<use xlink:href="#Suite_Toys_300x250_html5_psd_Asset_Suite_Products_Toys_images_3_in_1_Sit__Stride___Ride_Lion_0_Layer0_0_MEMBER_22_FILL"/>
</g>

<g transform="matrix( 0.8753509521484375, 0, 0, 0.874847412109375, -23.5,0.35) ">
<use xlink:href="#Suite_Toys_300x250_html5_psd_Asset_Suite_Products_Toys_images_3_in_1_Sit__Stride___Ride_Lion_0_Layer0_0_MEMBER_23_FILL"/>
</g>

<g transform="matrix( 0.8753509521484375, 0, 0, 0.874847412109375, -23.5,0.35) ">
<use xlink:href="#Suite_Toys_300x250_html5_psd_Asset_Suite_Products_Toys_images_3_in_1_Sit__Stride___Ride_Lion_0_Layer0_0_MEMBER_24_FILL"/>
</g>
</g>
</svg>
