
<svg xmlns="http://www.w3.org/2000/svg" version="1.1" xmlns:xlink="http://www.w3.org/1999/xlink" preserveAspectRatio="none" x="0px" y="0px" width="160px" height="600px" viewBox="0 0 160 600">
<defs>
<g id="Suite_Toys_160x600_html5_psd_Asset_Suite_Products_Toys_text_Little_People__Animal_Friends_Farm___0_Layer0_0_MEMBER_0_FILL">
<path fill="#6B6E71" stroke="none" d="
M 16.05 1.95
L 16.05 0.95 12.75 0.95 12.75 1.95 13.75 1.95 13.75 8.25 12.75 8.25 12.75 9.25 18.65 9.25 18.65 7 17.55 7 17.55 8.25 14.9 8.25 14.9 1.95 16.05 1.95 Z"/>
</g>

<g id="Suite_Toys_160x600_html5_psd_Asset_Suite_Products_Toys_text_Little_People__Animal_Friends_Farm___0_Layer0_0_MEMBER_1_FILL">
<path fill="#6B6E71" stroke="none" d="
M 20.95 2.65
Q 21.75 2.65 21.75 1.85 21.75 1.55 21.55 1.35 21.3 1.1 21 1.1 20.65 1.1 20.45 1.35 20.2 1.55 20.2 1.85 20.2 2.65 20.95 2.65
M 20.55 4.75
L 20.55 8.35 19.65 8.35 19.65 9.25 22.5 9.25 22.5 8.35 21.65 8.35 21.65 3.8 19.65 3.8 19.65 4.75 20.55 4.75 Z"/>
</g>

<g id="Suite_Toys_160x600_html5_psd_Asset_Suite_Products_Toys_text_Little_People__Animal_Friends_Farm___0_Layer0_0_MEMBER_2_FILL">
<path fill="#6B6E71" stroke="none" d="
M 26.85 4.75
L 26.85 3.8 25.2 3.8 25.2 2.1 24.1 2.55 24.1 3.8 23.1 3.8 23.1 4.75 24.1 4.75 24.1 7.9
Q 24.1 8.2 24.3 8.7 24.6 9.35 25.6 9.35 26.2 9.35 26.8 9.05
L 26.95 8.05
Q 26.15 8.4 25.9 8.4 25.45 8.4 25.3 8.1
L 25.2 7.7 25.2 4.75 26.85 4.75 Z"/>
</g>

<g id="Suite_Toys_160x600_html5_psd_Asset_Suite_Products_Toys_text_Little_People__Animal_Friends_Farm___0_Layer0_0_MEMBER_3_FILL">
<path fill="#6B6E71" stroke="none" d="
M 31.25 4.75
L 31.25 3.8 29.6 3.8 29.6 2.1 28.5 2.55 28.5 3.8 27.5 3.8 27.5 4.75 28.5 4.75 28.5 7.9
Q 28.5 8.2 28.7 8.7 29 9.35 30 9.35 30.55 9.35 31.25 9.05
L 31.35 8.05
Q 30.55 8.4 30.3 8.4 29.85 8.4 29.7 8.1
L 29.6 7.7 29.6 4.75 31.25 4.75 Z"/>
</g>

<g id="Suite_Toys_160x600_html5_psd_Asset_Suite_Products_Toys_text_Little_People__Animal_Friends_Farm___0_Layer0_0_MEMBER_4_FILL">
<path fill="#6B6E71" stroke="none" d="
M 33.95 0
L 31.95 0 31.95 0.95 32.85 0.95 32.85 8.35 31.95 8.35 31.95 9.25 34.8 9.25 34.8 8.35 33.95 8.35 33.95 0 Z"/>
</g>

<g id="Suite_Toys_160x600_html5_psd_Asset_Suite_Products_Toys_text_Little_People__Animal_Friends_Farm___0_Layer0_0_MEMBER_5_FILL">
<path fill="#6B6E71" stroke="none" d="
M 40.65 8.85
L 40.7 7.85
Q 39.6 8.45 38.8 8.45 37.05 8.45 36.8 6.9
L 40.9 6.9 40.95 6.3
Q 40.95 5.2 40.3 4.5 39.6 3.7 38.4 3.7 37.15 3.7 36.4 4.55 35.65 5.35 35.65 6.55 35.65 7.8 36.45 8.55 37.3 9.35 38.6 9.35 39.8 9.35 40.65 8.85
M 38.35 4.6
Q 39.75 4.6 39.85 6.05
L 36.8 6.05
Q 37.05 4.6 38.35 4.6 Z"/>
</g>

<g id="Suite_Toys_160x600_html5_psd_Asset_Suite_Products_Toys_text_Little_People__Animal_Friends_Farm___0_Layer0_0_MEMBER_6_FILL">
<path fill="#6B6E71" stroke="none" d="
M 50.25 1.65
Q 49.4 0.95 48.05 0.95
L 44.8 0.95 44.8 1.95 45.8 1.95 45.8 8.25 44.8 8.25 44.8 9.25 48.05 9.25 48.05 8.25 46.95 8.25 46.95 6.35 47.95 6.35
Q 49.4 6.35 50.25 5.65 51.15 4.9 51.15 3.6 51.15 2.4 50.25 1.65
M 50 3.6
Q 50 5.35 48.05 5.35
L 46.95 5.35 46.95 1.95 48 1.95
Q 48.9 1.95 49.45 2.4 50 2.85 50 3.6 Z"/>
</g>

<g id="Suite_Toys_160x600_html5_psd_Asset_Suite_Products_Toys_text_Little_People__Animal_Friends_Farm___0_Layer0_0_MEMBER_7_FILL">
<path fill="#6B6E71" stroke="none" d="
M 54.6 3.7
Q 53.4 3.7 52.65 4.55 51.9 5.35 51.9 6.55 51.9 7.8 52.7 8.55 53.5 9.35 54.8 9.35 56 9.35 56.85 8.85
L 56.9 7.85
Q 55.85 8.45 55 8.45 53.25 8.45 53 6.9
L 57.1 6.9 57.15 6.3
Q 57.15 5.2 56.5 4.5 55.8 3.7 54.6 3.7
M 53 6.05
Q 53.25 4.6 54.55 4.6 55.95 4.6 56.05 6.05
L 53 6.05 Z"/>
</g>

<g id="Suite_Toys_160x600_html5_psd_Asset_Suite_Products_Toys_text_Little_People__Animal_Friends_Farm___0_Layer0_0_MEMBER_8_FILL">
<path fill="#6B6E71" stroke="none" d="
M 60.95 9.35
Q 62.25 9.35 63.05 8.5 63.8 7.7 63.8 6.55 63.8 5.35 63.05 4.55 62.25 3.7 60.95 3.7 59.7 3.7 58.9 4.55 58.1 5.35 58.1 6.55 58.1 7.7 58.85 8.5 59.7 9.35 60.95 9.35
M 62.2 7.9
Q 61.7 8.45 60.95 8.45 60.2 8.45 59.75 7.9 59.25 7.4 59.25 6.55 59.25 5.7 59.75 5.2 60.2 4.65 60.95 4.65 61.7 4.65 62.2 5.2 62.7 5.75 62.7 6.55 62.7 7.35 62.2 7.9 Z"/>
</g>

<g id="Suite_Toys_160x600_html5_psd_Asset_Suite_Products_Toys_text_Little_People__Animal_Friends_Farm___0_Layer0_0_MEMBER_9_FILL">
<path fill="#6B6E71" stroke="none" d="
M 66.55 4.5
L 66.55 3.8 64.65 3.8 64.65 4.75 65.5 4.75 65.5 10.85 64.65 10.85 64.65 11.75 67.6 11.75 67.6 10.85 66.6 10.85 66.6 8.8
Q 67.3 9.35 68.2 9.35 69.35 9.35 70.1 8.5 70.85 7.7 70.85 6.5 70.85 5.25 70.1 4.5 69.4 3.7 68.3 3.7 67.35 3.7 66.55 4.5
M 68.1 4.65
Q 68.8 4.65 69.25 5.15 69.7 5.7 69.7 6.5 69.7 7.35 69.25 7.9 68.75 8.4 68.05 8.4 67.25 8.4 66.6 7.9
L 66.6 5.35
Q 67.3 4.65 68.1 4.65 Z"/>
</g>

<g id="Suite_Toys_160x600_html5_psd_Asset_Suite_Products_Toys_text_Little_People__Animal_Friends_Farm___0_Layer0_0_MEMBER_10_FILL">
<path fill="#6B6E71" stroke="none" d="
M 73.7 0
L 71.75 0 71.75 0.95 72.6 0.95 72.6 8.35 71.75 8.35 71.75 9.25 74.55 9.25 74.55 8.35 73.7 8.35 73.7 0 Z"/>
</g>

<g id="Suite_Toys_160x600_html5_psd_Asset_Suite_Products_Toys_text_Little_People__Animal_Friends_Farm___0_Layer0_0_MEMBER_11_FILL">
<path fill="#6B6E71" stroke="none" d="
M 80.05 4.5
Q 79.35 3.7 78.15 3.7 76.95 3.7 76.2 4.55 75.45 5.35 75.45 6.55 75.45 7.8 76.25 8.55 77.05 9.35 78.4 9.35 79.55 9.35 80.4 8.85
L 80.5 7.85
Q 79.4 8.45 78.55 8.45 76.85 8.45 76.55 6.9
L 80.65 6.9 80.7 6.3
Q 80.7 5.2 80.05 4.5
M 76.55 6.05
Q 76.8 4.6 78.1 4.6 79.5 4.6 79.6 6.05
L 76.55 6.05 Z"/>
</g>

<g id="Suite_Toys_160x600_html5_psd_Asset_Suite_Products_Toys_text_Little_People__Animal_Friends_Farm___0_Layer0_0_MEMBER_12_FILL">
<path fill="#6B6E71" stroke="none" d="
M 85.3 1.15
Q 84.65 0.5 83.7 0.5 82.75 0.5 82.05 1.15 81.4 1.8 81.4 2.75 81.4 3.7 82.05 4.35 82.75 5 83.7 5 84.65 5 85.3 4.35 85.95 3.7 85.95 2.75 85.95 1.8 85.3 1.15
M 84.95 1.45
Q 85.5 2 85.5 2.75 85.5 3.55 84.95 4.05 84.45 4.6 83.7 4.6 82.95 4.6 82.45 4.05 81.9 3.55 81.9 2.75 81.9 1.95 82.45 1.45 82.95 0.95 83.7 0.95 84.45 0.95 84.95 1.45
M 84.55 2.3
Q 84.55 1.65 83.7 1.65
L 82.8 1.65 82.8 2.05 83.05 2.05 83.05 3.4 82.8 3.4 82.8 3.8 83.7 3.8 83.7 3.4 83.45 3.4 83.45 3 83.75 3 84.15 3.8 84.65 3.8 84.65 3.4 84.45 3.4 84.15 2.9
Q 84.55 2.7 84.55 2.3
M 84.1 2.35
Q 84.1 2.65 83.65 2.65
L 83.45 2.65 83.45 2.05 83.65 2.05
Q 84.1 2.05 84.1 2.35 Z"/>
</g>

<g id="Suite_Toys_160x600_html5_psd_Asset_Suite_Products_Toys_text_Little_People__Animal_Friends_Farm___0_Layer0_0_MEMBER_13_FILL">
<path fill="#6B6E71" stroke="none" d="
M 91.4 1.95
L 92.3 1.95 90 8.25 89.25 8.25 89.25 9.25 92.2 9.25 92.2 8.25 91.2 8.25 91.8 6.5 95.1 6.5 95.7 8.25 94.75 8.25 94.75 9.25 97.7 9.25 97.7 8.25 96.95 8.25 94.65 1.95 95.55 1.95 95.55 0.95 91.4 0.95 91.4 1.95
M 94.75 5.55
L 92.15 5.55 93.45 1.9 94.75 5.55 Z"/>
</g>

<g id="Suite_Toys_160x600_html5_psd_Asset_Suite_Products_Toys_text_Little_People__Animal_Friends_Farm___0_Layer0_0_MEMBER_14_FILL">
<path fill="#6B6E71" stroke="none" d="
M 103.7 4.4
Q 103.25 3.7 102.25 3.7 101.3 3.7 100.25 4.75
L 100.25 3.8 98.4 3.8 98.4 4.75 99.25 4.75 99.25 8.35 98.4 8.35 98.4 9.25 101.1 9.25 101.1 8.35 100.3 8.35 100.3 5.55
Q 101.15 4.7 101.95 4.7 102.55 4.7 102.75 5.15 102.9 5.4 102.9 5.8
L 102.9 8.35 102.05 8.35 102.05 9.25 104.8 9.25 104.8 8.35 103.95 8.35 103.95 5.55
Q 103.95 4.9 103.7 4.4 Z"/>
</g>

<g id="Suite_Toys_160x600_html5_psd_Asset_Suite_Products_Toys_text_Little_People__Animal_Friends_Farm___0_Layer0_0_MEMBER_15_FILL">
<path fill="#6B6E71" stroke="none" d="
M 105.55 3.8
L 105.55 4.75 106.45 4.75 106.45 8.35 105.55 8.35 105.55 9.25 108.4 9.25 108.4 8.35 107.55 8.35 107.55 3.8 105.55 3.8
M 106.85 2.65
Q 107.65 2.65 107.65 1.85 107.65 1.55 107.45 1.35 107.2 1.1 106.9 1.1 106.1 1.1 106.1 1.85 106.1 2.2 106.35 2.4 106.55 2.65 106.85 2.65 Z"/>
</g>

<g id="Suite_Toys_160x600_html5_psd_Asset_Suite_Products_Toys_text_Little_People__Animal_Friends_Farm___0_Layer0_0_MEMBER_16_FILL">
<path fill="#6B6E71" stroke="none" d="
M 118.05 4.5
Q 117.65 3.7 116.5 3.7 115.6 3.7 114.6 4.7
L 114.45 4.35
Q 113.95 3.7 113.1 3.7 112.15 3.7 111.2 4.75
L 111.2 3.8 109.3 3.8 109.3 4.75 110.15 4.75 110.15 8.35 109.3 8.35 109.3 9.25 112 9.25 112 8.35 111.2 8.35 111.2 5.5
Q 112.1 4.7 112.8 4.7 113.35 4.7 113.55 5.15
L 113.65 5.75 113.65 8.35 112.85 8.35 112.85 9.25 115.55 9.25 115.55 8.35 114.75 8.35 114.75 5.5
Q 115.55 4.7 116.3 4.7 116.9 4.7 117.05 5.15
L 117.15 5.75 117.15 8.35 116.35 8.35 116.35 9.25 119.1 9.25 119.1 8.35 118.25 8.35 118.25 5.55
Q 118.25 5.1 118.05 4.5 Z"/>
</g>

<g id="Suite_Toys_160x600_html5_psd_Asset_Suite_Products_Toys_text_Little_People__Animal_Friends_Farm___0_Layer0_0_MEMBER_17_FILL">
<path fill="#6B6E71" stroke="none" d="
M 123.15 5
Q 123.4 5.35 123.4 5.75
L 123.4 6.4
Q 122.65 6.15 121.9 6.15 120.95 6.15 120.4 6.6 119.8 7.05 119.8 7.8 119.8 9.35 121.55 9.35 122.6 9.35 123.45 8.6
L 123.45 9.25 125.3 9.25 125.3 8.35 124.45 8.35 124.45 5.65
Q 124.45 4.9 124.05 4.4 123.5 3.7 122.2 3.7 121.2 3.7 120.65 4.15 120.1 4.5 120.1 5 120.1 5.65 120.75 5.65 121.4 5.65 121.4 5.05
L 121.3 4.75
Q 121.6 4.6 122.05 4.6 122.9 4.6 123.15 5
M 123.4 7.9
Q 122.65 8.55 121.9 8.55 120.9 8.55 120.9 7.7 120.9 6.8 122.1 6.8 122.7 6.8 123.4 7
L 123.4 7.9 Z"/>
</g>

<g id="Suite_Toys_160x600_html5_psd_Asset_Suite_Products_Toys_text_Little_People__Animal_Friends_Farm___0_Layer0_0_MEMBER_18_FILL">
<path fill="#6B6E71" stroke="none" d="
M 125.85 0
L 125.85 0.95 126.75 0.95 126.75 8.35 125.85 8.35 125.85 9.25 128.7 9.25 128.7 8.35 127.85 8.35 127.85 0 125.85 0 Z"/>
</g>

<g id="Suite_Toys_160x600_html5_psd_Asset_Suite_Products_Toys_text_Little_People__Animal_Friends_Farm___0_Layer0_0_MEMBER_19_FILL">
<path fill="#6B6E71" stroke="none" d="
M 41.05 17.05
L 41.05 14.85 35 14.85 35 15.9 36 15.9 36 22.15 35 22.15 35 23.2 38.3 23.2 38.3 22.15 37.15 22.15 37.15 19.6 39.75 19.6 39.75 18.6 37.15 18.6 37.15 15.85 39.95 15.85 39.95 17.05 41.05 17.05 Z"/>
</g>

<g id="Suite_Toys_160x600_html5_psd_Asset_Suite_Products_Toys_text_Little_People__Animal_Friends_Farm___0_Layer0_0_MEMBER_20_FILL">
<path fill="#6B6E71" stroke="none" d="
M 43.4 17.75
L 41.55 17.75 41.55 18.65 42.35 18.65 42.35 22.25 41.55 22.25 41.55 23.2 44.45 23.2 44.45 22.25 43.45 22.25 43.45 19.8
Q 43.85 18.9 44.6 18.7 44.8 19.15 45.3 19.15 46 19.15 46 18.4 46 17.65 45.1 17.65 44.2 17.65 43.4 18.95
L 43.4 17.75 Z"/>
</g>

<g id="Suite_Toys_160x600_html5_psd_Asset_Suite_Products_Toys_text_Little_People__Animal_Friends_Farm___0_Layer0_0_MEMBER_21_FILL">
<path fill="#6B6E71" stroke="none" d="
M 47.95 16.6
Q 48.25 16.6 48.5 16.35 48.75 16.1 48.75 15.8 48.75 15.45 48.5 15.25 48.25 15 47.95 15 47.15 15 47.15 15.8 47.15 16.1 47.4 16.35 47.6 16.6 47.95 16.6
M 48.6 17.75
L 46.65 17.75 46.65 18.65 47.5 18.65 47.5 22.25 46.65 22.25 46.65 23.2 49.5 23.2 49.5 22.25 48.6 22.25 48.6 17.75 Z"/>
</g>

<g id="Suite_Toys_160x600_html5_psd_Asset_Suite_Products_Toys_text_Little_People__Animal_Friends_Farm___0_Layer0_0_MEMBER_22_FILL">
<path fill="#6B6E71" stroke="none" d="
M 55 18.4
Q 54.3 17.65 53.1 17.65 51.9 17.65 51.15 18.5 50.4 19.3 50.4 20.45 50.4 21.75 51.2 22.5 52 23.3 53.35 23.3 54.4 23.3 55.35 22.75
L 55.45 21.75
Q 54.5 22.35 53.5 22.35 51.7 22.35 51.5 20.8
L 55.6 20.8 55.65 20.2
Q 55.65 19.15 55 18.4
M 54.55 20
L 51.5 20
Q 51.7 18.55 53.05 18.55 54.45 18.55 54.55 20 Z"/>
</g>

<g id="Suite_Toys_160x600_html5_psd_Asset_Suite_Products_Toys_text_Little_People__Animal_Friends_Farm___0_Layer0_0_MEMBER_23_FILL">
<path fill="#6B6E71" stroke="none" d="
M 62.15 19.45
Q 62.15 18.9 61.9 18.3 61.4 17.65 60.45 17.65 59.4 17.65 58.45 18.7
L 58.45 17.75 56.6 17.75 56.6 18.65 57.45 18.65 57.45 22.25 56.6 22.25 56.6 23.2 59.3 23.2 59.3 22.25 58.5 22.25 58.5 19.45
Q 59.3 18.65 60.15 18.65 60.75 18.65 60.95 19.05 61.05 19.2 61.05 19.7
L 61.05 22.25 60.25 22.25 60.25 23.2 63 23.2 63 22.25 62.15 22.25 62.15 19.45 Z"/>
</g>

<g id="Suite_Toys_160x600_html5_psd_Asset_Suite_Products_Toys_text_Little_People__Animal_Friends_Farm___0_Layer0_0_MEMBER_24_FILL">
<path fill="#6B6E71" stroke="none" d="
M 67.95 18.2
Q 67.3 17.65 66.35 17.65 65.2 17.65 64.45 18.5 63.7 19.3 63.7 20.5 63.7 21.75 64.45 22.5 65.15 23.3 66.25 23.3 67.25 23.3 67.95 22.5
L 67.95 23.2 69.9 23.2 69.9 22.25 69.05 22.25 69.05 13.9 67 13.9 67 14.85 67.95 14.85 67.95 18.2
M 64.8 20.45
Q 64.8 19.6 65.3 19.1 65.75 18.6 66.45 18.6 67.3 18.6 67.95 19.1
L 67.95 21.65
Q 67.25 22.35 66.45 22.35 65.75 22.35 65.25 21.85 64.8 21.3 64.8 20.45 Z"/>
</g>

<g id="Suite_Toys_160x600_html5_psd_Asset_Suite_Products_Toys_text_Little_People__Animal_Friends_Farm___0_Layer0_0_MEMBER_25_FILL">
<path fill="#6B6E71" stroke="none" d="
M 74.75 18.2
Q 74.1 17.65 72.95 17.65 71.95 17.65 71.35 18.15 70.8 18.6 70.8 19.25 70.8 19.95 71.35 20.35 71.75 20.6 72.95 20.95 74.15 21.25 74.15 21.7 74.15 22.45 72.95 22.45 72.35 22.45 71.85 22.2
L 71.9 21.9
Q 71.9 21.3 71.25 21.3 70.65 21.3 70.65 21.95 70.65 22.35 70.95 22.65 71.6 23.3 72.95 23.3 73.9 23.3 74.55 22.85 75.2 22.4 75.2 21.6 75.2 20.9 74.65 20.5 74.2 20.2 73.15 19.95 71.85 19.65 71.85 19.15 71.85 18.45 72.95 18.45 73.4 18.45 73.8 18.65
L 73.75 18.9
Q 73.75 19.5 74.4 19.5 75 19.5 75 18.85 75 18.55 74.75 18.2 Z"/>
</g>

<g id="Suite_Toys_160x600_html5_psd_Asset_Suite_Products_Toys_text_Little_People__Animal_Friends_Farm___0_Layer0_0_MEMBER_26_FILL">
<path fill="#6B6E71" stroke="none" d="
M 85.15 17.05
L 85.15 14.85 79.1 14.85 79.1 15.9 80.15 15.9 80.15 22.15 79.1 22.15 79.1 23.2 82.4 23.2 82.4 22.15 81.3 22.15 81.3 19.6 83.85 19.6 83.85 18.6 81.3 18.6 81.3 15.85 84.05 15.85 84.05 17.05 85.15 17.05 Z"/>
</g>

<g id="Suite_Toys_160x600_html5_psd_Asset_Suite_Products_Toys_text_Little_People__Animal_Friends_Farm___0_Layer0_0_MEMBER_27_FILL">
<path fill="#6B6E71" stroke="none" d="
M 89.65 18.3
Q 89.1 17.65 87.8 17.65 86.85 17.65 86.25 18.05 85.7 18.45 85.7 18.95 85.7 19.6 86.35 19.6 87 19.6 87 18.95
L 86.95 18.65
Q 87.4 18.5 87.65 18.5 88.4 18.5 88.8 18.9 89 19.15 89 19.7
L 89 20.3
Q 88.5 20.1 87.55 20.1 86.6 20.1 86 20.55 85.4 21 85.4 21.75 85.4 22.45 85.95 22.9 86.45 23.3 87.2 23.3 88.25 23.3 89.05 22.5
L 89.05 23.2 90.9 23.2 90.9 22.25 90.05 22.25 90.05 19.55
Q 90.05 18.75 89.65 18.3
M 86.5 21.65
Q 86.5 20.75 87.7 20.75 88.3 20.75 89 20.95
L 89 21.8
Q 88.35 22.45 87.5 22.45 86.5 22.45 86.5 21.65 Z"/>
</g>

<g id="Suite_Toys_160x600_html5_psd_Asset_Suite_Products_Toys_text_Little_People__Animal_Friends_Farm___0_Layer0_0_MEMBER_28_FILL">
<path fill="#6B6E71" stroke="none" d="
M 96.15 18.4
Q 96.15 17.65 95.25 17.65 94.25 17.65 93.55 18.95
L 93.55 17.75 91.65 17.75 91.65 18.65 92.5 18.65 92.5 22.25 91.65 22.25 91.65 23.2 94.6 23.2 94.6 22.25 93.6 22.25 93.6 19.8
Q 94 18.85 94.7 18.7 94.9 19.15 95.45 19.15 95.7 19.15 95.95 18.95 96.15 18.7 96.15 18.4 Z"/>
</g>

<g id="Suite_Toys_160x600_html5_psd_Asset_Suite_Products_Toys_text_Little_People__Animal_Friends_Farm___0_Layer0_0_MEMBER_29_FILL">
<path fill="#6B6E71" stroke="none" d="
M 105.5 18.4
Q 105.15 17.65 104 17.65 102.95 17.65 102.05 18.65
L 101.9 18.25
Q 101.45 17.65 100.55 17.65 99.5 17.65 98.65 18.7
L 98.65 17.75 96.75 17.75 96.75 18.65 97.6 18.65 97.6 22.25 96.75 22.25 96.75 23.2 99.45 23.2 99.45 22.25 98.7 22.25 98.7 19.45
Q 99.5 18.65 100.25 18.65 100.85 18.65 101 19.05 101.1 19.25 101.1 19.7
L 101.1 22.25 100.3 22.25 100.3 23.2 103 23.2 103 22.25 102.2 22.25 102.2 19.4
Q 102.95 18.65 103.75 18.65 104.35 18.65 104.5 19.05 104.6 19.25 104.6 19.7
L 104.6 22.25 103.8 22.25 103.8 23.2 106.55 23.2 106.55 22.25 105.7 22.25 105.7 19.45
Q 105.7 18.8 105.5 18.4 Z"/>
</g>
</defs>

<g transform="matrix( 1, 0, 0, 1, 22,562) ">
<g transform="matrix( 1, 0, 0, 0.9994049072265625, -12.35,0.7) ">
<use xlink:href="#Suite_Toys_160x600_html5_psd_Asset_Suite_Products_Toys_text_Little_People__Animal_Friends_Farm___0_Layer0_0_MEMBER_0_FILL"/>
</g>

<g transform="matrix( 1, 0, 0, 0.9994049072265625, -12.35,0.7) ">
<use xlink:href="#Suite_Toys_160x600_html5_psd_Asset_Suite_Products_Toys_text_Little_People__Animal_Friends_Farm___0_Layer0_0_MEMBER_1_FILL"/>
</g>

<g transform="matrix( 1, 0, 0, 0.9994049072265625, -12.35,0.7) ">
<use xlink:href="#Suite_Toys_160x600_html5_psd_Asset_Suite_Products_Toys_text_Little_People__Animal_Friends_Farm___0_Layer0_0_MEMBER_2_FILL"/>
</g>

<g transform="matrix( 1, 0, 0, 0.9994049072265625, -12.35,0.7) ">
<use xlink:href="#Suite_Toys_160x600_html5_psd_Asset_Suite_Products_Toys_text_Little_People__Animal_Friends_Farm___0_Layer0_0_MEMBER_3_FILL"/>
</g>

<g transform="matrix( 1, 0, 0, 0.9994049072265625, -12.35,0.7) ">
<use xlink:href="#Suite_Toys_160x600_html5_psd_Asset_Suite_Products_Toys_text_Little_People__Animal_Friends_Farm___0_Layer0_0_MEMBER_4_FILL"/>
</g>

<g transform="matrix( 1, 0, 0, 0.9994049072265625, -12.35,0.7) ">
<use xlink:href="#Suite_Toys_160x600_html5_psd_Asset_Suite_Products_Toys_text_Little_People__Animal_Friends_Farm___0_Layer0_0_MEMBER_5_FILL"/>
</g>

<g transform="matrix( 1, 0, 0, 0.9994049072265625, -12.35,0.7) ">
<use xlink:href="#Suite_Toys_160x600_html5_psd_Asset_Suite_Products_Toys_text_Little_People__Animal_Friends_Farm___0_Layer0_0_MEMBER_6_FILL"/>
</g>

<g transform="matrix( 1, 0, 0, 0.9994049072265625, -12.35,0.7) ">
<use xlink:href="#Suite_Toys_160x600_html5_psd_Asset_Suite_Products_Toys_text_Little_People__Animal_Friends_Farm___0_Layer0_0_MEMBER_7_FILL"/>
</g>

<g transform="matrix( 1, 0, 0, 0.9994049072265625, -12.35,0.7) ">
<use xlink:href="#Suite_Toys_160x600_html5_psd_Asset_Suite_Products_Toys_text_Little_People__Animal_Friends_Farm___0_Layer0_0_MEMBER_8_FILL"/>
</g>

<g transform="matrix( 1, 0, 0, 0.9994049072265625, -12.35,0.7) ">
<use xlink:href="#Suite_Toys_160x600_html5_psd_Asset_Suite_Products_Toys_text_Little_People__Animal_Friends_Farm___0_Layer0_0_MEMBER_9_FILL"/>
</g>

<g transform="matrix( 1, 0, 0, 0.9994049072265625, -12.35,0.7) ">
<use xlink:href="#Suite_Toys_160x600_html5_psd_Asset_Suite_Products_Toys_text_Little_People__Animal_Friends_Farm___0_Layer0_0_MEMBER_10_FILL"/>
</g>

<g transform="matrix( 1, 0, 0, 0.9994049072265625, -12.35,0.7) ">
<use xlink:href="#Suite_Toys_160x600_html5_psd_Asset_Suite_Products_Toys_text_Little_People__Animal_Friends_Farm___0_Layer0_0_MEMBER_11_FILL"/>
</g>

<g transform="matrix( 1, 0, 0, 0.9994049072265625, -12.35,0.7) ">
<use xlink:href="#Suite_Toys_160x600_html5_psd_Asset_Suite_Products_Toys_text_Little_People__Animal_Friends_Farm___0_Layer0_0_MEMBER_12_FILL"/>
</g>

<g transform="matrix( 1, 0, 0, 0.9994049072265625, -12.35,0.7) ">
<use xlink:href="#Suite_Toys_160x600_html5_psd_Asset_Suite_Products_Toys_text_Little_People__Animal_Friends_Farm___0_Layer0_0_MEMBER_13_FILL"/>
</g>

<g transform="matrix( 1, 0, 0, 0.9994049072265625, -12.35,0.7) ">
<use xlink:href="#Suite_Toys_160x600_html5_psd_Asset_Suite_Products_Toys_text_Little_People__Animal_Friends_Farm___0_Layer0_0_MEMBER_14_FILL"/>
</g>

<g transform="matrix( 1, 0, 0, 0.9994049072265625, -12.35,0.7) ">
<use xlink:href="#Suite_Toys_160x600_html5_psd_Asset_Suite_Products_Toys_text_Little_People__Animal_Friends_Farm___0_Layer0_0_MEMBER_15_FILL"/>
</g>

<g transform="matrix( 1, 0, 0, 0.9994049072265625, -12.35,0.7) ">
<use xlink:href="#Suite_Toys_160x600_html5_psd_Asset_Suite_Products_Toys_text_Little_People__Animal_Friends_Farm___0_Layer0_0_MEMBER_16_FILL"/>
</g>

<g transform="matrix( 1, 0, 0, 0.9994049072265625, -12.35,0.7) ">
<use xlink:href="#Suite_Toys_160x600_html5_psd_Asset_Suite_Products_Toys_text_Little_People__Animal_Friends_Farm___0_Layer0_0_MEMBER_17_FILL"/>
</g>

<g transform="matrix( 1, 0, 0, 0.9994049072265625, -12.35,0.7) ">
<use xlink:href="#Suite_Toys_160x600_html5_psd_Asset_Suite_Products_Toys_text_Little_People__Animal_Friends_Farm___0_Layer0_0_MEMBER_18_FILL"/>
</g>

<g transform="matrix( 1, 0, 0, 0.9994049072265625, -12.35,0.7) ">
<use xlink:href="#Suite_Toys_160x600_html5_psd_Asset_Suite_Products_Toys_text_Little_People__Animal_Friends_Farm___0_Layer0_0_MEMBER_19_FILL"/>
</g>

<g transform="matrix( 1, 0, 0, 0.9994049072265625, -12.35,0.7) ">
<use xlink:href="#Suite_Toys_160x600_html5_psd_Asset_Suite_Products_Toys_text_Little_People__Animal_Friends_Farm___0_Layer0_0_MEMBER_20_FILL"/>
</g>

<g transform="matrix( 1, 0, 0, 0.9994049072265625, -12.35,0.7) ">
<use xlink:href="#Suite_Toys_160x600_html5_psd_Asset_Suite_Products_Toys_text_Little_People__Animal_Friends_Farm___0_Layer0_0_MEMBER_21_FILL"/>
</g>

<g transform="matrix( 1, 0, 0, 0.9994049072265625, -12.35,0.7) ">
<use xlink:href="#Suite_Toys_160x600_html5_psd_Asset_Suite_Products_Toys_text_Little_People__Animal_Friends_Farm___0_Layer0_0_MEMBER_22_FILL"/>
</g>

<g transform="matrix( 1, 0, 0, 0.9994049072265625, -12.35,0.7) ">
<use xlink:href="#Suite_Toys_160x600_html5_psd_Asset_Suite_Products_Toys_text_Little_People__Animal_Friends_Farm___0_Layer0_0_MEMBER_23_FILL"/>
</g>

<g transform="matrix( 1, 0, 0, 0.9994049072265625, -12.35,0.7) ">
<use xlink:href="#Suite_Toys_160x600_html5_psd_Asset_Suite_Products_Toys_text_Little_People__Animal_Friends_Farm___0_Layer0_0_MEMBER_24_FILL"/>
</g>

<g transform="matrix( 1, 0, 0, 0.9994049072265625, -12.35,0.7) ">
<use xlink:href="#Suite_Toys_160x600_html5_psd_Asset_Suite_Products_Toys_text_Little_People__Animal_Friends_Farm___0_Layer0_0_MEMBER_25_FILL"/>
</g>

<g transform="matrix( 1, 0, 0, 0.9994049072265625, -12.35,0.7) ">
<use xlink:href="#Suite_Toys_160x600_html5_psd_Asset_Suite_Products_Toys_text_Little_People__Animal_Friends_Farm___0_Layer0_0_MEMBER_26_FILL"/>
</g>

<g transform="matrix( 1, 0, 0, 0.9994049072265625, -12.35,0.7) ">
<use xlink:href="#Suite_Toys_160x600_html5_psd_Asset_Suite_Products_Toys_text_Little_People__Animal_Friends_Farm___0_Layer0_0_MEMBER_27_FILL"/>
</g>

<g transform="matrix( 1, 0, 0, 0.9994049072265625, -12.35,0.7) ">
<use xlink:href="#Suite_Toys_160x600_html5_psd_Asset_Suite_Products_Toys_text_Little_People__Animal_Friends_Farm___0_Layer0_0_MEMBER_28_FILL"/>
</g>

<g transform="matrix( 1, 0, 0, 0.9994049072265625, -12.35,0.7) ">
<use xlink:href="#Suite_Toys_160x600_html5_psd_Asset_Suite_Products_Toys_text_Little_People__Animal_Friends_Farm___0_Layer0_0_MEMBER_29_FILL"/>
</g>
</g>
</svg>
