
<svg xmlns="http://www.w3.org/2000/svg" version="1.1" xmlns:xlink="http://www.w3.org/1999/xlink" preserveAspectRatio="none" x="0px" y="0px" width="320px" height="50px" viewBox="0 0 320 50">
<defs>
<g id="Suite_BabyGear_320x50_html5_psd_Asset_Suite_Products_Baby_Gear_footer__2016_Mattel_0_Layer0_0_MEMBER_0_FILL">
<path fill="#6B6E71" stroke="none" d="
M -15.75 -4.4
Q -16.25 -4.7 -16.9 -4.7 -17.5 -4.7 -18.1 -4.4 -18.65 -4.1 -18.95 -3.5 -19.3 -3 -19.3 -2.35 -19.3 -1.65 -19 -1.15 -18.6 -0.55 -18.1 -0.25 -17.5 0.05 -16.9 0.05 -16.3 0.05 -15.7 -0.25 -15.15 -0.55 -14.85 -1.15 -14.5 -1.75 -14.5 -2.35 -14.5 -2.9 -14.85 -3.5 -15.15 -4.1 -15.75 -4.4
M -16.9 -4.3
Q -16.3 -4.3 -15.95 -4.05 -15.4 -3.8 -15.2 -3.3 -14.9 -2.85 -14.9 -2.35 -14.9 -1.8 -15.2 -1.35 -15.35 -0.95 -15.9 -0.6 -16.5 -0.35 -16.9 -0.35 -17.4 -0.35 -17.9 -0.6 -18.4 -0.95 -18.65 -1.35 -18.9 -1.85 -18.9 -2.35 -18.9 -2.8 -18.65 -3.3 -18.35 -3.8 -17.9 -4.05 -17.45 -4.3 -16.9 -4.3
M -16.9 -3.65
Q -17.25 -3.65 -17.55 -3.5 -17.85 -3.35 -18 -3.05 -18.15 -2.75 -18.15 -2.3 -18.15 -1.65 -17.8 -1.3 -17.45 -0.95 -16.9 -0.95 -16.5 -0.95 -16.15 -1.2 -15.8 -1.45 -15.75 -1.85
L -16.15 -1.95
Q -16.2 -1.65 -16.45 -1.5 -16.6 -1.35 -16.95 -1.35 -17.3 -1.35 -17.5 -1.6 -17.75 -1.85 -17.75 -2.3 -17.75 -2.8 -17.5 -3.05 -17.3 -3.3 -16.9 -3.3
L -16.45 -3.2 -16.2 -2.85 -15.8 -2.9
Q -15.9 -3.3 -16.2 -3.45 -16.4 -3.65 -16.9 -3.65 Z"/>
</g>

<g id="Suite_BabyGear_320x50_html5_psd_Asset_Suite_Products_Baby_Gear_footer__2016_Mattel_0_Layer0_0_MEMBER_1_FILL">
<path fill="#6B6E71" stroke="none" d="
M -12.1 -3.95
Q -11.85 -3.7 -11.85 -3.4 -11.85 -3.05 -12.15 -2.7 -12.3 -2.5 -13.15 -1.7 -13.3 -1.55 -13.9 -1 -14.2 -0.6 -14.25 -0.4
L -14.35 0 -11.25 0 -11.25 -0.55 -13.55 -0.55 -13.3 -0.85 -11.75 -2.25 -11.4 -2.8
Q -11.3 -3 -11.3 -3.35 -11.3 -3.95 -11.65 -4.3 -12.05 -4.65 -12.75 -4.65 -13.4 -4.65 -13.8 -4.3 -14.15 -4 -14.25 -3.3
L -13.65 -3.25
Q -13.65 -3.6 -13.4 -3.95 -13.15 -4.2 -12.75 -4.2 -12.35 -4.2 -12.1 -3.95 Z"/>
</g>

<g id="Suite_BabyGear_320x50_html5_psd_Asset_Suite_Products_Baby_Gear_footer__2016_Mattel_0_Layer0_0_MEMBER_2_FILL">
<path fill="#6B6E71" stroke="none" d="
M -10.65 -2.3
Q -10.65 -1 -10.2 -0.4 -9.8 0.1 -9.15 0.1 -8.65 0.1 -8.3 -0.2 -7.9 -0.55 -7.8 -0.95 -7.65 -1.45 -7.65 -2.3
L -7.75 -3.4
Q -7.85 -3.85 -8.05 -4.05 -8.2 -4.35 -8.5 -4.5 -8.8 -4.65 -9.15 -4.65 -9.6 -4.65 -10 -4.4 -10.4 -4 -10.5 -3.6 -10.65 -3.15 -10.65 -2.3
M -9.15 -4.2
Q -8.75 -4.2 -8.5 -3.8 -8.25 -3.5 -8.25 -2.3 -8.25 -1.05 -8.5 -0.75 -8.7 -0.4 -9.15 -0.4 -9.6 -0.4 -9.8 -0.75 -10.1 -1.1 -10.1 -2.3 -10.1 -3.4 -9.8 -3.85 -9.55 -4.2 -9.15 -4.2 Z"/>
</g>

<g id="Suite_BabyGear_320x50_html5_psd_Asset_Suite_Products_Baby_Gear_footer__2016_Mattel_0_Layer0_0_MEMBER_3_FILL">
<path fill="#6B6E71" stroke="none" d="
M -6.05 -3.25
Q -5.65 -3.4 -5.5 -3.65
L -5.5 0 -4.9 0 -4.9 -4.65 -5.3 -4.65
Q -5.45 -4.3 -5.8 -4.05 -6.1 -3.7 -6.65 -3.5
L -6.65 -2.95 -6.05 -3.25 Z"/>
</g>

<g id="Suite_BabyGear_320x50_html5_psd_Asset_Suite_Products_Baby_Gear_footer__2016_Mattel_0_Layer0_0_MEMBER_4_FILL">
<path fill="#6B6E71" stroke="none" d="
M -0.5 -3.5
Q -0.6 -4.05 -0.95 -4.35 -1.25 -4.65 -1.8 -4.65 -2.6 -4.65 -3 -4.1 -3.5 -3.45 -3.5 -2.15 -3.5 -0.95 -3.05 -0.45 -2.6 0.1 -1.9 0.1 -1.55 0.1 -1.15 -0.1 -0.85 -0.3 -0.6 -0.7 -0.45 -1.05 -0.45 -1.5 -0.45 -2.2 -0.85 -2.6 -1.25 -3 -1.8 -3 -2.1 -3 -2.4 -2.85 -2.75 -2.65 -2.9 -2.4 -2.9 -3.05 -2.75 -3.45 -2.6 -3.8 -2.35 -4.05 -2.1 -4.2 -1.85 -4.2 -1.55 -4.2 -1.3 -3.95 -1.1 -3.75 -1.05 -3.45
L -0.5 -3.5
M -2.85 -1.5
Q -2.85 -1.95 -2.55 -2.25 -2.3 -2.5 -1.9 -2.5 -1.6 -2.5 -1.25 -2.25 -1 -1.9 -1 -1.45 -1 -0.95 -1.25 -0.7 -1.55 -0.4 -1.9 -0.4 -2.1 -0.4 -2.35 -0.55 -2.55 -0.6 -2.7 -0.95 -2.85 -1.15 -2.85 -1.5 Z"/>
</g>

<g id="Suite_BabyGear_320x50_html5_psd_Asset_Suite_Products_Baby_Gear_footer__2016_Mattel_0_Layer0_0_MEMBER_5_FILL">
<path fill="#6B6E71" stroke="none" d="
M 5.75 -4.65
L 4.4 -0.65 3.1 -4.65 2.15 -4.65 2.15 0 2.75 0 2.75 -3.95 4.1 0 4.65 0 6 -3.9 6 0 6.6 0 6.6 -4.65 5.75 -4.65 Z"/>
</g>

<g id="Suite_BabyGear_320x50_html5_psd_Asset_Suite_Products_Baby_Gear_footer__2016_Mattel_0_Layer0_0_MEMBER_6_FILL">
<path fill="#6B6E71" stroke="none" d="
M 8.9 -3.45
Q 8.45 -3.45 8.15 -3.3 7.9 -3.25 7.65 -3 7.45 -2.7 7.4 -2.4
L 7.95 -2.3
Q 8.05 -2.75 8.25 -2.8 8.4 -2.95 8.85 -2.95 9.3 -2.95 9.5 -2.75 9.65 -2.65 9.65 -2.3
L 9.65 -2.15
Q 9.35 -2 8.6 -1.95
L 8.1 -1.85 7.7 -1.65 7.4 -1.35 7.3 -0.9
Q 7.3 -0.4 7.6 -0.2 7.9 0.1 8.45 0.1 8.8 0.1 9.1 -0.05
L 9.7 -0.4 9.8 0 10.4 0
Q 10.25 -0.2 10.25 -0.4
L 10.2 -2.7 10 -3.1 9.6 -3.35 8.9 -3.45
M 8.2 -1.35
L 8.7 -1.45
Q 9.6 -1.65 9.65 -1.7
L 9.65 -1.5 9.55 -0.9
Q 9.35 -0.6 9.15 -0.5 8.95 -0.35 8.6 -0.35 8.25 -0.35 8.1 -0.5 7.9 -0.65 7.9 -0.9
L 8 -1.15 8.2 -1.35 Z"/>
</g>

<g id="Suite_BabyGear_320x50_html5_psd_Asset_Suite_Products_Baby_Gear_footer__2016_Mattel_0_Layer0_0_MEMBER_7_FILL">
<path fill="#6B6E71" stroke="none" d="
M 11.2 -3.35
L 10.8 -3.35 10.8 -2.9 11.2 -2.9 11.25 -0.3 11.5 -0.05 12 0.05 12.4 0 12.35 -0.5 12.1 -0.5 11.9 -0.55 11.8 -0.65 11.75 -0.95 11.75 -2.9 12.35 -2.9 12.35 -3.35 11.75 -3.35 11.75 -4.55 11.2 -4.2 11.2 -3.35 Z"/>
</g>

<g id="Suite_BabyGear_320x50_html5_psd_Asset_Suite_Products_Baby_Gear_footer__2016_Mattel_0_Layer0_0_MEMBER_8_FILL">
<path fill="#6B6E71" stroke="none" d="
M 13 -4.2
L 13 -3.35 12.6 -3.35 12.6 -2.9 13 -2.9 13.05 -0.3 13.3 -0.05 13.8 0.05 14.2 0 14.15 -0.5 13.9 -0.5 13.7 -0.55 13.6 -0.65 13.55 -0.95 13.55 -2.9 14.15 -2.9 14.15 -3.35 13.55 -3.35 13.55 -4.55 13 -4.2 Z"/>
</g>

<g id="Suite_BabyGear_320x50_html5_psd_Asset_Suite_Products_Baby_Gear_footer__2016_Mattel_0_Layer0_0_MEMBER_9_FILL">
<path fill="#6B6E71" stroke="none" d="
M 14.5 -1.65
Q 14.5 -0.85 14.95 -0.4 15.35 0.1 16.1 0.1 16.7 0.1 17.05 -0.2 17.45 -0.55 17.6 -1
L 17 -1.1
Q 16.85 -0.65 16.65 -0.55 16.45 -0.4 16.1 -0.4 15.7 -0.4 15.4 -0.7 15.1 -1 15.1 -1.55
L 17.6 -1.55 17.6 -1.7
Q 17.6 -2.45 17.15 -3 16.8 -3.45 16.05 -3.45 15.4 -3.45 14.95 -2.95 14.5 -2.5 14.5 -1.65
M 16.8 -2.65
Q 16.9 -2.45 17 -2
L 15.1 -2
Q 15.2 -2.5 15.4 -2.7 15.65 -2.95 16.1 -2.95 16.5 -2.95 16.8 -2.65 Z"/>
</g>

<g id="Suite_BabyGear_320x50_html5_psd_Asset_Suite_Products_Baby_Gear_footer__2016_Mattel_0_Layer0_0_MEMBER_10_FILL">
<path fill="#6B6E71" stroke="none" d="
M 18.85 -4.65
L 18.3 -4.65 18.3 0 18.85 0 18.85 -4.65 Z"/>
</g>
</defs>

<g transform="matrix( 1, 0, 0, 1, 267,42) ">
<g transform="matrix( 1, 0, 0, 1.0064697265625, 19.2,4.9) ">
<use xlink:href="#Suite_BabyGear_320x50_html5_psd_Asset_Suite_Products_Baby_Gear_footer__2016_Mattel_0_Layer0_0_MEMBER_0_FILL"/>
</g>

<g transform="matrix( 1, 0, 0, 1.0064697265625, 19.2,4.9) ">
<use xlink:href="#Suite_BabyGear_320x50_html5_psd_Asset_Suite_Products_Baby_Gear_footer__2016_Mattel_0_Layer0_0_MEMBER_1_FILL"/>
</g>

<g transform="matrix( 1, 0, 0, 1.0064697265625, 19.2,4.9) ">
<use xlink:href="#Suite_BabyGear_320x50_html5_psd_Asset_Suite_Products_Baby_Gear_footer__2016_Mattel_0_Layer0_0_MEMBER_2_FILL"/>
</g>

<g transform="matrix( 1, 0, 0, 1.0064697265625, 19.2,4.9) ">
<use xlink:href="#Suite_BabyGear_320x50_html5_psd_Asset_Suite_Products_Baby_Gear_footer__2016_Mattel_0_Layer0_0_MEMBER_3_FILL"/>
</g>

<g transform="matrix( 1, 0, 0, 1.0064697265625, 19.2,4.9) ">
<use xlink:href="#Suite_BabyGear_320x50_html5_psd_Asset_Suite_Products_Baby_Gear_footer__2016_Mattel_0_Layer0_0_MEMBER_4_FILL"/>
</g>

<g transform="matrix( 1, 0, 0, 1.0064697265625, 19.2,4.9) ">
<use xlink:href="#Suite_BabyGear_320x50_html5_psd_Asset_Suite_Products_Baby_Gear_footer__2016_Mattel_0_Layer0_0_MEMBER_5_FILL"/>
</g>

<g transform="matrix( 1, 0, 0, 1.0064697265625, 19.2,4.9) ">
<use xlink:href="#Suite_BabyGear_320x50_html5_psd_Asset_Suite_Products_Baby_Gear_footer__2016_Mattel_0_Layer0_0_MEMBER_6_FILL"/>
</g>

<g transform="matrix( 1, 0, 0, 1.0064697265625, 19.2,4.9) ">
<use xlink:href="#Suite_BabyGear_320x50_html5_psd_Asset_Suite_Products_Baby_Gear_footer__2016_Mattel_0_Layer0_0_MEMBER_7_FILL"/>
</g>

<g transform="matrix( 1, 0, 0, 1.0064697265625, 19.2,4.9) ">
<use xlink:href="#Suite_BabyGear_320x50_html5_psd_Asset_Suite_Products_Baby_Gear_footer__2016_Mattel_0_Layer0_0_MEMBER_8_FILL"/>
</g>

<g transform="matrix( 1, 0, 0, 1.0064697265625, 19.2,4.9) ">
<use xlink:href="#Suite_BabyGear_320x50_html5_psd_Asset_Suite_Products_Baby_Gear_footer__2016_Mattel_0_Layer0_0_MEMBER_9_FILL"/>
</g>

<g transform="matrix( 1, 0, 0, 1.0064697265625, 19.2,4.9) ">
<use xlink:href="#Suite_BabyGear_320x50_html5_psd_Asset_Suite_Products_Baby_Gear_footer__2016_Mattel_0_Layer0_0_MEMBER_10_FILL"/>
</g>
</g>
</svg>
