
<svg xmlns="http://www.w3.org/2000/svg" version="1.1" xmlns:xlink="http://www.w3.org/1999/xlink" preserveAspectRatio="none" x="0px" y="0px" width="728px" height="90px" viewBox="0 0 728 90">
<defs>
<g id="Suite_BabyGear_728x90_html5_psd_Asset_1_Suite_Products_Baby_Gear_Roarin__Rainforest__Jumperoo___0_Layer0_0_MEMBER_0_FILL">
<path fill="#6B6E71" stroke="none" d="
M 27.9 3.4
Q 27.9 2.2 27.05 1.6 26.2 0.95 24.75 0.95
L 21.55 0.95 21.55 1.95 22.6 1.95 22.6 8.25 21.55 8.25 21.55 9.25 24.8 9.25 24.8 8.25 23.75 8.25 23.75 5.95 24.6 6 25.05 5.95 26.95 9.25 28.7 9.25 28.7 8.25 27.75 8.25 26.2 5.65
Q 27.9 5.05 27.9 3.4
M 23.75 1.95
L 24.7 1.95
Q 26.7 1.95 26.7 3.45 26.7 5 24.65 5 23.95 5 23.75 4.95
L 23.75 1.95 Z"/>
</g>

<g id="Suite_BabyGear_728x90_html5_psd_Asset_1_Suite_Products_Baby_Gear_Roarin__Rainforest__Jumperoo___0_Layer0_0_MEMBER_1_FILL">
<path fill="#6B6E71" stroke="none" d="
M 34.2 4.55
Q 33.4 3.7 32.1 3.7 30.8 3.7 30 4.55 29.25 5.35 29.25 6.55 29.25 7.7 30 8.5 30.85 9.35 32.1 9.35 33.4 9.35 34.2 8.5 34.95 7.7 34.95 6.55 34.95 5.35 34.2 4.55
M 30.85 5.2
Q 31.35 4.65 32.1 4.65 32.85 4.65 33.35 5.2 33.85 5.75 33.85 6.55 33.85 7.35 33.35 7.9 32.85 8.45 32.1 8.45 31.35 8.45 30.85 7.9 30.35 7.35 30.35 6.55 30.35 5.75 30.85 5.2 Z"/>
</g>

<g id="Suite_BabyGear_728x90_html5_psd_Asset_1_Suite_Products_Baby_Gear_Roarin__Rainforest__Jumperoo___0_Layer0_0_MEMBER_2_FILL">
<path fill="#6B6E71" stroke="none" d="
M 40.55 8.35
L 40.55 5.65
Q 40.55 4.9 40.15 4.4 39.55 3.7 38.3 3.7 37.3 3.7 36.75 4.15 36.2 4.5 36.2 5 36.2 5.65 36.85 5.65 37.45 5.65 37.45 5.05
L 37.4 4.75
Q 37.65 4.6 38.1 4.6 39 4.6 39.25 5 39.5 5.35 39.5 5.75
L 39.5 6.4
Q 38.75 6.15 38 6.15 37.05 6.15 36.45 6.6 35.85 7.05 35.85 7.8 35.85 8.55 36.4 8.95 36.85 9.35 37.65 9.35 38.75 9.35 39.5 8.6
L 39.5 9.25 41.4 9.25 41.4 8.35 40.55 8.35
M 38.15 6.8
Q 38.8 6.8 39.5 7
L 39.5 7.9
Q 38.75 8.55 37.95 8.55 36.95 8.55 36.95 7.7 36.95 6.8 38.15 6.8 Z"/>
</g>

<g id="Suite_BabyGear_728x90_html5_psd_Asset_1_Suite_Products_Baby_Gear_Roarin__Rainforest__Jumperoo___0_Layer0_0_MEMBER_3_FILL">
<path fill="#6B6E71" stroke="none" d="
M 46.6 4.5
Q 46.6 3.7 45.7 3.7 44.8 3.7 44 5.05
L 44 3.8 42.15 3.8 42.15 4.75 43 4.75 43 8.35 42.15 8.35 42.15 9.25 45.05 9.25 45.05 8.35 44.05 8.35 44.05 5.85
Q 44.45 5.05 45.2 4.75 45.4 5.25 45.9 5.25 46.6 5.25 46.6 4.5 Z"/>
</g>

<g id="Suite_BabyGear_728x90_html5_psd_Asset_1_Suite_Products_Baby_Gear_Roarin__Rainforest__Jumperoo___0_Layer0_0_MEMBER_4_FILL">
<path fill="#6B6E71" stroke="none" d="
M 47.25 3.8
L 47.25 4.75 48.1 4.75 48.1 8.35 47.25 8.35 47.25 9.25 50.1 9.25 50.1 8.35 49.2 8.35 49.2 3.8 47.25 3.8
M 49.1 1.35
Q 48.85 1.1 48.55 1.1 47.75 1.1 47.75 1.85 47.75 2.65 48.55 2.65 48.85 2.65 49.1 2.4 49.35 2.2 49.35 1.85 49.35 1.55 49.1 1.35 Z"/>
</g>

<g id="Suite_BabyGear_728x90_html5_psd_Asset_1_Suite_Products_Baby_Gear_Roarin__Rainforest__Jumperoo___0_Layer0_0_MEMBER_5_FILL">
<path fill="#6B6E71" stroke="none" d="
M 56.55 5.55
Q 56.55 4.85 56.25 4.4 55.85 3.7 54.85 3.7 53.8 3.7 52.85 4.75
L 52.85 3.8 50.95 3.8 50.95 4.75 51.8 4.75 51.8 8.35 50.95 8.35 50.95 9.25 53.7 9.25 53.7 8.35 52.9 8.35 52.9 5.55
Q 53.65 4.7 54.55 4.7 55.15 4.7 55.35 5.15
L 55.45 5.8 55.45 8.35 54.65 8.35 54.65 9.25 57.4 9.25 57.4 8.35 56.55 8.35 56.55 5.55 Z"/>
</g>

<g id="Suite_BabyGear_728x90_html5_psd_Asset_1_Suite_Products_Baby_Gear_Roarin__Rainforest__Jumperoo___0_Layer0_0_MEMBER_6_FILL">
<path fill="#6B6E71" stroke="none" d="
M 57.85 4
L 58.1 4.4
Q 60.05 3.35 60.05 1.8 60.05 0.75 59.15 0.75 58.8 0.75 58.55 1 58.3 1.2 58.3 1.55 58.3 2.25 59 2.4 59 3.15 57.85 4 Z"/>
</g>

<g id="Suite_BabyGear_728x90_html5_psd_Asset_1_Suite_Products_Baby_Gear_Roarin__Rainforest__Jumperoo___0_Layer0_0_MEMBER_7_FILL">
<path fill="#6B6E71" stroke="none" d="
M 71 9.25
L 71 8.25 70.05 8.25 68.5 5.65
Q 70.2 5.05 70.2 3.4 70.2 2.25 69.3 1.6 68.5 0.95 67.05 0.95
L 63.85 0.95 63.85 1.95 64.9 1.95 64.9 8.25 63.85 8.25 63.85 9.25 67.1 9.25 67.1 8.25 66.05 8.25 66.05 5.95 66.85 6 67.35 5.95 69.25 9.25 71 9.25
M 66.05 1.95
L 67 1.95
Q 69 1.95 69 3.45 69 5 66.95 5 66.25 5 66.05 4.95
L 66.05 1.95 Z"/>
</g>

<g id="Suite_BabyGear_728x90_html5_psd_Asset_1_Suite_Products_Baby_Gear_Roarin__Rainforest__Jumperoo___0_Layer0_0_MEMBER_8_FILL">
<path fill="#6B6E71" stroke="none" d="
M 76.35 5.65
Q 76.35 4.9 75.95 4.4 75.35 3.7 74.1 3.7 73.1 3.7 72.55 4.15 72 4.5 72 5 72 5.65 72.65 5.65 73.3 5.65 73.3 5.05
L 73.2 4.75
Q 73.5 4.6 73.9 4.6 74.8 4.6 75.05 5 75.3 5.35 75.3 5.75
L 75.3 6.4
Q 74.55 6.15 73.8 6.15 72.85 6.15 72.25 6.6 71.65 7.05 71.65 7.8 71.65 8.55 72.2 8.95 72.65 9.35 73.45 9.35 74.5 9.35 75.35 8.6
L 75.35 9.25 77.2 9.25 77.2 8.35 76.35 8.35 76.35 5.65
M 75.3 7.9
Q 74.55 8.55 73.75 8.55 72.75 8.55 72.75 7.7 72.75 6.8 73.95 6.8 74.6 6.8 75.3 7
L 75.3 7.9 Z"/>
</g>

<g id="Suite_BabyGear_728x90_html5_psd_Asset_1_Suite_Products_Baby_Gear_Roarin__Rainforest__Jumperoo___0_Layer0_0_MEMBER_9_FILL">
<path fill="#6B6E71" stroke="none" d="
M 77.95 3.8
L 77.95 4.75 78.85 4.75 78.85 8.35 77.95 8.35 77.95 9.25 80.8 9.25 80.8 8.35 79.9 8.35 79.9 3.8 77.95 3.8
M 79.25 1.1
Q 78.95 1.1 78.7 1.35 78.45 1.55 78.45 1.85 78.45 2.65 79.25 2.65 79.55 2.65 79.8 2.4 80.05 2.2 80.05 1.85 80.05 1.1 79.25 1.1 Z"/>
</g>

<g id="Suite_BabyGear_728x90_html5_psd_Asset_1_Suite_Products_Baby_Gear_Roarin__Rainforest__Jumperoo___0_Layer0_0_MEMBER_10_FILL">
<path fill="#6B6E71" stroke="none" d="
M 87.25 5.55
Q 87.25 4.9 87 4.4 86.55 3.7 85.55 3.7 84.6 3.7 83.55 4.75
L 83.55 3.8 81.7 3.8 81.7 4.75 82.55 4.75 82.55 8.35 81.7 8.35 81.7 9.25 84.4 9.25 84.4 8.35 83.6 8.35 83.6 5.55
Q 84.35 4.7 85.25 4.7 85.85 4.7 86.05 5.15 86.15 5.3 86.15 5.8
L 86.15 8.35 85.35 8.35 85.35 9.25 88.1 9.25 88.1 8.35 87.25 8.35 87.25 5.55 Z"/>
</g>

<g id="Suite_BabyGear_728x90_html5_psd_Asset_1_Suite_Products_Baby_Gear_Roarin__Rainforest__Jumperoo___0_Layer0_0_MEMBER_11_FILL">
<path fill="#6B6E71" stroke="none" d="
M 91.5 0.85
Q 91.7 1.4 92.2 1.4 92.85 1.4 92.85 0.7 92.85 -0.1 91.75 -0.1 90.95 -0.1 90.4 0.45 89.75 1.1 89.75 2.4
L 89.75 3.8 88.8 3.8 88.8 4.75 89.75 4.75 89.75 8.35 88.9 8.35 88.9 9.25 91.9 9.25 91.9 8.35 90.85 8.35 90.85 4.75 92.25 4.75 92.25 3.8 90.85 3.8 90.85 2.2
Q 90.85 1.5 91.1 1.1
L 91.5 0.85 Z"/>
</g>

<g id="Suite_BabyGear_728x90_html5_psd_Asset_1_Suite_Products_Baby_Gear_Roarin__Rainforest__Jumperoo___0_Layer0_0_MEMBER_12_FILL">
<path fill="#6B6E71" stroke="none" d="
M 95.7 3.7
Q 94.45 3.7 93.65 4.55 92.9 5.35 92.9 6.55 92.9 7.7 93.65 8.5 94.45 9.35 95.7 9.35 97 9.35 97.8 8.5 98.55 7.7 98.55 6.55 98.55 5.35 97.8 4.55 97 3.7 95.7 3.7
M 94.5 5.2
Q 94.95 4.65 95.7 4.65 96.5 4.65 96.95 5.2 97.45 5.7 97.45 6.55 97.45 7.4 96.95 7.9 96.5 8.45 95.7 8.45 94.95 8.45 94.5 7.9 94 7.4 94 6.55 94 5.7 94.5 5.2 Z"/>
</g>

<g id="Suite_BabyGear_728x90_html5_psd_Asset_1_Suite_Products_Baby_Gear_Roarin__Rainforest__Jumperoo___0_Layer0_0_MEMBER_13_FILL">
<path fill="#6B6E71" stroke="none" d="
M 104 4.5
Q 104 3.7 103.1 3.7 102.2 3.7 101.4 5.05
L 101.4 3.8 99.55 3.8 99.55 4.75 100.4 4.75 100.4 8.35 99.55 8.35 99.55 9.25 102.45 9.25 102.45 8.35 101.45 8.35 101.45 5.85
Q 101.85 5.05 102.6 4.75 102.8 5.25 103.3 5.25 104 5.25 104 4.5 Z"/>
</g>

<g id="Suite_BabyGear_728x90_html5_psd_Asset_1_Suite_Products_Baby_Gear_Roarin__Rainforest__Jumperoo___0_Layer0_0_MEMBER_14_FILL">
<path fill="#6B6E71" stroke="none" d="
M 109.1 4.5
Q 108.4 3.7 107.2 3.7 106 3.7 105.25 4.55 104.5 5.35 104.5 6.55 104.5 7.8 105.3 8.55 106.1 9.35 107.45 9.35 108.6 9.35 109.45 8.85
L 109.55 7.85
Q 108.45 8.45 107.6 8.45 105.85 8.45 105.6 6.9
L 109.7 6.9 109.75 6.3
Q 109.75 5.2 109.1 4.5
M 107.15 4.6
Q 108.55 4.6 108.65 6.05
L 105.6 6.05
Q 105.85 4.6 107.15 4.6 Z"/>
</g>

<g id="Suite_BabyGear_728x90_html5_psd_Asset_1_Suite_Products_Baby_Gear_Roarin__Rainforest__Jumperoo___0_Layer0_0_MEMBER_15_FILL">
<path fill="#6B6E71" stroke="none" d="
M 113.05 3.7
Q 112.1 3.7 111.5 4.2 110.95 4.7 110.95 5.35 110.95 6 111.5 6.4 111.95 6.7 113.05 7 114.25 7.3 114.25 7.8 114.25 8.55 113.1 8.55 112.35 8.55 111.95 8.25
L 112 8
Q 112 7.35 111.35 7.35 110.75 7.35 110.75 8 110.75 8.45 111.05 8.75 111.7 9.4 113.1 9.4 114 9.4 114.65 8.95 115.3 8.45 115.3 7.7 115.3 7 114.75 6.6 114.3 6.3 113.25 6.05 112 5.7 112 5.25 112 4.55 113.05 4.55 113.6 4.55 113.95 4.7
L 113.9 5
Q 113.9 5.6 114.55 5.6 115.1 5.6 115.1 4.95 115.1 4.55 114.85 4.3 114.25 3.7 113.05 3.7 Z"/>
</g>

<g id="Suite_BabyGear_728x90_html5_psd_Asset_1_Suite_Products_Baby_Gear_Roarin__Rainforest__Jumperoo___0_Layer0_0_MEMBER_16_FILL">
<path fill="#6B6E71" stroke="none" d="
M 117.05 2.55
L 117.05 3.8 116 3.8 116 4.75 117.05 4.75 117.05 7.9
Q 117.05 8.35 117.2 8.7 117.55 9.35 118.5 9.35 119.15 9.35 119.75 9.05
L 119.85 8.05
Q 119.15 8.4 118.85 8.4 118.35 8.4 118.2 8.1
L 118.15 7.7 118.15 4.75 119.8 4.75 119.8 3.8 118.15 3.8 118.15 2.1 117.05 2.55 Z"/>
</g>

<g id="Suite_BabyGear_728x90_html5_psd_Asset_1_Suite_Products_Baby_Gear_Roarin__Rainforest__Jumperoo___0_Layer0_0_MEMBER_17_FILL">
<path fill="#6B6E71" stroke="none" d="
M 47.15 15.9
L 48.1 15.9 48.1 14.85 44.75 14.85 44.75 15.9 46.05 15.9 46.05 20.4
Q 46.05 21.45 45.6 21.9 45.2 22.3 44.6 22.3 44.1 22.3 43.7 22.05 43.4 21.85 43.35 21.6 43.7 21.45 43.7 21 43.7 20.25 43 20.25 42.15 20.25 42.15 21.25 42.15 22.15 42.85 22.75 43.6 23.35 44.6 23.35 45.7 23.35 46.4 22.65 47.15 21.9 47.15 20.4
L 47.15 15.9 Z"/>
</g>

<g id="Suite_BabyGear_728x90_html5_psd_Asset_1_Suite_Products_Baby_Gear_Roarin__Rainforest__Jumperoo___0_Layer0_0_MEMBER_18_FILL">
<path fill="#6B6E71" stroke="none" d="
M 49.35 21.45
Q 49.35 22.05 49.6 22.55 50.1 23.3 51.05 23.3 52 23.3 53.05 22.25
L 53.05 23.2 54.95 23.2 54.95 22.25 54.1 22.25 54.1 17.75 52.15 17.75 52.15 18.65 53 18.65 53 21.45
Q 52.05 22.3 51.35 22.3 50.8 22.3 50.55 21.85
L 50.45 21.2 50.45 17.75 48.5 17.75 48.5 18.65 49.35 18.65 49.35 21.45 Z"/>
</g>

<g id="Suite_BabyGear_728x90_html5_psd_Asset_1_Suite_Products_Baby_Gear_Roarin__Rainforest__Jumperoo___0_Layer0_0_MEMBER_19_FILL">
<path fill="#6B6E71" stroke="none" d="
M 64.5 18.4
Q 64.15 17.65 63 17.65 61.95 17.65 61.05 18.65
L 60.9 18.25
Q 60.55 17.65 59.55 17.65 58.5 17.65 57.65 18.7
L 57.65 17.75 55.75 17.75 55.75 18.65 56.6 18.65 56.6 22.25 55.75 22.25 55.75 23.2 58.5 23.2 58.5 22.25 57.7 22.25 57.7 19.45
Q 58.5 18.65 59.25 18.65 59.85 18.65 60 19.05 60.1 19.25 60.1 19.7
L 60.1 22.25 59.3 22.25 59.3 23.2 62 23.2 62 22.25 61.2 22.25 61.2 19.4
Q 62.05 18.65 62.75 18.65 63.35 18.65 63.55 19.05
L 63.65 19.7 63.65 22.25 62.8 22.25 62.8 23.2 65.55 23.2 65.55 22.25 64.7 22.25 64.7 19.45
Q 64.7 18.8 64.5 18.4 Z"/>
</g>

<g id="Suite_BabyGear_728x90_html5_psd_Asset_1_Suite_Products_Baby_Gear_Roarin__Rainforest__Jumperoo___0_Layer0_0_MEMBER_20_FILL">
<path fill="#6B6E71" stroke="none" d="
M 68 17.75
L 66.1 17.75 66.1 18.65 66.95 18.65 66.95 24.75 66.1 24.75 66.1 25.65 69 25.65 69 24.75 68.05 24.75 68.05 22.7
Q 68.75 23.3 69.65 23.3 70.75 23.3 71.5 22.45 72.25 21.6 72.25 20.4 72.25 19.2 71.55 18.4 70.8 17.65 69.75 17.65 68.7 17.65 68 18.45
L 68 17.75
M 70.65 21.85
Q 70.2 22.35 69.5 22.35 68.7 22.35 68.05 21.8
L 68.05 19.25
Q 68.7 18.6 69.55 18.6 70.25 18.6 70.7 19.1 71.15 19.6 71.15 20.45 71.15 21.3 70.65 21.85 Z"/>
</g>

<g id="Suite_BabyGear_728x90_html5_psd_Asset_1_Suite_Products_Baby_Gear_Roarin__Rainforest__Jumperoo___0_Layer0_0_MEMBER_21_FILL">
<path fill="#6B6E71" stroke="none" d="
M 77.9 18.4
Q 77.15 17.65 75.95 17.65 74.75 17.65 74 18.5 73.25 19.3 73.25 20.45 73.25 21.7 74.05 22.5 74.9 23.3 76.2 23.3 77.35 23.3 78.2 22.75
L 78.3 21.75
Q 77.35 22.35 76.35 22.35 74.6 22.35 74.4 20.8
L 78.5 20.8 78.55 20.2
Q 78.55 19.15 77.9 18.4
M 74.4 20
Q 74.6 18.55 75.95 18.55 77.35 18.55 77.45 20
L 74.4 20 Z"/>
</g>

<g id="Suite_BabyGear_728x90_html5_psd_Asset_1_Suite_Products_Baby_Gear_Roarin__Rainforest__Jumperoo___0_Layer0_0_MEMBER_22_FILL">
<path fill="#6B6E71" stroke="none" d="
M 83.95 18.4
Q 83.95 17.65 83.05 17.65 82.05 17.65 81.35 18.95
L 81.35 17.75 79.45 17.75 79.45 18.65 80.3 18.65 80.3 22.25 79.45 22.25 79.45 23.2 82.4 23.2 82.4 22.25 81.4 22.25 81.4 19.8
Q 81.8 18.85 82.5 18.7 82.7 19.15 83.25 19.15 83.5 19.15 83.75 18.95 83.95 18.7 83.95 18.4 Z"/>
</g>

<g id="Suite_BabyGear_728x90_html5_psd_Asset_1_Suite_Products_Baby_Gear_Roarin__Rainforest__Jumperoo___0_Layer0_0_MEMBER_23_FILL">
<path fill="#6B6E71" stroke="none" d="
M 89.35 18.45
Q 88.55 17.65 87.3 17.65 86.05 17.65 85.2 18.5 84.45 19.3 84.45 20.45 84.45 21.65 85.2 22.45 86 23.3 87.3 23.3 88.55 23.3 89.35 22.45 90.1 21.65 90.1 20.45 90.1 19.25 89.35 18.45
M 85.55 20.45
Q 85.55 19.6 86.05 19.1 86.5 18.55 87.3 18.55 88.05 18.55 88.55 19.1 89 19.6 89 20.45 89 21.3 88.55 21.8 88.05 22.35 87.3 22.35 86.5 22.35 86.05 21.8 85.55 21.3 85.55 20.45 Z"/>
</g>

<g id="Suite_BabyGear_728x90_html5_psd_Asset_1_Suite_Products_Baby_Gear_Roarin__Rainforest__Jumperoo___0_Layer0_0_MEMBER_24_FILL">
<path fill="#6B6E71" stroke="none" d="
M 96.05 18.45
Q 95.25 17.65 93.95 17.65 92.7 17.65 91.9 18.5 91.1 19.3 91.1 20.45 91.1 21.65 91.85 22.45 92.65 23.3 93.95 23.3 95.25 23.3 96.05 22.45 96.8 21.65 96.8 20.45 96.8 19.25 96.05 18.45
M 95.2 21.8
Q 94.75 22.35 93.95 22.35 93.2 22.35 92.75 21.8 92.25 21.3 92.25 20.45 92.25 19.6 92.75 19.1 93.2 18.55 93.95 18.55 94.75 18.55 95.2 19.1 95.7 19.6 95.7 20.45 95.7 21.3 95.2 21.8 Z"/>
</g>

<g id="Suite_BabyGear_728x90_html5_psd_Asset_1_Suite_Products_Baby_Gear_Roarin__Rainforest__Jumperoo___0_Layer0_0_MEMBER_25_FILL">
<path fill="#6B6E71" stroke="none" d="
M 101.45 18.3
Q 102.1 17.65 102.1 16.7 102.1 15.75 101.45 15.05 100.8 14.4 99.85 14.4 98.9 14.4 98.2 15.05 97.55 15.75 97.55 16.7 97.55 17.65 98.2 18.3 98.9 18.95 99.85 18.95 100.8 18.95 101.45 18.3
M 99.85 14.85
Q 100.55 14.85 101.1 15.4 101.6 15.9 101.6 16.7 101.6 17.45 101.1 18 100.55 18.5 99.85 18.5 99.1 18.5 98.6 18 98.05 17.45 98.05 16.7 98.05 15.9 98.6 15.4 99.1 14.85 99.85 14.85
M 100.3 16.8
Q 100.7 16.6 100.7 16.2 100.7 15.6 99.85 15.6
L 98.95 15.6 98.95 15.95 99.2 15.95 99.2 17.35 98.95 17.35 98.95 17.7 99.85 17.7 99.85 17.35 99.6 17.35 99.6 16.9 99.9 16.9 100.3 17.7 100.8 17.7 100.8 17.35 100.55 17.35 100.3 16.8
M 99.8 16.55
L 99.6 16.55 99.6 15.95 99.8 15.95
Q 100.25 15.95 100.25 16.25 100.25 16.55 99.8 16.55 Z"/>
</g>
</defs>

<g transform="matrix( 1, 0, 0, 1, 615,34) ">
<g transform="matrix( 1, 0, 0, 0.9994049072265625, -21.65,1.2) ">
<use xlink:href="#Suite_BabyGear_728x90_html5_psd_Asset_1_Suite_Products_Baby_Gear_Roarin__Rainforest__Jumperoo___0_Layer0_0_MEMBER_0_FILL"/>
</g>

<g transform="matrix( 1, 0, 0, 0.9994049072265625, -21.65,1.2) ">
<use xlink:href="#Suite_BabyGear_728x90_html5_psd_Asset_1_Suite_Products_Baby_Gear_Roarin__Rainforest__Jumperoo___0_Layer0_0_MEMBER_1_FILL"/>
</g>

<g transform="matrix( 1, 0, 0, 0.9994049072265625, -21.65,1.2) ">
<use xlink:href="#Suite_BabyGear_728x90_html5_psd_Asset_1_Suite_Products_Baby_Gear_Roarin__Rainforest__Jumperoo___0_Layer0_0_MEMBER_2_FILL"/>
</g>

<g transform="matrix( 1, 0, 0, 0.9994049072265625, -21.65,1.2) ">
<use xlink:href="#Suite_BabyGear_728x90_html5_psd_Asset_1_Suite_Products_Baby_Gear_Roarin__Rainforest__Jumperoo___0_Layer0_0_MEMBER_3_FILL"/>
</g>

<g transform="matrix( 1, 0, 0, 0.9994049072265625, -21.65,1.2) ">
<use xlink:href="#Suite_BabyGear_728x90_html5_psd_Asset_1_Suite_Products_Baby_Gear_Roarin__Rainforest__Jumperoo___0_Layer0_0_MEMBER_4_FILL"/>
</g>

<g transform="matrix( 1, 0, 0, 0.9994049072265625, -21.65,1.2) ">
<use xlink:href="#Suite_BabyGear_728x90_html5_psd_Asset_1_Suite_Products_Baby_Gear_Roarin__Rainforest__Jumperoo___0_Layer0_0_MEMBER_5_FILL"/>
</g>

<g transform="matrix( 1, 0, 0, 0.9994049072265625, -21.65,1.2) ">
<use xlink:href="#Suite_BabyGear_728x90_html5_psd_Asset_1_Suite_Products_Baby_Gear_Roarin__Rainforest__Jumperoo___0_Layer0_0_MEMBER_6_FILL"/>
</g>

<g transform="matrix( 1, 0, 0, 0.9994049072265625, -21.65,1.2) ">
<use xlink:href="#Suite_BabyGear_728x90_html5_psd_Asset_1_Suite_Products_Baby_Gear_Roarin__Rainforest__Jumperoo___0_Layer0_0_MEMBER_7_FILL"/>
</g>

<g transform="matrix( 1, 0, 0, 0.9994049072265625, -21.65,1.2) ">
<use xlink:href="#Suite_BabyGear_728x90_html5_psd_Asset_1_Suite_Products_Baby_Gear_Roarin__Rainforest__Jumperoo___0_Layer0_0_MEMBER_8_FILL"/>
</g>

<g transform="matrix( 1, 0, 0, 0.9994049072265625, -21.65,1.2) ">
<use xlink:href="#Suite_BabyGear_728x90_html5_psd_Asset_1_Suite_Products_Baby_Gear_Roarin__Rainforest__Jumperoo___0_Layer0_0_MEMBER_9_FILL"/>
</g>

<g transform="matrix( 1, 0, 0, 0.9994049072265625, -21.65,1.2) ">
<use xlink:href="#Suite_BabyGear_728x90_html5_psd_Asset_1_Suite_Products_Baby_Gear_Roarin__Rainforest__Jumperoo___0_Layer0_0_MEMBER_10_FILL"/>
</g>

<g transform="matrix( 1, 0, 0, 0.9994049072265625, -21.65,1.2) ">
<use xlink:href="#Suite_BabyGear_728x90_html5_psd_Asset_1_Suite_Products_Baby_Gear_Roarin__Rainforest__Jumperoo___0_Layer0_0_MEMBER_11_FILL"/>
</g>

<g transform="matrix( 1, 0, 0, 0.9994049072265625, -21.65,1.2) ">
<use xlink:href="#Suite_BabyGear_728x90_html5_psd_Asset_1_Suite_Products_Baby_Gear_Roarin__Rainforest__Jumperoo___0_Layer0_0_MEMBER_12_FILL"/>
</g>

<g transform="matrix( 1, 0, 0, 0.9994049072265625, -21.65,1.2) ">
<use xlink:href="#Suite_BabyGear_728x90_html5_psd_Asset_1_Suite_Products_Baby_Gear_Roarin__Rainforest__Jumperoo___0_Layer0_0_MEMBER_13_FILL"/>
</g>

<g transform="matrix( 1, 0, 0, 0.9994049072265625, -21.65,1.2) ">
<use xlink:href="#Suite_BabyGear_728x90_html5_psd_Asset_1_Suite_Products_Baby_Gear_Roarin__Rainforest__Jumperoo___0_Layer0_0_MEMBER_14_FILL"/>
</g>

<g transform="matrix( 1, 0, 0, 0.9994049072265625, -21.65,1.2) ">
<use xlink:href="#Suite_BabyGear_728x90_html5_psd_Asset_1_Suite_Products_Baby_Gear_Roarin__Rainforest__Jumperoo___0_Layer0_0_MEMBER_15_FILL"/>
</g>

<g transform="matrix( 1, 0, 0, 0.9994049072265625, -21.65,1.2) ">
<use xlink:href="#Suite_BabyGear_728x90_html5_psd_Asset_1_Suite_Products_Baby_Gear_Roarin__Rainforest__Jumperoo___0_Layer0_0_MEMBER_16_FILL"/>
</g>

<g transform="matrix( 1, 0, 0, 0.9994049072265625, -21.65,1.2) ">
<use xlink:href="#Suite_BabyGear_728x90_html5_psd_Asset_1_Suite_Products_Baby_Gear_Roarin__Rainforest__Jumperoo___0_Layer0_0_MEMBER_17_FILL"/>
</g>

<g transform="matrix( 1, 0, 0, 0.9994049072265625, -21.65,1.2) ">
<use xlink:href="#Suite_BabyGear_728x90_html5_psd_Asset_1_Suite_Products_Baby_Gear_Roarin__Rainforest__Jumperoo___0_Layer0_0_MEMBER_18_FILL"/>
</g>

<g transform="matrix( 1, 0, 0, 0.9994049072265625, -21.65,1.2) ">
<use xlink:href="#Suite_BabyGear_728x90_html5_psd_Asset_1_Suite_Products_Baby_Gear_Roarin__Rainforest__Jumperoo___0_Layer0_0_MEMBER_19_FILL"/>
</g>

<g transform="matrix( 1, 0, 0, 0.9994049072265625, -21.65,1.2) ">
<use xlink:href="#Suite_BabyGear_728x90_html5_psd_Asset_1_Suite_Products_Baby_Gear_Roarin__Rainforest__Jumperoo___0_Layer0_0_MEMBER_20_FILL"/>
</g>

<g transform="matrix( 1, 0, 0, 0.9994049072265625, -21.65,1.2) ">
<use xlink:href="#Suite_BabyGear_728x90_html5_psd_Asset_1_Suite_Products_Baby_Gear_Roarin__Rainforest__Jumperoo___0_Layer0_0_MEMBER_21_FILL"/>
</g>

<g transform="matrix( 1, 0, 0, 0.9994049072265625, -21.65,1.2) ">
<use xlink:href="#Suite_BabyGear_728x90_html5_psd_Asset_1_Suite_Products_Baby_Gear_Roarin__Rainforest__Jumperoo___0_Layer0_0_MEMBER_22_FILL"/>
</g>

<g transform="matrix( 1, 0, 0, 0.9994049072265625, -21.65,1.2) ">
<use xlink:href="#Suite_BabyGear_728x90_html5_psd_Asset_1_Suite_Products_Baby_Gear_Roarin__Rainforest__Jumperoo___0_Layer0_0_MEMBER_23_FILL"/>
</g>

<g transform="matrix( 1, 0, 0, 0.9994049072265625, -21.65,1.2) ">
<use xlink:href="#Suite_BabyGear_728x90_html5_psd_Asset_1_Suite_Products_Baby_Gear_Roarin__Rainforest__Jumperoo___0_Layer0_0_MEMBER_24_FILL"/>
</g>

<g transform="matrix( 1, 0, 0, 0.9994049072265625, -21.65,1.2) ">
<use xlink:href="#Suite_BabyGear_728x90_html5_psd_Asset_1_Suite_Products_Baby_Gear_Roarin__Rainforest__Jumperoo___0_Layer0_0_MEMBER_25_FILL"/>
</g>
</g>
</svg>
