
<svg xmlns="http://www.w3.org/2000/svg" version="1.1" xmlns:xlink="http://www.w3.org/1999/xlink" preserveAspectRatio="none" x="0px" y="0px" width="300px" height="250px" viewBox="0 0 300 250">
<defs>
<g id="Suite_Toys_300x250_html5_psd_Asset_Suite_Products_Toys_text_Learning_to_use_your_feet_is_no_little_feat__0_Layer0_0_MEMBER_0_FILL">
<path fill="#FFFFFF" stroke="none" d="
M 13.2 3.1
L 13.2 1.3 8.35 1.3 8.35 3.1 9.7 3.1 9.7 11.1 8.35 11.1 8.35 12.85 16.75 12.85 16.75 9.5 14.85 9.5 14.85 11.1 11.65 11.1 11.65 3.1 13.2 3.1 Z"/>
</g>

<g id="Suite_Toys_300x250_html5_psd_Asset_Suite_Products_Toys_text_Learning_to_use_your_feet_is_no_little_feat__0_Layer0_0_MEMBER_1_FILL">
<path fill="#FFFFFF" stroke="none" d="
M 25.15 10.6
Q 23.7 11.4 22.4 11.4 20.2 11.4 19.85 9.65
L 25.4 9.65 25.5 8.7
Q 25.5 7.15 24.55 6.15 23.5 5.05 21.75 5.05 20 5.05 18.9 6.25 17.85 7.35 17.85 9.05 17.85 10.85 19.05 11.95 20.2 13 22.1 13 23.9 13 25 12.3
L 25.15 10.6
M 23.05 7.1
Q 23.55 7.55 23.55 8.35
L 19.85 8.35
Q 20.1 6.6 21.7 6.6 22.55 6.6 23.05 7.1 Z"/>
</g>

<g id="Suite_Toys_300x250_html5_psd_Asset_Suite_Products_Toys_text_Learning_to_use_your_feet_is_no_little_feat__0_Layer0_0_MEMBER_2_FILL">
<path fill="#FFFFFF" stroke="none" d="
M 31.5 8.1
L 31.5 8.75
Q 30.7 8.55 29.55 8.55 28.15 8.55 27.35 9.15 26.45 9.8 26.45 10.85 26.45 11.9 27.2 12.45 27.9 13 28.95 13 30.4 13 31.55 12.05
L 31.55 12.85 34.5 12.85 34.5 11.3 33.4 11.3 33.4 8
Q 33.4 6.8 32.8 6.05 31.95 5.05 30 5.05 28.55 5.05 27.7 5.65 26.95 6.2 26.95 7 26.95 8 28 8 29 8 29 7
L 28.95 6.65
Q 29.25 6.5 29.7 6.5 30.8 6.5 31.2 7.05 31.5 7.45 31.5 8.1
M 31.5 9.7
L 31.5 10.95
Q 30.6 11.6 29.6 11.6 28.45 11.6 28.45 10.65 28.45 9.55 29.95 9.55 30.9 9.55 31.5 9.7 Z"/>
</g>

<g id="Suite_Toys_300x250_html5_psd_Asset_Suite_Products_Toys_text_Learning_to_use_your_feet_is_no_little_feat__0_Layer0_0_MEMBER_3_FILL">
<path fill="#FFFFFF" stroke="none" d="
M 42.2 6.3
Q 42.2 5.05 40.8 5.05 39.5 5.05 38.35 6.9
L 38.35 5.15 35.35 5.15 35.35 6.8 36.5 6.8 36.5 11.3 35.35 11.3 35.35 12.85 39.75 12.85 39.75 11.3 38.4 11.3 38.4 8.25
Q 39 7.15 39.95 6.8 40.25 7.5 41.05 7.5 41.55 7.5 41.85 7.15 42.2 6.8 42.2 6.3 Z"/>
</g>

<g id="Suite_Toys_300x250_html5_psd_Asset_Suite_Products_Toys_text_Learning_to_use_your_feet_is_no_little_feat__0_Layer0_0_MEMBER_4_FILL">
<path fill="#FFFFFF" stroke="none" d="
M 51.05 7.6
Q 51.05 6.6 50.65 6 50 5.05 48.7 5.05 47.35 5.05 46 6.4
L 46 5.15 43 5.15 43 6.8 44.15 6.8 44.15 11.3 43 11.3 43 12.85 47.1 12.85 47.1 11.3 46.05 11.3 46.05 7.65
Q 47.15 6.75 48.05 6.75 48.7 6.75 49 7.3 49.15 7.55 49.15 8.05
L 49.15 11.3 48.1 11.3 48.1 12.85 52.2 12.85 52.2 11.3 51.05 11.3 51.05 7.6 Z"/>
</g>

<g id="Suite_Toys_300x250_html5_psd_Asset_Suite_Products_Toys_text_Learning_to_use_your_feet_is_no_little_feat__0_Layer0_0_MEMBER_5_FILL">
<path fill="#FFFFFF" stroke="none" d="
M 54.25 11.3
L 53.05 11.3 53.05 12.85 57.3 12.85 57.3 11.3 56.15 11.3 56.15 5.15 53.05 5.15 53.05 6.8 54.25 6.8 54.25 11.3
M 55.9 3.65
Q 56.3 3.25 56.3 2.75 56.3 2.2 55.9 1.8 55.55 1.45 55 1.45 54.5 1.45 54.1 1.8 53.7 2.2 53.7 2.75 53.7 3.25 54.1 3.65 54.45 4 55 4 55.5 4 55.9 3.65 Z"/>
</g>

<g id="Suite_Toys_300x250_html5_psd_Asset_Suite_Products_Toys_text_Learning_to_use_your_feet_is_no_little_feat__0_Layer0_0_MEMBER_6_FILL">
<path fill="#FFFFFF" stroke="none" d="
M 64.55 11.3
L 63.5 11.3 63.5 12.85 67.6 12.85 67.6 11.3 66.45 11.3 66.45 7.6
Q 66.45 6.6 66.05 6 65.4 5.05 64.1 5.05 62.75 5.05 61.4 6.4
L 61.4 5.15 58.4 5.15 58.4 6.8 59.55 6.8 59.55 11.3 58.4 11.3 58.4 12.85 62.5 12.85 62.5 11.3 61.45 11.3 61.45 7.65
Q 62.55 6.75 63.45 6.75 64.1 6.75 64.4 7.3 64.55 7.55 64.55 8.05
L 64.55 11.3 Z"/>
</g>

<g id="Suite_Toys_300x250_html5_psd_Asset_Suite_Products_Toys_text_Learning_to_use_your_feet_is_no_little_feat__0_Layer0_0_MEMBER_7_FILL">
<path fill="#FFFFFF" stroke="none" d="
M 74.15 5.15
L 74.15 5.85
Q 73.25 5.05 71.95 5.05 70.45 5.05 69.4 6.2 68.35 7.3 68.35 8.95 68.35 10.6 69.4 11.65 70.4 12.7 71.9 12.7 73.05 12.7 74.1 11.75
L 74.1 12.85
Q 74.1 13.65 73.75 14.15 73.25 14.85 72.2 14.85 71.65 14.85 71.05 14.65
L 71.05 14.35
Q 71.05 13.35 70 13.35 69.55 13.35 69.25 13.65 68.95 13.95 68.95 14.4 68.95 14.95 69.4 15.4 70.4 16.4 72.4 16.4 74.35 16.4 75.3 15.2 76 14.35 76 12.9
L 76 6.8 77.15 6.8 77.15 5.15 74.15 5.15
M 70.9 7.25
Q 71.45 6.7 72.35 6.7 73.35 6.7 74.1 7.3
L 74.1 10.35
Q 73.25 11.1 72.35 11.1 71.45 11.1 70.9 10.55 70.35 9.95 70.35 8.9 70.35 7.85 70.9 7.25 Z"/>
</g>

<g id="Suite_Toys_300x250_html5_psd_Asset_Suite_Products_Toys_text_Learning_to_use_your_feet_is_no_little_feat__0_Layer0_0_MEMBER_8_FILL">
<path fill="#FFFFFF" stroke="none" d="
M 83.1 5.15
L 81.6 5.15 81.6 6.8 83.1 6.8 83.1 10.75
Q 83.1 11.6 83.35 11.95 83.9 13 85.4 13 86.35 13 87.25 12.55
L 87.4 10.9
Q 86.5 11.3 85.9 11.3 85.3 11.3 85.1 10.95 85 10.8 85 10.35
L 85 6.8 87.3 6.8 87.3 5.15 85 5.15 85 2.75 83.1 3.55 83.1 5.15 Z"/>
</g>

<g id="Suite_Toys_300x250_html5_psd_Asset_Suite_Products_Toys_text_Learning_to_use_your_feet_is_no_little_feat__0_Layer0_0_MEMBER_9_FILL">
<path fill="#FFFFFF" stroke="none" d="
M 95.45 6.2
Q 94.3 5.05 92.45 5.05 90.6 5.05 89.45 6.25 88.35 7.35 88.35 9 88.35 10.7 89.45 11.8 90.6 13 92.45 13 94.3 13 95.45 11.8 96.55 10.65 96.55 9 96.55 7.35 95.45 6.2
M 93.95 10.75
Q 93.4 11.4 92.45 11.4 91.5 11.4 90.9 10.75 90.3 10.1 90.3 9 90.3 7.95 90.9 7.3 91.5 6.65 92.45 6.65 93.4 6.65 93.95 7.3 94.55 7.95 94.55 9 94.55 10.1 93.95 10.75 Z"/>
</g>

<g id="Suite_Toys_300x250_html5_psd_Asset_Suite_Products_Toys_text_Learning_to_use_your_feet_is_no_little_feat__0_Layer0_0_MEMBER_10_FILL">
<path fill="#FFFFFF" stroke="none" d="
M 104.35 5.15
L 101.3 5.15 101.3 6.8 102.4 6.8 102.4 10.45
Q 102.4 11.35 102.8 12 103.45 13 104.8 13 106.05 13 107.5 11.65
L 107.5 12.85 110.5 12.85 110.5 11.3 109.35 11.3 109.35 5.15 106.25 5.15 106.25 6.8 107.45 6.8 107.45 10.35
Q 106.4 11.25 105.45 11.25 104.7 11.25 104.5 10.75 104.35 10.45 104.35 9.95
L 104.35 5.15 Z"/>
</g>

<g id="Suite_Toys_300x250_html5_psd_Asset_Suite_Products_Toys_text_Learning_to_use_your_feet_is_no_little_feat__0_Layer0_0_MEMBER_11_FILL">
<path fill="#FFFFFF" stroke="none" d="
M 115.1 5
Q 113.55 5 112.7 5.8 111.95 6.45 111.95 7.45 111.95 8.4 112.65 8.95 113.3 9.4 114.95 9.85 116.45 10.25 116.45 10.8 116.45 11.6 115.05 11.6 114.25 11.6 113.65 11.35
L 113.7 11.05
Q 113.7 10 112.65 10 112.2 10 111.95 10.3 111.65 10.6 111.65 11.05 111.65 11.7 112.1 12.1 113.05 13.05 115.05 13.05 116.4 13.05 117.35 12.4 118.3 11.7 118.3 10.55 118.3 9.6 117.55 9.05 116.95 8.65 115.4 8.2 113.75 7.8 113.75 7.25 113.75 6.45 115.05 6.45 115.7 6.45 116.15 6.65
L 116.1 6.95
Q 116.1 7.9 117.15 7.9 118.1 7.9 118.1 6.85 118.1 6.3 117.65 5.9 116.85 5 115.1 5 Z"/>
</g>

<g id="Suite_Toys_300x250_html5_psd_Asset_Suite_Products_Toys_text_Learning_to_use_your_feet_is_no_little_feat__0_Layer0_0_MEMBER_12_FILL">
<path fill="#FFFFFF" stroke="none" d="
M 126.25 6.15
Q 125.2 5.05 123.45 5.05 121.7 5.05 120.6 6.25 119.55 7.35 119.55 9.05 119.55 10.85 120.75 11.95 121.9 13 123.8 13 125.6 13 126.7 12.3
L 126.85 10.6
Q 125.5 11.4 124.1 11.4 121.9 11.4 121.55 9.65
L 127.1 9.65 127.2 8.7
Q 127.2 7.15 126.25 6.15
M 121.55 8.35
Q 121.8 6.6 123.45 6.6 124.25 6.6 124.75 7.1 125.25 7.55 125.25 8.35
L 121.55 8.35 Z"/>
</g>

<g id="Suite_Toys_300x250_html5_psd_Asset_Suite_Products_Toys_text_Learning_to_use_your_feet_is_no_little_feat__0_Layer0_0_MEMBER_13_FILL">
<path fill="#FFFFFF" stroke="none" d="
M 32.8 27.55
L 32.8 25.35 27.4 25.35 27.4 27.45 29.05 27.45 26.6 33 24.15 27.45 25.7 27.45 25.7 25.35 20.3 25.35 20.3 27.55 21.6 27.55 25.3 35.35 24.55 37 24.05 37.8
Q 23.65 38.3 23.2 38.4 22.9 37.65 22.05 37.65 20.75 37.65 20.75 38.95 20.75 39.6 21.35 40.1 22.05 40.65 23 40.65 24.65 40.65 25.8 39.25 26.1 38.9 26.6 38
L 31.55 27.55 32.8 27.55 Z"/>
</g>

<g id="Suite_Toys_300x250_html5_psd_Asset_Suite_Products_Toys_text_Learning_to_use_your_feet_is_no_little_feat__0_Layer0_0_MEMBER_14_FILL">
<path fill="#FFFFFF" stroke="none" d="
M 44.55 30.6
Q 44.55 28.35 43.05 26.8 41.5 25.15 39 25.15 36.5 25.15 34.9 26.8 33.4 28.35 33.4 30.6 33.4 32.9 34.9 34.45 36.45 36.05 39 36.05 41.5 36.05 43.05 34.4 44.55 32.85 44.55 30.6
M 41.9 30.6
Q 41.9 32.05 41.1 32.95 40.3 33.85 39 33.85 37.7 33.85 36.9 32.95 36.1 32.05 36.1 30.6 36.1 29.2 36.9 28.25 37.75 27.35 39 27.35 40.3 27.35 41.1 28.25 41.9 29.2 41.9 30.6 Z"/>
</g>

<g id="Suite_Toys_300x250_html5_psd_Asset_Suite_Products_Toys_text_Learning_to_use_your_feet_is_no_little_feat__0_Layer0_0_MEMBER_15_FILL">
<path fill="#FFFFFF" stroke="none" d="
M 52.35 25.35
L 52.35 27.55 54 27.55 54 32.45
Q 52.5 33.7 51.3 33.7 50.4 33.7 50 33 49.8 32.6 49.8 31.9
L 49.8 25.35 45.6 25.35 45.6 27.55 47.15 27.55 47.15 32.55
Q 47.15 33.8 47.7 34.65 48.55 36.05 50.4 36.05 52.15 36.05 54.1 34.2
L 54.1 35.85 58.15 35.85 58.15 33.7 56.6 33.7 56.6 25.35 52.35 25.35 Z"/>
</g>

<g id="Suite_Toys_300x250_html5_psd_Asset_Suite_Products_Toys_text_Learning_to_use_your_feet_is_no_little_feat__0_Layer0_0_MEMBER_16_FILL">
<path fill="#FFFFFF" stroke="none" d="
M 59.55 25.35
L 59.55 27.55 61.1 27.55 61.1 33.7 59.55 33.7 59.55 35.85 65.55 35.85 65.55 33.7 63.7 33.7 63.7 29.6
Q 64.55 28 65.8 27.6 66.2 28.5 67.35 28.5 68 28.5 68.45 28.05 68.9 27.55 68.9 26.9 68.9 26.15 68.4 25.65 67.9 25.15 66.95 25.15 65.2 25.15 63.6 27.75
L 63.6 25.35 59.55 25.35 Z"/>
</g>

<g id="Suite_Toys_300x250_html5_psd_Asset_Suite_Products_Toys_text_Learning_to_use_your_feet_is_no_little_feat__0_Layer0_0_MEMBER_17_FILL">
<path fill="#FFFFFF" stroke="none" d="
M 82.35 27.55
L 82.35 25.35 79.6 25.35 79.6 22.95
Q 79.6 21.5 80.1 20.85 80.25 20.55 80.65 20.4 81.1 21.4 82.15 21.4 82.75 21.4 83.15 21 83.55 20.6 83.55 19.9 83.55 19.1 82.9 18.6 82.25 18.1 81.25 18.1 79.55 18.1 78.35 19.2 77 20.55 77 23.3
L 77 25.35 75.2 25.35 75.2 27.55 77 27.55 77 33.7 75.45 33.7 75.45 35.85 81.65 35.85 81.65 33.7 79.6 33.7 79.6 27.55 82.35 27.55 Z"/>
</g>

<g id="Suite_Toys_300x250_html5_psd_Asset_Suite_Products_Toys_text_Learning_to_use_your_feet_is_no_little_feat__0_Layer0_0_MEMBER_18_FILL">
<path fill="#FFFFFF" stroke="none" d="
M 93.05 35.1
L 93.25 32.75
Q 91.35 33.85 89.45 33.85 86.5 33.85 86 31.5
L 93.6 31.5 93.7 30.2
Q 93.7 28 92.4 26.65 91 25.15 88.6 25.15 86.2 25.15 84.7 26.8 83.25 28.35 83.25 30.65 83.25 33.05 84.9 34.55 86.5 36.05 89.05 36.05 91.45 36.05 93.05 35.1
M 88.55 27.3
Q 89.7 27.3 90.4 27.95 91.05 28.6 91.1 29.65
L 86 29.65
Q 86.35 27.3 88.55 27.3 Z"/>
</g>

<g id="Suite_Toys_300x250_html5_psd_Asset_Suite_Products_Toys_text_Learning_to_use_your_feet_is_no_little_feat__0_Layer0_0_MEMBER_19_FILL">
<path fill="#FFFFFF" stroke="none" d="
M 100.6 25.15
Q 98.2 25.15 96.7 26.8 95.25 28.35 95.25 30.65 95.25 33.05 96.9 34.55 98.5 36.05 101.05 36.05 103.45 36.05 105.05 35.1
L 105.25 32.75
Q 103.35 33.85 101.45 33.85 98.5 33.85 98 31.5
L 105.55 31.5
Q 105.7 31 105.7 30.2 105.7 28 104.4 26.65 103 25.15 100.6 25.15
M 97.95 29.65
Q 98.35 27.3 100.55 27.3 101.7 27.3 102.4 27.95 103.05 28.6 103.1 29.65
L 97.95 29.65 Z"/>
</g>

<g id="Suite_Toys_300x250_html5_psd_Asset_Suite_Products_Toys_text_Learning_to_use_your_feet_is_no_little_feat__0_Layer0_0_MEMBER_20_FILL">
<path fill="#FFFFFF" stroke="none" d="
M 111.3 22.05
L 108.7 23.15 108.7 25.35 106.65 25.35 106.65 27.55 108.7 27.55 108.7 32.95
Q 108.7 34.05 109.05 34.6 109.85 36.05 111.9 36.05 113.2 36.05 114.4 35.45
L 114.6 33.15
Q 113.5 33.7 112.55 33.7 111.75 33.7 111.45 33.2 111.3 32.9 111.3 32.45
L 111.3 27.55 114.45 27.55 114.45 25.35 111.3 25.35 111.3 22.05 Z"/>
</g>

<g id="Suite_Toys_300x250_html5_psd_Asset_Suite_Products_Toys_text_Learning_to_use_your_feet_is_no_little_feat__0_Layer0_0_MEMBER_21_FILL">
<path fill="#FFFFFF" stroke="none" d="
M 32.55 48.15
L 29.45 48.15 29.45 49.8 30.65 49.8 30.65 54.3 29.45 54.3 29.45 55.85 33.7 55.85 33.7 54.3 32.55 54.3 32.55 48.15
M 30.5 46.6
Q 30.9 47 31.4 47 31.95 47 32.3 46.6 32.7 46.25 32.7 45.7 32.7 45.2 32.3 44.8 31.95 44.45 31.45 44.45 30.9 44.45 30.55 44.8 30.15 45.2 30.15 45.7 30.15 46.25 30.5 46.6 Z"/>
</g>

<g id="Suite_Toys_300x250_html5_psd_Asset_Suite_Products_Toys_text_Learning_to_use_your_feet_is_no_little_feat__0_Layer0_0_MEMBER_22_FILL">
<path fill="#FFFFFF" stroke="none" d="
M 38.25 48
Q 36.75 48 35.85 48.8 35.1 49.45 35.1 50.45 35.1 51.4 35.8 51.9 36.45 52.4 38.15 52.85 39.65 53.25 39.65 53.75 39.65 54.6 38.25 54.6 37.45 54.6 36.85 54.35
L 36.9 54.05
Q 36.9 53 35.85 53 35.4 53 35.15 53.3 34.85 53.6 34.85 54.05 34.85 54.65 35.3 55.1 36.2 56 38.25 56 39.6 56 40.5 55.4 41.5 54.7 41.5 53.55 41.5 52.6 40.7 52.05 40.1 51.65 38.55 51.2 36.95 50.8 36.95 50.2 36.95 49.4 38.25 49.4 38.7 49.4 39.3 49.6
L 39.3 49.95
Q 39.3 50.9 40.35 50.9 41.25 50.9 41.25 49.85 41.25 49.25 40.85 48.9 40.05 48 38.25 48 Z"/>
</g>

<g id="Suite_Toys_300x250_html5_psd_Asset_Suite_Products_Toys_text_Learning_to_use_your_feet_is_no_little_feat__0_Layer0_0_MEMBER_23_FILL">
<path fill="#FFFFFF" stroke="none" d="
M 49.6 49.4
L 49.6 48.15 46.6 48.15 46.6 49.8 47.75 49.8 47.75 54.3 46.6 54.3 46.6 55.85 50.7 55.85 50.7 54.3 49.65 54.3 49.65 50.65
Q 50.8 49.75 51.65 49.75 52.25 49.75 52.6 50.25 52.75 50.55 52.75 51.05
L 52.75 54.3 51.7 54.3 51.7 55.85 55.8 55.85 55.8 54.3 54.65 54.3 54.65 50.6
Q 54.65 49.55 54.25 49 53.6 48 52.3 48 51 48 49.6 49.4 Z"/>
</g>

<g id="Suite_Toys_300x250_html5_psd_Asset_Suite_Products_Toys_text_Learning_to_use_your_feet_is_no_little_feat__0_Layer0_0_MEMBER_24_FILL">
<path fill="#FFFFFF" stroke="none" d="
M 60.65 48
Q 58.85 48 57.65 49.2 56.55 50.35 56.55 52 56.55 53.7 57.65 54.8 58.8 56 60.65 56 62.5 56 63.65 54.8 64.75 53.65 64.75 52 64.75 50.35 63.65 49.2 62.5 48 60.65 48
M 62.8 52
Q 62.8 53.05 62.2 53.75 61.6 54.4 60.65 54.4 59.7 54.4 59.15 53.75 58.55 53.05 58.55 52 58.55 50.95 59.15 50.3 59.7 49.6 60.65 49.6 61.6 49.6 62.2 50.3 62.8 50.95 62.8 52 Z"/>
</g>

<g id="Suite_Toys_300x250_html5_psd_Asset_Suite_Products_Toys_text_Learning_to_use_your_feet_is_no_little_feat__0_Layer0_0_MEMBER_25_FILL">
<path fill="#FFFFFF" stroke="none" d="
M 69.7 44.6
L 70.9 44.6 70.9 54.3 69.7 54.3 69.7 55.85 73.95 55.85 73.95 54.3 72.8 54.3 72.8 43 69.7 43 69.7 44.6 Z"/>
</g>

<g id="Suite_Toys_300x250_html5_psd_Asset_Suite_Products_Toys_text_Learning_to_use_your_feet_is_no_little_feat__0_Layer0_0_MEMBER_26_FILL">
<path fill="#FFFFFF" stroke="none" d="
M 78.05 48.15
L 75 48.15 75 49.8 76.15 49.8 76.15 54.3 75 54.3 75 55.85 79.2 55.85 79.2 54.3 78.05 54.3 78.05 48.15
M 76.9 47
Q 77.45 47 77.8 46.6 78.2 46.25 78.2 45.7 78.2 45.2 77.85 44.8 77.5 44.45 76.95 44.45 76.4 44.45 76.05 44.8 75.65 45.2 75.65 45.7 75.65 46.25 76 46.6 76.4 47 76.9 47 Z"/>
</g>

<g id="Suite_Toys_300x250_html5_psd_Asset_Suite_Products_Toys_text_Learning_to_use_your_feet_is_no_little_feat__0_Layer0_0_MEMBER_27_FILL">
<path fill="#FFFFFF" stroke="none" d="
M 81.45 46.55
L 81.45 48.15 79.95 48.15 79.95 49.8 81.45 49.8 81.45 53.75
Q 81.45 54.6 81.7 54.95 82.25 56 83.75 56 84.7 56 85.6 55.55
L 85.75 53.9
Q 84.85 54.3 84.25 54.3 83.7 54.3 83.45 53.9 83.35 53.75 83.35 53.35
L 83.35 49.8 85.65 49.8 85.65 48.15 83.35 48.15 83.35 45.7 81.45 46.55 Z"/>
</g>

<g id="Suite_Toys_300x250_html5_psd_Asset_Suite_Products_Toys_text_Learning_to_use_your_feet_is_no_little_feat__0_Layer0_0_MEMBER_28_FILL">
<path fill="#FFFFFF" stroke="none" d="
M 87.9 48.15
L 86.4 48.15 86.4 49.8 87.9 49.8 87.9 53.75
Q 87.9 54.5 88.2 54.95 88.7 56 90.25 56 91.1 56 92.1 55.55
L 92.25 53.9
Q 91.35 54.3 90.75 54.3 90.2 54.3 89.95 53.9 89.8 53.7 89.8 53.35
L 89.8 49.8 92.15 49.8 92.15 48.15 89.8 48.15 89.8 45.7 87.9 46.55 87.9 48.15 Z"/>
</g>

<g id="Suite_Toys_300x250_html5_psd_Asset_Suite_Products_Toys_text_Learning_to_use_your_feet_is_no_little_feat__0_Layer0_0_MEMBER_29_FILL">
<path fill="#FFFFFF" stroke="none" d="
M 93.05 44.6
L 94.25 44.6 94.25 54.3 93.05 54.3 93.05 55.85 97.3 55.85 97.3 54.3 96.15 54.3 96.15 43 93.05 43 93.05 44.6 Z"/>
</g>

<g id="Suite_Toys_300x250_html5_psd_Asset_Suite_Products_Toys_text_Learning_to_use_your_feet_is_no_little_feat__0_Layer0_0_MEMBER_30_FILL">
<path fill="#FFFFFF" stroke="none" d="
M 102.25 48
Q 100.55 48 99.4 49.2 98.35 50.35 98.35 52.05 98.35 53.8 99.55 54.9 100.7 56 102.6 56 104.25 56 105.55 55.3
L 105.7 53.55
Q 104.3 54.4 102.9 54.4 100.8 54.4 100.35 52.65
L 105.9 52.65 106 51.7
Q 106 50.1 105.05 49.1 104 48 102.25 48
M 102.25 49.55
Q 104 49.55 104.1 51.3
L 100.35 51.3
Q 100.65 49.55 102.25 49.55 Z"/>
</g>

<g id="Suite_Toys_300x250_html5_psd_Asset_Suite_Products_Toys_text_Learning_to_use_your_feet_is_no_little_feat__0_Layer0_0_MEMBER_31_FILL">
<path fill="#FFFFFF" stroke="none" d="
M 49.85 64.8
Q 50 64.6 50.4 64.4 50.9 65.35 51.9 65.35 52.5 65.35 52.9 64.95 53.35 64.55 53.35 63.9 53.35 63.1 52.7 62.6 52.05 62.1 51 62.1 49.35 62.1 48.15 63.2 46.8 64.55 46.8 67.3
L 46.8 69.35 45 69.35 45 71.55 46.8 71.55 46.8 77.7 45.2 77.7 45.2 79.85 51.4 79.85 51.4 77.7 49.4 77.7 49.4 71.55 52.1 71.55 52.1 69.35 49.4 69.35 49.4 66.9
Q 49.4 65.5 49.85 64.8 Z"/>
</g>

<g id="Suite_Toys_300x250_html5_psd_Asset_Suite_Products_Toys_text_Learning_to_use_your_feet_is_no_little_feat__0_Layer0_0_MEMBER_32_FILL">
<path fill="#FFFFFF" stroke="none" d="
M 63.5 74.2
Q 63.5 72 62.2 70.65 60.8 69.15 58.35 69.15 56 69.15 54.5 70.75 53.05 72.35 53.05 74.6 53.05 77.05 54.65 78.55 56.25 80.05 58.85 80.05 61.1 80.05 62.85 79.1
L 63.05 76.75
Q 60.95 77.85 59.25 77.85 56.3 77.85 55.8 75.5
L 63.35 75.5
Q 63.5 74.9 63.5 74.2
M 55.75 73.65
Q 56.2 71.25 58.35 71.25 59.5 71.25 60.15 71.9 60.8 72.55 60.85 73.65
L 55.75 73.65 Z"/>
</g>

<g id="Suite_Toys_300x250_html5_psd_Asset_Suite_Products_Toys_text_Learning_to_use_your_feet_is_no_little_feat__0_Layer0_0_MEMBER_33_FILL">
<path fill="#FFFFFF" stroke="none" d="
M 68.2 71.35
Q 68.7 71.15 69.25 71.15 70.65 71.15 71.3 71.95 71.7 72.45 71.7 73.35
L 71.7 74.2
Q 70.6 73.9 69.05 73.9 67.15 73.9 66 74.75 64.8 75.6 64.8 77.1 64.8 78.5 65.85 79.3 66.8 80.05 68.25 80.05 70.1 80.05 71.75 78.7
L 71.75 79.85 75.8 79.85 75.8 77.7 74.25 77.7 74.25 73.2
Q 74.25 71.55 73.45 70.55 72.3 69.15 69.65 69.15 67.65 69.15 66.5 70 65.5 70.75 65.5 71.8 65.5 72.45 65.9 72.85 66.3 73.25 66.9 73.25 67.5 73.25 67.9 72.85 68.3 72.45 68.3 71.85
L 68.2 71.35
M 71.7 75.55
L 71.7 77.2
Q 70.45 78.15 69.05 78.15 67.5 78.15 67.5 76.85 67.5 75.3 69.55 75.3 70.7 75.3 71.7 75.55 Z"/>
</g>

<g id="Suite_Toys_300x250_html5_psd_Asset_Suite_Products_Toys_text_Learning_to_use_your_feet_is_no_little_feat__0_Layer0_0_MEMBER_34_FILL">
<path fill="#FFFFFF" stroke="none" d="
M 81.05 69.35
L 81.05 66 78.45 67.15 78.45 69.35 76.4 69.35 76.4 71.55 78.45 71.55 78.45 76.95
Q 78.45 77.95 78.8 78.6 79.6 80.05 81.65 80.05 82.85 80.05 84.15 79.4
L 84.35 77.15
Q 83.25 77.7 82.3 77.7 81.5 77.7 81.2 77.2 81.05 76.9 81.05 76.45
L 81.05 71.55 84.2 71.55 84.2 69.35 81.05 69.35 Z"/>
</g>

<g id="Suite_Toys_300x250_html5_psd_Asset_Suite_Products_Toys_text_Learning_to_use_your_feet_is_no_little_feat__0_Layer0_0_MEMBER_35_FILL">
<path fill="#FFFFFF" stroke="none" d="
M 86.75 79.45
Q 87.3 80.05 88.1 80.05 88.9 80.05 89.5 79.45 90.05 78.9 90.05 78.05 90.05 77.25 89.5 76.65 88.95 76.1 88.1 76.1 87.3 76.1 86.75 76.65 86.15 77.25 86.15 78.05 86.15 78.85 86.75 79.45 Z"/>
</g>
</defs>

<g transform="matrix( 1, 0, 0, 1, 180,7) ">
<g transform="matrix( 0.7530670166015625, 0, 0, 0.7567138671875, -6,-1.15) ">
<use xlink:href="#Suite_Toys_300x250_html5_psd_Asset_Suite_Products_Toys_text_Learning_to_use_your_feet_is_no_little_feat__0_Layer0_0_MEMBER_0_FILL"/>
</g>

<g transform="matrix( 0.7530670166015625, 0, 0, 0.7567138671875, -6,-1.15) ">
<use xlink:href="#Suite_Toys_300x250_html5_psd_Asset_Suite_Products_Toys_text_Learning_to_use_your_feet_is_no_little_feat__0_Layer0_0_MEMBER_1_FILL"/>
</g>

<g transform="matrix( 0.7530670166015625, 0, 0, 0.7567138671875, -6,-1.15) ">
<use xlink:href="#Suite_Toys_300x250_html5_psd_Asset_Suite_Products_Toys_text_Learning_to_use_your_feet_is_no_little_feat__0_Layer0_0_MEMBER_2_FILL"/>
</g>

<g transform="matrix( 0.7530670166015625, 0, 0, 0.7567138671875, -6,-1.15) ">
<use xlink:href="#Suite_Toys_300x250_html5_psd_Asset_Suite_Products_Toys_text_Learning_to_use_your_feet_is_no_little_feat__0_Layer0_0_MEMBER_3_FILL"/>
</g>

<g transform="matrix( 0.7530670166015625, 0, 0, 0.7567138671875, -6,-1.15) ">
<use xlink:href="#Suite_Toys_300x250_html5_psd_Asset_Suite_Products_Toys_text_Learning_to_use_your_feet_is_no_little_feat__0_Layer0_0_MEMBER_4_FILL"/>
</g>

<g transform="matrix( 0.7530670166015625, 0, 0, 0.7567138671875, -6,-1.15) ">
<use xlink:href="#Suite_Toys_300x250_html5_psd_Asset_Suite_Products_Toys_text_Learning_to_use_your_feet_is_no_little_feat__0_Layer0_0_MEMBER_5_FILL"/>
</g>

<g transform="matrix( 0.7530670166015625, 0, 0, 0.7567138671875, -6,-1.15) ">
<use xlink:href="#Suite_Toys_300x250_html5_psd_Asset_Suite_Products_Toys_text_Learning_to_use_your_feet_is_no_little_feat__0_Layer0_0_MEMBER_6_FILL"/>
</g>

<g transform="matrix( 0.7530670166015625, 0, 0, 0.7567138671875, -6,-1.15) ">
<use xlink:href="#Suite_Toys_300x250_html5_psd_Asset_Suite_Products_Toys_text_Learning_to_use_your_feet_is_no_little_feat__0_Layer0_0_MEMBER_7_FILL"/>
</g>

<g transform="matrix( 0.7530670166015625, 0, 0, 0.7567138671875, -6,-1.15) ">
<use xlink:href="#Suite_Toys_300x250_html5_psd_Asset_Suite_Products_Toys_text_Learning_to_use_your_feet_is_no_little_feat__0_Layer0_0_MEMBER_8_FILL"/>
</g>

<g transform="matrix( 0.7530670166015625, 0, 0, 0.7567138671875, -6,-1.15) ">
<use xlink:href="#Suite_Toys_300x250_html5_psd_Asset_Suite_Products_Toys_text_Learning_to_use_your_feet_is_no_little_feat__0_Layer0_0_MEMBER_9_FILL"/>
</g>

<g transform="matrix( 0.7530670166015625, 0, 0, 0.7567138671875, -6,-1.15) ">
<use xlink:href="#Suite_Toys_300x250_html5_psd_Asset_Suite_Products_Toys_text_Learning_to_use_your_feet_is_no_little_feat__0_Layer0_0_MEMBER_10_FILL"/>
</g>

<g transform="matrix( 0.7530670166015625, 0, 0, 0.7567138671875, -6,-1.15) ">
<use xlink:href="#Suite_Toys_300x250_html5_psd_Asset_Suite_Products_Toys_text_Learning_to_use_your_feet_is_no_little_feat__0_Layer0_0_MEMBER_11_FILL"/>
</g>

<g transform="matrix( 0.7530670166015625, 0, 0, 0.7567138671875, -6,-1.15) ">
<use xlink:href="#Suite_Toys_300x250_html5_psd_Asset_Suite_Products_Toys_text_Learning_to_use_your_feet_is_no_little_feat__0_Layer0_0_MEMBER_12_FILL"/>
</g>

<g transform="matrix( 0.7530670166015625, 0, 0, 0.7567138671875, -6,-1.15) ">
<use xlink:href="#Suite_Toys_300x250_html5_psd_Asset_Suite_Products_Toys_text_Learning_to_use_your_feet_is_no_little_feat__0_Layer0_0_MEMBER_13_FILL"/>
</g>

<g transform="matrix( 0.7530670166015625, 0, 0, 0.7567138671875, -6,-1.15) ">
<use xlink:href="#Suite_Toys_300x250_html5_psd_Asset_Suite_Products_Toys_text_Learning_to_use_your_feet_is_no_little_feat__0_Layer0_0_MEMBER_14_FILL"/>
</g>

<g transform="matrix( 0.7530670166015625, 0, 0, 0.7567138671875, -6,-1.15) ">
<use xlink:href="#Suite_Toys_300x250_html5_psd_Asset_Suite_Products_Toys_text_Learning_to_use_your_feet_is_no_little_feat__0_Layer0_0_MEMBER_15_FILL"/>
</g>

<g transform="matrix( 0.7530670166015625, 0, 0, 0.7567138671875, -6,-1.15) ">
<use xlink:href="#Suite_Toys_300x250_html5_psd_Asset_Suite_Products_Toys_text_Learning_to_use_your_feet_is_no_little_feat__0_Layer0_0_MEMBER_16_FILL"/>
</g>

<g transform="matrix( 0.7530670166015625, 0, 0, 0.7567138671875, -6,-1.15) ">
<use xlink:href="#Suite_Toys_300x250_html5_psd_Asset_Suite_Products_Toys_text_Learning_to_use_your_feet_is_no_little_feat__0_Layer0_0_MEMBER_17_FILL"/>
</g>

<g transform="matrix( 0.7530670166015625, 0, 0, 0.7567138671875, -6,-1.15) ">
<use xlink:href="#Suite_Toys_300x250_html5_psd_Asset_Suite_Products_Toys_text_Learning_to_use_your_feet_is_no_little_feat__0_Layer0_0_MEMBER_18_FILL"/>
</g>

<g transform="matrix( 0.7530670166015625, 0, 0, 0.7567138671875, -6,-1.15) ">
<use xlink:href="#Suite_Toys_300x250_html5_psd_Asset_Suite_Products_Toys_text_Learning_to_use_your_feet_is_no_little_feat__0_Layer0_0_MEMBER_19_FILL"/>
</g>

<g transform="matrix( 0.7530670166015625, 0, 0, 0.7567138671875, -6,-1.15) ">
<use xlink:href="#Suite_Toys_300x250_html5_psd_Asset_Suite_Products_Toys_text_Learning_to_use_your_feet_is_no_little_feat__0_Layer0_0_MEMBER_20_FILL"/>
</g>

<g transform="matrix( 0.7530670166015625, 0, 0, 0.7567138671875, -6,-1.15) ">
<use xlink:href="#Suite_Toys_300x250_html5_psd_Asset_Suite_Products_Toys_text_Learning_to_use_your_feet_is_no_little_feat__0_Layer0_0_MEMBER_21_FILL"/>
</g>

<g transform="matrix( 0.7530670166015625, 0, 0, 0.7567138671875, -6,-1.15) ">
<use xlink:href="#Suite_Toys_300x250_html5_psd_Asset_Suite_Products_Toys_text_Learning_to_use_your_feet_is_no_little_feat__0_Layer0_0_MEMBER_22_FILL"/>
</g>

<g transform="matrix( 0.7530670166015625, 0, 0, 0.7567138671875, -6,-1.15) ">
<use xlink:href="#Suite_Toys_300x250_html5_psd_Asset_Suite_Products_Toys_text_Learning_to_use_your_feet_is_no_little_feat__0_Layer0_0_MEMBER_23_FILL"/>
</g>

<g transform="matrix( 0.7530670166015625, 0, 0, 0.7567138671875, -6,-1.15) ">
<use xlink:href="#Suite_Toys_300x250_html5_psd_Asset_Suite_Products_Toys_text_Learning_to_use_your_feet_is_no_little_feat__0_Layer0_0_MEMBER_24_FILL"/>
</g>

<g transform="matrix( 0.7530670166015625, 0, 0, 0.7567138671875, -6,-1.15) ">
<use xlink:href="#Suite_Toys_300x250_html5_psd_Asset_Suite_Products_Toys_text_Learning_to_use_your_feet_is_no_little_feat__0_Layer0_0_MEMBER_25_FILL"/>
</g>

<g transform="matrix( 0.7530670166015625, 0, 0, 0.7567138671875, -6,-1.15) ">
<use xlink:href="#Suite_Toys_300x250_html5_psd_Asset_Suite_Products_Toys_text_Learning_to_use_your_feet_is_no_little_feat__0_Layer0_0_MEMBER_26_FILL"/>
</g>

<g transform="matrix( 0.7530670166015625, 0, 0, 0.7567138671875, -6,-1.15) ">
<use xlink:href="#Suite_Toys_300x250_html5_psd_Asset_Suite_Products_Toys_text_Learning_to_use_your_feet_is_no_little_feat__0_Layer0_0_MEMBER_27_FILL"/>
</g>

<g transform="matrix( 0.7530670166015625, 0, 0, 0.7567138671875, -6,-1.15) ">
<use xlink:href="#Suite_Toys_300x250_html5_psd_Asset_Suite_Products_Toys_text_Learning_to_use_your_feet_is_no_little_feat__0_Layer0_0_MEMBER_28_FILL"/>
</g>

<g transform="matrix( 0.7530670166015625, 0, 0, 0.7567138671875, -6,-1.15) ">
<use xlink:href="#Suite_Toys_300x250_html5_psd_Asset_Suite_Products_Toys_text_Learning_to_use_your_feet_is_no_little_feat__0_Layer0_0_MEMBER_29_FILL"/>
</g>

<g transform="matrix( 0.7530670166015625, 0, 0, 0.7567138671875, -6,-1.15) ">
<use xlink:href="#Suite_Toys_300x250_html5_psd_Asset_Suite_Products_Toys_text_Learning_to_use_your_feet_is_no_little_feat__0_Layer0_0_MEMBER_30_FILL"/>
</g>

<g transform="matrix( 0.7530670166015625, 0, 0, 0.7567138671875, -6,-1.15) ">
<use xlink:href="#Suite_Toys_300x250_html5_psd_Asset_Suite_Products_Toys_text_Learning_to_use_your_feet_is_no_little_feat__0_Layer0_0_MEMBER_31_FILL"/>
</g>

<g transform="matrix( 0.7530670166015625, 0, 0, 0.7567138671875, -6,-1.15) ">
<use xlink:href="#Suite_Toys_300x250_html5_psd_Asset_Suite_Products_Toys_text_Learning_to_use_your_feet_is_no_little_feat__0_Layer0_0_MEMBER_32_FILL"/>
</g>

<g transform="matrix( 0.7530670166015625, 0, 0, 0.7567138671875, -6,-1.15) ">
<use xlink:href="#Suite_Toys_300x250_html5_psd_Asset_Suite_Products_Toys_text_Learning_to_use_your_feet_is_no_little_feat__0_Layer0_0_MEMBER_33_FILL"/>
</g>

<g transform="matrix( 0.7530670166015625, 0, 0, 0.7567138671875, -6,-1.15) ">
<use xlink:href="#Suite_Toys_300x250_html5_psd_Asset_Suite_Products_Toys_text_Learning_to_use_your_feet_is_no_little_feat__0_Layer0_0_MEMBER_34_FILL"/>
</g>

<g transform="matrix( 0.7530670166015625, 0, 0, 0.7567138671875, -6,-1.15) ">
<use xlink:href="#Suite_Toys_300x250_html5_psd_Asset_Suite_Products_Toys_text_Learning_to_use_your_feet_is_no_little_feat__0_Layer0_0_MEMBER_35_FILL"/>
</g>
</g>
</svg>
