
<svg xmlns="http://www.w3.org/2000/svg" version="1.1" xmlns:xlink="http://www.w3.org/1999/xlink" preserveAspectRatio="none" x="0px" y="0px" width="300px" height="250px" viewBox="0 0 300 250">
<defs>
<g id="Suite_Toys_300x250_html5_psd_Asset_Suite_Products_Toys_text_When_you_re_getting_global__0_Layer0_0_MEMBER_0_FILL">
<path fill="#FFFFFF" stroke="none" d="
M 32.3 3.1
L 30.55 9.15 27.7 2.45 26.65 2.45 23.75 9.15 21.9 3.1 23.4 3.1 23.4 1.3 18.5 1.3 18.5 3.1 19.7 3.1 22.9 13 24 13 27.1 5.85 30.2 13 31.3 13 34.4 3.1 35.65 3.1 35.65 1.3 30.7 1.3 30.7 3.1 32.3 3.1 Z"/>
</g>

<g id="Suite_Toys_300x250_html5_psd_Asset_Suite_Products_Toys_text_When_you_re_getting_global__0_Layer0_0_MEMBER_1_FILL">
<path fill="#FFFFFF" stroke="none" d="
M 44.05 5.85
Q 43.4 5.05 42.2 5.05 40.95 5.05 39.55 6.35
L 39.55 0 36.5 0 36.5 1.6 37.65 1.6 37.65 11.3 36.5 11.3 36.5 12.85 40.6 12.85 40.6 11.3 39.55 11.3 39.55 7.65
Q 40.7 6.75 41.55 6.75 42.1 6.75 42.4 7.15 42.65 7.5 42.65 8.05
L 42.65 11.3 41.6 11.3 41.6 12.85 45.7 12.85 45.7 11.3 44.6 11.3 44.6 7.6
Q 44.6 6.55 44.05 5.85 Z"/>
</g>

<g id="Suite_Toys_300x250_html5_psd_Asset_Suite_Products_Toys_text_When_you_re_getting_global__0_Layer0_0_MEMBER_2_FILL">
<path fill="#FFFFFF" stroke="none" d="
M 53.8 10.6
Q 52.35 11.4 51 11.4 48.85 11.4 48.5 9.65
L 54.05 9.65 54.1 8.7
Q 54.1 7.1 53.15 6.15 52.15 5.05 50.4 5.05 48.65 5.05 47.55 6.25 46.5 7.35 46.5 9.05 46.5 10.85 47.65 11.95 48.85 13 50.75 13 52.55 13 53.65 12.3
L 53.8 10.6
M 48.45 8.35
Q 48.8 6.6 50.35 6.6 52.1 6.6 52.2 8.35
L 48.45 8.35 Z"/>
</g>

<g id="Suite_Toys_300x250_html5_psd_Asset_Suite_Products_Toys_text_When_you_re_getting_global__0_Layer0_0_MEMBER_3_FILL">
<path fill="#FFFFFF" stroke="none" d="
M 62.9 6
Q 62.25 5.05 60.9 5.05 59.65 5.05 58.2 6.4
L 58.2 5.15 55.2 5.15 55.2 6.8 56.35 6.8 56.35 11.3 55.2 11.3 55.2 12.85 59.35 12.85 59.35 11.3 58.25 11.3 58.25 7.65
Q 59.4 6.75 60.25 6.75 60.95 6.75 61.2 7.3 61.35 7.55 61.35 8.05
L 61.35 11.3 60.3 11.3 60.3 12.85 64.45 12.85 64.45 11.3 63.3 11.3 63.3 7.6
Q 63.3 6.7 62.9 6 Z"/>
</g>

<g id="Suite_Toys_300x250_html5_psd_Asset_Suite_Products_Toys_text_When_you_re_getting_global__0_Layer0_0_MEMBER_4_FILL">
<path fill="#FFFFFF" stroke="none" d="
M 73.9 6.7
L 75.1 6.7 73.3 10.75 71.5 6.7 72.65 6.7 72.65 5.15 68.65 5.15 68.65 6.8 69.6 6.8 72.35 12.5 71.8 13.7 71.4 14.3
Q 71.1 14.7 70.8 14.75 70.6 14.15 69.95 14.15 69 14.15 69 15.15 69 15.6 69.45 16 69.95 16.35 70.65 16.35 71.85 16.35 72.7 15.35 73.1 15 73.3 14.45
L 76.9 6.8 77.85 6.8 77.85 5.15 73.9 5.15 73.9 6.7 Z"/>
</g>

<g id="Suite_Toys_300x250_html5_psd_Asset_Suite_Products_Toys_text_When_you_re_getting_global__0_Layer0_0_MEMBER_5_FILL">
<path fill="#FFFFFF" stroke="none" d="
M 85.4 6.2
Q 84.25 5.05 82.4 5.05 80.55 5.05 79.4 6.25 78.3 7.35 78.3 9 78.3 10.7 79.4 11.8 80.55 13 82.4 13 84.2 13 85.35 11.8 86.45 10.65 86.45 9 86.45 7.35 85.4 6.2
M 83.9 10.75
Q 83.35 11.4 82.4 11.4 81.45 11.4 80.85 10.75 80.25 10.1 80.25 9 80.25 7.95 80.85 7.3 81.45 6.65 82.4 6.65 83.35 6.65 83.9 7.3 84.5 7.95 84.5 9 84.5 10.1 83.9 10.75 Z"/>
</g>

<g id="Suite_Toys_300x250_html5_psd_Asset_Suite_Products_Toys_text_When_you_re_getting_global__0_Layer0_0_MEMBER_6_FILL">
<path fill="#FFFFFF" stroke="none" d="
M 93.4 10.35
Q 92.35 11.25 91.4 11.25 90.65 11.25 90.45 10.75 90.3 10.45 90.3 9.95
L 90.3 5.15 87.25 5.15 87.25 6.8 88.35 6.8 88.35 10.45
Q 88.35 11.35 88.75 12 89.4 13 90.75 13 92 13 93.45 11.65
L 93.45 12.85 96.45 12.85 96.45 11.3 95.3 11.3 95.3 5.15 92.2 5.15 92.2 6.8 93.4 6.8 93.4 10.35 Z"/>
</g>

<g id="Suite_Toys_300x250_html5_psd_Asset_Suite_Products_Toys_text_When_you_re_getting_global__0_Layer0_0_MEMBER_7_FILL">
<path fill="#FFFFFF" stroke="none" d="
M 99.95 4.55
Q 100.6 3.6 100.6 2.75 100.6 1.95 100.15 1.5 99.75 1.1 99.15 1.1 98.6 1.1 98.2 1.5 97.8 1.85 97.8 2.35 97.8 3.4 98.85 3.65 98.75 4.6 97.15 5.85
L 97.65 6.55
Q 99.15 5.7 99.95 4.55 Z"/>
</g>

<g id="Suite_Toys_300x250_html5_psd_Asset_Suite_Products_Toys_text_When_you_re_getting_global__0_Layer0_0_MEMBER_8_FILL">
<path fill="#FFFFFF" stroke="none" d="
M 104.7 5.15
L 101.75 5.15 101.75 6.8 102.9 6.8 102.9 11.3 101.75 11.3 101.75 12.85 106.15 12.85 106.15 11.3 104.8 11.3 104.8 8.25
Q 105.4 7.15 106.3 6.8 106.7 7.5 107.45 7.5 107.95 7.5 108.25 7.15 108.6 6.8 108.6 6.3 108.6 5.05 107.15 5.05 105.85 5.05 104.7 6.9
L 104.7 5.15 Z"/>
</g>

<g id="Suite_Toys_300x250_html5_psd_Asset_Suite_Products_Toys_text_When_you_re_getting_global__0_Layer0_0_MEMBER_9_FILL">
<path fill="#FFFFFF" stroke="none" d="
M 116.5 10.6
Q 115.05 11.4 113.7 11.4 111.6 11.4 111.15 9.65
L 116.75 9.65 116.8 8.7
Q 116.8 7.1 115.85 6.15 114.85 5.05 113.05 5.05 111.3 5.05 110.2 6.25 109.15 7.35 109.15 9.05 109.15 10.85 110.35 11.95 111.5 13 113.4 13 115.25 13 116.35 12.3
L 116.5 10.6
M 113.05 6.6
Q 114.8 6.6 114.9 8.35
L 111.15 8.35
Q 111.4 6.6 113.05 6.6 Z"/>
</g>

<g id="Suite_Toys_300x250_html5_psd_Asset_Suite_Products_Toys_text_When_you_re_getting_global__0_Layer0_0_MEMBER_10_FILL">
<path fill="#FFFFFF" stroke="none" d="
M 48.8 24.15
L 45.8 24.15 45.8 24.85
Q 44.9 24.05 43.6 24.05 42.1 24.05 41.05 25.2 40 26.3 40 27.95 40 29.6 41 30.65 42 31.7 43.5 31.7 44.7 31.7 45.75 30.75
L 45.75 31.85
Q 45.75 32.65 45.4 33.15 44.9 33.85 43.8 33.85 43.3 33.85 42.7 33.65
L 42.7 33.35
Q 42.7 32.35 41.65 32.35 41.2 32.35 40.9 32.65 40.6 32.95 40.6 33.4 40.6 33.95 41.05 34.4 41.95 35.4 44.05 35.4 46 35.4 46.95 34.2 47.65 33.35 47.65 31.9
L 47.65 25.8 48.8 25.8 48.8 24.15
M 45.75 26.3
L 45.75 29.35
Q 44.9 30.1 44 30.1 43.1 30.1 42.55 29.55 42 28.95 42 27.9 42 26.85 42.55 26.25 43.1 25.7 44 25.7 45 25.7 45.75 26.3 Z"/>
</g>

<g id="Suite_Toys_300x250_html5_psd_Asset_Suite_Products_Toys_text_When_you_re_getting_global__0_Layer0_0_MEMBER_11_FILL">
<path fill="#FFFFFF" stroke="none" d="
M 57.35 28.65
L 57.45 27.7
Q 57.45 26.15 56.5 25.15 55.45 24.05 53.7 24.05 51.95 24.05 50.85 25.25 49.8 26.35 49.8 28.05 49.8 29.85 51 30.95 52.15 32 54.05 32 55.85 32 56.95 31.3
L 57.15 29.6
Q 55.7 30.4 54.35 30.4 52.15 30.4 51.8 28.65
L 57.35 28.65
M 51.8 27.35
Q 52.05 25.6 53.7 25.6 55.45 25.6 55.55 27.35
L 51.8 27.35 Z"/>
</g>

<g id="Suite_Toys_300x250_html5_psd_Asset_Suite_Products_Toys_text_When_you_re_getting_global__0_Layer0_0_MEMBER_12_FILL">
<path fill="#FFFFFF" stroke="none" d="
M 61.55 24.15
L 61.55 21.75 59.65 22.55 59.65 24.15 58.15 24.15 58.15 25.8 59.65 25.8 59.65 29.75
Q 59.65 30.45 59.9 30.95 60.45 32 62 32 62.85 32 63.85 31.55
L 64 29.9
Q 63.1 30.3 62.5 30.3 61.85 30.3 61.65 29.95
L 61.55 29.4 61.55 25.8 63.9 25.8 63.9 24.15 61.55 24.15 Z"/>
</g>

<g id="Suite_Toys_300x250_html5_psd_Asset_Suite_Products_Toys_text_When_you_re_getting_global__0_Layer0_0_MEMBER_13_FILL">
<path fill="#FFFFFF" stroke="none" d="
M 66.15 24.15
L 64.65 24.15 64.65 25.8 66.15 25.8 66.15 29.75
Q 66.15 30.6 66.4 30.95 66.95 32 68.45 32 69.4 32 70.3 31.55
L 70.45 29.9
Q 69.55 30.3 68.95 30.3 68.35 30.3 68.15 29.95 68.05 29.8 68.05 29.4
L 68.05 25.8 70.35 25.8 70.35 24.15 68.05 24.15 68.05 21.75 66.15 22.55 66.15 24.15 Z"/>
</g>

<g id="Suite_Toys_300x250_html5_psd_Asset_Suite_Products_Toys_text_When_you_re_getting_global__0_Layer0_0_MEMBER_14_FILL">
<path fill="#FFFFFF" stroke="none" d="
M 74.6 24.15
L 71.55 24.15 71.55 25.8 72.7 25.8 72.7 30.3 71.55 30.3 71.55 31.85 75.75 31.85 75.75 30.3 74.6 30.3 74.6 24.15
M 74.4 20.85
Q 74 20.45 73.5 20.45 73 20.45 72.6 20.85 72.2 21.25 72.2 21.75 72.2 22.25 72.6 22.65 72.95 23 73.45 23 74 23 74.35 22.65 74.75 22.25 74.75 21.75 74.75 21.2 74.4 20.85 Z"/>
</g>

<g id="Suite_Toys_300x250_html5_psd_Asset_Suite_Products_Toys_text_When_you_re_getting_global__0_Layer0_0_MEMBER_15_FILL">
<path fill="#FFFFFF" stroke="none" d="
M 84.95 26.6
Q 84.95 25.7 84.55 25 83.9 24.05 82.55 24.05 81.3 24.05 79.85 25.4
L 79.85 24.15 76.85 24.15 76.85 25.8 78 25.8 78 30.3 76.85 30.3 76.85 31.85 81 31.85 81 30.3 79.95 30.3 79.95 26.65
Q 81.05 25.75 81.9 25.75 82.6 25.75 82.85 26.3 83.05 26.7 83.05 27.05
L 83.05 30.3 81.95 30.3 81.95 31.85 86.1 31.85 86.1 30.3 84.95 30.3 84.95 26.6 Z"/>
</g>

<g id="Suite_Toys_300x250_html5_psd_Asset_Suite_Products_Toys_text_When_you_re_getting_global__0_Layer0_0_MEMBER_16_FILL">
<path fill="#FFFFFF" stroke="none" d="
M 95.65 24.15
L 92.65 24.15 92.65 24.85
Q 91.75 24.05 90.45 24.05 88.95 24.05 87.9 25.2 86.85 26.3 86.85 27.95 86.85 29.6 87.85 30.65 88.85 31.7 90.35 31.7 91.6 31.7 92.55 30.75
L 92.55 31.85
Q 92.55 32.75 92.2 33.15 91.8 33.85 90.65 33.85 90.2 33.85 89.5 33.65
L 89.55 33.35
Q 89.55 32.9 89.25 32.65 88.95 32.35 88.5 32.35 88.05 32.35 87.75 32.65 87.45 32.95 87.45 33.4 87.45 34 87.85 34.4 88.85 35.4 90.9 35.4 92.85 35.4 93.75 34.2 94.5 33.4 94.5 31.9
L 94.5 25.8 95.65 25.8 95.65 24.15
M 92.55 26.3
L 92.55 29.35
Q 91.8 30.1 90.85 30.1 89.95 30.1 89.4 29.55 88.8 28.95 88.8 27.9 88.8 26.85 89.4 26.25 89.9 25.7 90.85 25.7 91.8 25.7 92.55 26.3 Z"/>
</g>

<g id="Suite_Toys_300x250_html5_psd_Asset_Suite_Products_Toys_text_When_you_re_getting_global__0_Layer0_0_MEMBER_17_FILL">
<path fill="#FFFFFF" stroke="none" d="
M 31.4 58.1
Q 32.9 59.6 35.1 59.6 36.85 59.6 38.4 58.15
L 38.4 59.8
Q 38.4 61.05 37.85 61.75 37.15 62.75 35.55 62.75 34.85 62.75 33.85 62.45
L 33.9 62
Q 33.9 61.35 33.45 60.95 33 60.55 32.35 60.55 31.65 60.55 31.2 61.05 30.8 61.5 30.8 62.15 30.8 62.95 31.4 63.6 32.85 65.05 35.9 65.05 38.7 65.05 40.15 63.3 41.2 62.05 41.2 59.85
L 41.2 50.85 42.9 50.85 42.9 48.45 38.5 48.45 38.5 49.5
Q 37.05 48.25 35.25 48.25 33 48.25 31.45 49.95 29.9 51.6 29.9 54.05 29.9 56.5 31.4 58.1
M 35.85 50.7
Q 37.25 50.7 38.4 51.6
L 38.4 56.1
Q 37.2 57.2 35.85 57.2 34.5 57.2 33.65 56.4 32.8 55.55 32.8 54 32.8 52.45 33.65 51.55 34.5 50.7 35.85 50.7 Z"/>
</g>

<g id="Suite_Toys_300x250_html5_psd_Asset_Suite_Products_Toys_text_When_you_re_getting_global__0_Layer0_0_MEMBER_18_FILL">
<path fill="#FFFFFF" stroke="none" d="
M 44.15 43.2
L 45.95 43.2 45.95 57.5 44.15 57.5 44.15 59.85 50.45 59.85 50.45 57.5 48.75 57.5 48.75 40.85 44.15 40.85 44.15 43.2 Z"/>
</g>

<g id="Suite_Toys_300x250_html5_psd_Asset_Suite_Products_Toys_text_When_you_re_getting_global__0_Layer0_0_MEMBER_19_FILL">
<path fill="#FFFFFF" stroke="none" d="
M 62.5 58.25
Q 64.15 56.55 64.15 54.15 64.15 51.7 62.55 50 60.85 48.25 58.1 48.25 55.4 48.25 53.7 50.05 52.05 51.75 52.05 54.15 52.05 56.6 53.65 58.3 55.35 60.05 58.1 60.05 60.8 60.05 62.5 58.25
M 58.1 50.6
Q 59.5 50.6 60.35 51.6 61.25 52.6 61.25 54.15 61.25 55.7 60.35 56.7 59.5 57.7 58.1 57.7 56.7 57.7 55.85 56.7 54.95 55.7 54.95 54.15 54.95 52.6 55.85 51.6 56.7 50.6 58.1 50.6 Z"/>
</g>

<g id="Suite_Toys_300x250_html5_psd_Asset_Suite_Products_Toys_text_When_you_re_getting_global__0_Layer0_0_MEMBER_20_FILL">
<path fill="#FFFFFF" stroke="none" d="
M 65.2 43.2
L 66.9 43.2 66.9 59.9 68.85 59.9 69.45 58.75
Q 71 60.05 72.9 60.05 75.2 60.05 76.8 58.3 78.35 56.6 78.35 54.1 78.35 51.55 76.85 49.9 75.35 48.25 73.1 48.25 71.3 48.25 69.75 49.7
L 69.75 40.85 65.2 40.85 65.2 43.2
M 74.55 56.7
Q 73.7 57.6 72.45 57.6 71.05 57.6 69.75 56.75
L 69.75 51.85
Q 71.05 50.7 72.45 50.7 73.75 50.7 74.55 51.6 75.45 52.55 75.45 54.15 75.45 55.75 74.55 56.7 Z"/>
</g>

<g id="Suite_Toys_300x250_html5_psd_Asset_Suite_Products_Toys_text_When_you_re_getting_global__0_Layer0_0_MEMBER_21_FILL">
<path fill="#FFFFFF" stroke="none" d="
M 85.25 48.25
Q 83.1 48.25 81.8 49.2 80.7 50 80.7 51.15 80.7 51.85 81.15 52.25 81.55 52.65 82.2 52.65 82.85 52.65 83.3 52.25 83.75 51.85 83.75 51.2
L 83.65 50.6
Q 84.05 50.45 84.75 50.45 86.35 50.45 87 51.25 87.45 51.85 87.45 52.85
L 87.45 53.75
Q 86.15 53.45 84.55 53.45 82.5 53.45 81.25 54.35 80 55.3 80 56.85 80 58.4 81.1 59.25 82.1 60.05 83.65 60.05 85.85 60.05 87.5 58.6
L 87.5 59.85 91.9 59.85 91.9 57.5 90.2 57.5 90.2 52.65
Q 90.2 50.85 89.3 49.8 88.05 48.25 85.25 48.25
M 84.6 58
Q 82.9 58 82.9 56.6 82.9 54.95 85.1 54.95 86.35 54.95 87.45 55.2
L 87.45 57
Q 86.05 58 84.6 58 Z"/>
</g>

<g id="Suite_Toys_300x250_html5_psd_Asset_Suite_Products_Toys_text_When_you_re_getting_global__0_Layer0_0_MEMBER_22_FILL">
<path fill="#FFFFFF" stroke="none" d="
M 92.8 43.2
L 94.55 43.2 94.55 57.5 92.8 57.5 92.8 59.85 99.05 59.85 99.05 57.5 97.4 57.5 97.4 40.85 92.8 40.85 92.8 43.2 Z"/>
</g>

<g id="Suite_Toys_300x250_html5_psd_Asset_Suite_Products_Toys_text_When_you_re_getting_global__0_Layer0_0_MEMBER_23_FILL">
<path fill="#FFFFFF" stroke="none" d="
M 101.6 59.45
Q 102.25 60.05 103.1 60.05 103.95 60.05 104.6 59.45 105.25 58.8 105.25 57.9 105.25 57.05 104.6 56.4 103.95 55.75 103.1 55.75 102.25 55.75 101.6 56.4 100.95 57.05 100.95 57.9 100.95 58.8 101.6 59.45 Z"/>
</g>
</defs>

<g transform="matrix( 1, 0, 0, 1, 190,10) ">
<g transform="matrix( 0.75244140625, 0, 0, 0.7560882568359375, -13.8,0.55) ">
<use xlink:href="#Suite_Toys_300x250_html5_psd_Asset_Suite_Products_Toys_text_When_you_re_getting_global__0_Layer0_0_MEMBER_0_FILL"/>
</g>

<g transform="matrix( 0.75244140625, 0, 0, 0.7560882568359375, -13.8,0.55) ">
<use xlink:href="#Suite_Toys_300x250_html5_psd_Asset_Suite_Products_Toys_text_When_you_re_getting_global__0_Layer0_0_MEMBER_1_FILL"/>
</g>

<g transform="matrix( 0.75244140625, 0, 0, 0.7560882568359375, -13.8,0.55) ">
<use xlink:href="#Suite_Toys_300x250_html5_psd_Asset_Suite_Products_Toys_text_When_you_re_getting_global__0_Layer0_0_MEMBER_2_FILL"/>
</g>

<g transform="matrix( 0.75244140625, 0, 0, 0.7560882568359375, -13.8,0.55) ">
<use xlink:href="#Suite_Toys_300x250_html5_psd_Asset_Suite_Products_Toys_text_When_you_re_getting_global__0_Layer0_0_MEMBER_3_FILL"/>
</g>

<g transform="matrix( 0.75244140625, 0, 0, 0.7560882568359375, -13.8,0.55) ">
<use xlink:href="#Suite_Toys_300x250_html5_psd_Asset_Suite_Products_Toys_text_When_you_re_getting_global__0_Layer0_0_MEMBER_4_FILL"/>
</g>

<g transform="matrix( 0.75244140625, 0, 0, 0.7560882568359375, -13.8,0.55) ">
<use xlink:href="#Suite_Toys_300x250_html5_psd_Asset_Suite_Products_Toys_text_When_you_re_getting_global__0_Layer0_0_MEMBER_5_FILL"/>
</g>

<g transform="matrix( 0.75244140625, 0, 0, 0.7560882568359375, -13.8,0.55) ">
<use xlink:href="#Suite_Toys_300x250_html5_psd_Asset_Suite_Products_Toys_text_When_you_re_getting_global__0_Layer0_0_MEMBER_6_FILL"/>
</g>

<g transform="matrix( 0.75244140625, 0, 0, 0.7560882568359375, -13.8,0.55) ">
<use xlink:href="#Suite_Toys_300x250_html5_psd_Asset_Suite_Products_Toys_text_When_you_re_getting_global__0_Layer0_0_MEMBER_7_FILL"/>
</g>

<g transform="matrix( 0.75244140625, 0, 0, 0.7560882568359375, -13.8,0.55) ">
<use xlink:href="#Suite_Toys_300x250_html5_psd_Asset_Suite_Products_Toys_text_When_you_re_getting_global__0_Layer0_0_MEMBER_8_FILL"/>
</g>

<g transform="matrix( 0.75244140625, 0, 0, 0.7560882568359375, -13.8,0.55) ">
<use xlink:href="#Suite_Toys_300x250_html5_psd_Asset_Suite_Products_Toys_text_When_you_re_getting_global__0_Layer0_0_MEMBER_9_FILL"/>
</g>

<g transform="matrix( 0.75244140625, 0, 0, 0.7560882568359375, -13.8,0.55) ">
<use xlink:href="#Suite_Toys_300x250_html5_psd_Asset_Suite_Products_Toys_text_When_you_re_getting_global__0_Layer0_0_MEMBER_10_FILL"/>
</g>

<g transform="matrix( 0.75244140625, 0, 0, 0.7560882568359375, -13.8,0.55) ">
<use xlink:href="#Suite_Toys_300x250_html5_psd_Asset_Suite_Products_Toys_text_When_you_re_getting_global__0_Layer0_0_MEMBER_11_FILL"/>
</g>

<g transform="matrix( 0.75244140625, 0, 0, 0.7560882568359375, -13.8,0.55) ">
<use xlink:href="#Suite_Toys_300x250_html5_psd_Asset_Suite_Products_Toys_text_When_you_re_getting_global__0_Layer0_0_MEMBER_12_FILL"/>
</g>

<g transform="matrix( 0.75244140625, 0, 0, 0.7560882568359375, -13.8,0.55) ">
<use xlink:href="#Suite_Toys_300x250_html5_psd_Asset_Suite_Products_Toys_text_When_you_re_getting_global__0_Layer0_0_MEMBER_13_FILL"/>
</g>

<g transform="matrix( 0.75244140625, 0, 0, 0.7560882568359375, -13.8,0.55) ">
<use xlink:href="#Suite_Toys_300x250_html5_psd_Asset_Suite_Products_Toys_text_When_you_re_getting_global__0_Layer0_0_MEMBER_14_FILL"/>
</g>

<g transform="matrix( 0.75244140625, 0, 0, 0.7560882568359375, -13.8,0.55) ">
<use xlink:href="#Suite_Toys_300x250_html5_psd_Asset_Suite_Products_Toys_text_When_you_re_getting_global__0_Layer0_0_MEMBER_15_FILL"/>
</g>

<g transform="matrix( 0.75244140625, 0, 0, 0.7560882568359375, -13.8,0.55) ">
<use xlink:href="#Suite_Toys_300x250_html5_psd_Asset_Suite_Products_Toys_text_When_you_re_getting_global__0_Layer0_0_MEMBER_16_FILL"/>
</g>

<g transform="matrix( 0.75244140625, 0, 0, 0.7560882568359375, -13.8,0.55) ">
<use xlink:href="#Suite_Toys_300x250_html5_psd_Asset_Suite_Products_Toys_text_When_you_re_getting_global__0_Layer0_0_MEMBER_17_FILL"/>
</g>

<g transform="matrix( 0.75244140625, 0, 0, 0.7560882568359375, -13.8,0.55) ">
<use xlink:href="#Suite_Toys_300x250_html5_psd_Asset_Suite_Products_Toys_text_When_you_re_getting_global__0_Layer0_0_MEMBER_18_FILL"/>
</g>

<g transform="matrix( 0.75244140625, 0, 0, 0.7560882568359375, -13.8,0.55) ">
<use xlink:href="#Suite_Toys_300x250_html5_psd_Asset_Suite_Products_Toys_text_When_you_re_getting_global__0_Layer0_0_MEMBER_19_FILL"/>
</g>

<g transform="matrix( 0.75244140625, 0, 0, 0.7560882568359375, -13.8,0.55) ">
<use xlink:href="#Suite_Toys_300x250_html5_psd_Asset_Suite_Products_Toys_text_When_you_re_getting_global__0_Layer0_0_MEMBER_20_FILL"/>
</g>

<g transform="matrix( 0.75244140625, 0, 0, 0.7560882568359375, -13.8,0.55) ">
<use xlink:href="#Suite_Toys_300x250_html5_psd_Asset_Suite_Products_Toys_text_When_you_re_getting_global__0_Layer0_0_MEMBER_21_FILL"/>
</g>

<g transform="matrix( 0.75244140625, 0, 0, 0.7560882568359375, -13.8,0.55) ">
<use xlink:href="#Suite_Toys_300x250_html5_psd_Asset_Suite_Products_Toys_text_When_you_re_getting_global__0_Layer0_0_MEMBER_22_FILL"/>
</g>

<g transform="matrix( 0.75244140625, 0, 0, 0.7560882568359375, -13.8,0.55) ">
<use xlink:href="#Suite_Toys_300x250_html5_psd_Asset_Suite_Products_Toys_text_When_you_re_getting_global__0_Layer0_0_MEMBER_23_FILL"/>
</g>
</g>
</svg>
