
<svg xmlns="http://www.w3.org/2000/svg" version="1.1" xmlns:xlink="http://www.w3.org/1999/xlink" preserveAspectRatio="none" x="0px" y="0px" width="320px" height="50px" viewBox="0 0 320 50">
<defs>
<g id="Suite_Toys_320x50_html5_psd_Asset_Suite_Products_Toys_Learning_to_use_your_feet_is_no_little_feat__0_Layer0_0_MEMBER_0_FILL">
<path fill="#FFFFFF" stroke="none" d="
M 53.25 6.3
L 53.25 4.55 48.4 4.55 48.4 6.3 49.75 6.3 49.75 14.3 48.4 14.3 48.4 16.1 56.85 16.1 56.85 12.7 54.9 12.7 54.9 14.35 51.75 14.35 51.75 6.3 53.25 6.3 Z"/>
</g>

<g id="Suite_Toys_320x50_html5_psd_Asset_Suite_Products_Toys_Learning_to_use_your_feet_is_no_little_feat__0_Layer0_0_MEMBER_1_FILL">
<path fill="#FFFFFF" stroke="none" d="
M 65.25 13.8
Q 63.8 14.6 62.45 14.6 60.25 14.6 59.9 12.9
L 65.45 12.9 65.55 11.95
Q 65.55 10.35 64.6 9.35 63.55 8.25 61.8 8.25 60.1 8.25 58.95 9.45 57.9 10.6 57.9 12.25 57.9 14.05 59.1 15.15 60.25 16.25 62.15 16.25 63.8 16.25 65.05 15.55
L 65.25 13.8
M 63.1 10.3
Q 63.6 10.75 63.65 11.55
L 59.9 11.55
Q 60.2 9.8 61.8 9.8 62.6 9.8 63.1 10.3 Z"/>
</g>

<g id="Suite_Toys_320x50_html5_psd_Asset_Suite_Products_Toys_Learning_to_use_your_feet_is_no_little_feat__0_Layer0_0_MEMBER_2_FILL">
<path fill="#FFFFFF" stroke="none" d="
M 71.6 11.35
L 71.6 11.95
Q 70.7 11.75 69.6 11.75 68.25 11.75 67.4 12.4 66.55 13 66.55 14.05 66.55 15.1 67.3 15.7 68 16.25 69.05 16.25 70.5 16.25 71.6 15.25
L 71.6 16.1 74.6 16.1 74.6 14.5 73.45 14.5 73.45 11.2
Q 73.45 10.05 72.85 9.3 72.05 8.25 70.1 8.25 68.6 8.25 67.75 8.85 67 9.4 67 10.2 67 11.25 68.05 11.25 68.45 11.25 68.8 10.95 69.1 10.65 69.1 10.25
L 69 9.85 69.75 9.75
Q 70.8 9.75 71.3 10.3 71.6 10.8 71.6 11.35
M 68.5 13.9
Q 68.5 12.75 70 12.75 70.7 12.75 71.6 12.95
L 71.6 14.15
Q 70.65 14.85 69.65 14.85 68.5 14.85 68.5 13.9 Z"/>
</g>

<g id="Suite_Toys_320x50_html5_psd_Asset_Suite_Products_Toys_Learning_to_use_your_feet_is_no_little_feat__0_Layer0_0_MEMBER_3_FILL">
<path fill="#FFFFFF" stroke="none" d="
M 81.9 10.35
Q 82.25 10 82.25 9.5 82.25 8.25 80.85 8.25 79.6 8.25 78.4 10.15
L 78.4 8.4 75.4 8.4 75.4 10 76.55 10 76.55 14.5 75.4 14.5 75.4 16.1 79.8 16.1 79.8 14.5 78.45 14.5 78.45 11.5
Q 79.05 10.3 80 10.05 80.3 10.7 81.1 10.7 81.6 10.7 81.9 10.35 Z"/>
</g>

<g id="Suite_Toys_320x50_html5_psd_Asset_Suite_Products_Toys_Learning_to_use_your_feet_is_no_little_feat__0_Layer0_0_MEMBER_4_FILL">
<path fill="#FFFFFF" stroke="none" d="
M 86.05 9.6
L 86.05 8.4 83.05 8.4 83.05 10 84.2 10 84.2 14.5 83.05 14.5 83.05 16.1 87.15 16.1 87.15 14.5 86.1 14.5 86.1 10.9
Q 87.25 10 88.1 10 88.75 10 89.05 10.5 89.2 10.8 89.2 11.3
L 89.2 14.5 88.15 14.5 88.15 16.1 92.25 16.1 92.25 14.5 91.1 14.5 91.1 10.8
Q 91.1 9.8 90.7 9.25 90.1 8.25 88.75 8.25 87.5 8.25 86.05 9.6 Z"/>
</g>

<g id="Suite_Toys_320x50_html5_psd_Asset_Suite_Products_Toys_Learning_to_use_your_feet_is_no_little_feat__0_Layer0_0_MEMBER_5_FILL">
<path fill="#FFFFFF" stroke="none" d="
M 93.1 10
L 94.3 10 94.3 14.5 93.1 14.5 93.1 16.1 97.35 16.1 97.35 14.5 96.2 14.5 96.2 8.4 93.1 8.4 93.1 10
M 95.95 5.05
Q 95.6 4.7 95.1 4.7 94.55 4.7 94.2 5.05 93.8 5.45 93.8 5.95 93.8 6.5 94.15 6.85 94.55 7.2 95.05 7.2 95.6 7.2 95.95 6.85 96.35 6.45 96.35 5.95 96.35 5.45 95.95 5.05 Z"/>
</g>

<g id="Suite_Toys_320x50_html5_psd_Asset_Suite_Products_Toys_Learning_to_use_your_feet_is_no_little_feat__0_Layer0_0_MEMBER_6_FILL">
<path fill="#FFFFFF" stroke="none" d="
M 101.45 9.6
L 101.45 8.4 98.45 8.4 98.45 10 99.6 10 99.6 14.5 98.45 14.5 98.45 16.1 102.55 16.1 102.55 14.5 101.5 14.5 101.5 10.9
Q 102.65 10 103.5 10 104.25 10 104.45 10.5 104.6 10.8 104.6 11.3
L 104.6 14.5 103.55 14.5 103.55 16.1 107.65 16.1 107.65 14.5 106.55 14.5 106.55 10.8
Q 106.55 9.85 106.1 9.25 105.5 8.25 104.15 8.25 102.9 8.25 101.45 9.6 Z"/>
</g>

<g id="Suite_Toys_320x50_html5_psd_Asset_Suite_Products_Toys_Learning_to_use_your_feet_is_no_little_feat__0_Layer0_0_MEMBER_7_FILL">
<path fill="#FFFFFF" stroke="none" d="
M 114.25 9.1
Q 113.2 8.25 112.05 8.25 110.5 8.25 109.5 9.4 108.45 10.5 108.45 12.15 108.45 13.85 109.45 14.9 110.45 15.95 111.95 15.95 113.25 15.95 114.15 14.95
L 114.15 16.05
Q 114.15 17 113.8 17.4 113.3 18.05 112.25 18.05 111.7 18.05 111.1 17.85
L 111.15 17.55
Q 111.15 17.15 110.85 16.85 110.5 16.55 110.05 16.55 109.6 16.55 109.3 16.9 109 17.25 109 17.65 109 18.2 109.45 18.65 110.4 19.6 112.45 19.6 114.35 19.6 115.35 18.45 116.05 17.6 116.05 16.1
L 116.05 10 117.2 10 117.2 8.4 114.25 8.4 114.25 9.1
M 112.45 9.9
Q 113.4 9.9 114.15 10.5
L 114.15 13.55
Q 113.3 14.3 112.45 14.3 111.55 14.3 111 13.75 110.4 13.2 110.4 12.15 110.4 11.1 111 10.5 111.55 9.9 112.45 9.9 Z"/>
</g>

<g id="Suite_Toys_320x50_html5_psd_Asset_Suite_Products_Toys_Learning_to_use_your_feet_is_no_little_feat__0_Layer0_0_MEMBER_8_FILL">
<path fill="#FFFFFF" stroke="none" d="
M 123.15 6.8
L 123.15 8.4 121.65 8.4 121.65 10 123.15 10 123.15 13.95
Q 123.15 14.6 123.4 15.2 124 16.25 125.5 16.25 126.4 16.25 127.3 15.8
L 127.5 14.1
Q 126.6 14.55 125.95 14.55 125.4 14.55 125.15 14.15 125.05 14 125.05 13.6
L 125.05 10 127.4 10 127.4 8.4 125.05 8.4 125.05 5.95 123.15 6.8 Z"/>
</g>

<g id="Suite_Toys_320x50_html5_psd_Asset_Suite_Products_Toys_Learning_to_use_your_feet_is_no_little_feat__0_Layer0_0_MEMBER_9_FILL">
<path fill="#FFFFFF" stroke="none" d="
M 135.5 9.45
Q 134.35 8.25 132.5 8.25 130.7 8.25 129.5 9.45 128.4 10.6 128.4 12.25 128.4 13.95 129.5 15.05 130.65 16.25 132.5 16.25 134.3 16.25 135.5 15.05 136.6 13.9 136.6 12.25 136.6 10.6 135.5 9.45
M 134 10.55
Q 134.6 11.2 134.6 12.25 134.6 13.3 134 14 133.45 14.65 132.5 14.65 131.55 14.65 130.95 14 130.35 13.3 130.35 12.25 130.35 11.2 130.95 10.55 131.55 9.85 132.5 9.85 133.45 9.85 134 10.55 Z"/>
</g>

<g id="Suite_Toys_320x50_html5_psd_Asset_Suite_Products_Toys_Learning_to_use_your_feet_is_no_little_feat__0_Layer0_0_MEMBER_10_FILL">
<path fill="#FFFFFF" stroke="none" d="
M 146.3 10
L 147.5 10 147.5 13.6
Q 146.35 14.5 145.5 14.5 144.9 14.5 144.55 14 144.4 13.65 144.4 13.2
L 144.4 8.4 141.35 8.4 141.35 10 142.5 10 142.5 13.65
Q 142.5 14.65 142.85 15.2 143.5 16.25 144.85 16.25 146.15 16.25 147.55 14.85
L 147.55 16.1 150.55 16.1 150.55 14.5 149.4 14.5 149.4 8.4 146.3 8.4 146.3 10 Z"/>
</g>

<g id="Suite_Toys_320x50_html5_psd_Asset_Suite_Products_Toys_Learning_to_use_your_feet_is_no_little_feat__0_Layer0_0_MEMBER_11_FILL">
<path fill="#FFFFFF" stroke="none" d="
M 156.15 10.2
Q 156.15 10.6 156.45 10.9 156.75 11.15 157.2 11.15 157.6 11.15 157.9 10.85 158.15 10.55 158.15 10.1 158.15 9.55 157.7 9.1 156.85 8.25 155.15 8.25 153.6 8.25 152.75 9.05 152 9.7 152 10.7 152 11.65 152.7 12.15 153.35 12.6 155 13.05 156.5 13.5 156.5 14 156.5 14.85 155.1 14.85 154.65 14.85 153.75 14.6
L 153.75 14.25
Q 153.75 13.25 152.75 13.25 152.3 13.25 152 13.55 151.7 13.85 151.7 14.3 151.7 14.85 152.15 15.3 153 16.25 155.1 16.25 156.5 16.25 157.4 15.6 158.35 14.95 158.35 13.75 158.35 12.8 157.6 12.3 157 11.85 155.45 11.45 153.8 10.95 153.8 10.45 153.8 9.65 155.1 9.65 155.5 9.65 156.2 9.85
L 156.15 10.2 Z"/>
</g>

<g id="Suite_Toys_320x50_html5_psd_Asset_Suite_Products_Toys_Learning_to_use_your_feet_is_no_little_feat__0_Layer0_0_MEMBER_12_FILL">
<path fill="#FFFFFF" stroke="none" d="
M 166.95 13.8
Q 165.5 14.6 164.15 14.6 161.95 14.6 161.6 12.9
L 167.15 12.9 167.25 11.95
Q 167.25 10.35 166.3 9.35 165.25 8.25 163.5 8.25 161.8 8.25 160.65 9.45 159.6 10.6 159.6 12.25 159.6 14.05 160.8 15.15 161.95 16.25 163.85 16.25 165.5 16.25 166.75 15.55
L 166.95 13.8
M 163.5 9.8
Q 165.25 9.8 165.35 11.55
L 161.6 11.55
Q 161.9 9.8 163.5 9.8 Z"/>
</g>

<g id="Suite_Toys_320x50_html5_psd_Asset_Suite_Products_Toys_Learning_to_use_your_feet_is_no_little_feat__0_Layer0_0_MEMBER_13_FILL">
<path fill="#FFFFFF" stroke="none" d="
M 183.25 8.5
L 183.25 6.45 178.3 6.45 178.3 8.4 179.8 8.4 177.55 13.45 175.35 8.4 176.75 8.4 176.75 6.45 171.75 6.45 171.75 8.5 172.95 8.5 176.4 15.6 175.65 17.15
Q 175.35 17.75 175.2 17.85 174.9 18.35 174.45 18.45 174.15 17.7 173.4 17.7 172.9 17.7 172.55 18.05 172.2 18.35 172.2 18.95 172.2 19.55 172.75 20 173.35 20.45 174.3 20.45 175.75 20.45 176.85 19.2
L 177.6 18.05 182.1 8.5 183.25 8.5 Z"/>
</g>

<g id="Suite_Toys_320x50_html5_psd_Asset_Suite_Products_Toys_Learning_to_use_your_feet_is_no_little_feat__0_Layer0_0_MEMBER_14_FILL">
<path fill="#FFFFFF" stroke="none" d="
M 194.05 11.3
Q 194.05 9.2 192.7 7.8 191.25 6.3 188.9 6.3 186.65 6.3 185.2 7.8 183.8 9.25 183.8 11.3 183.8 13.35 185.15 14.75 186.6 16.25 188.9 16.25 191.2 16.25 192.65 14.75 194.05 13.35 194.05 11.3
M 190.85 9.15
Q 191.6 9.95 191.6 11.3 191.6 12.6 190.85 13.45 190.1 14.25 188.9 14.25 187.75 14.25 187 13.45 186.25 12.6 186.25 11.3 186.25 9.95 187 9.15 187.75 8.3 188.9 8.3 190.1 8.3 190.85 9.15 Z"/>
</g>

<g id="Suite_Toys_320x50_html5_psd_Asset_Suite_Products_Toys_Learning_to_use_your_feet_is_no_little_feat__0_Layer0_0_MEMBER_15_FILL">
<path fill="#FFFFFF" stroke="none" d="
M 202.7 8.5
L 202.7 12.95
Q 201.3 14.1 200.2 14.1 199.4 14.1 199 13.45 198.8 12.95 198.8 12.45
L 198.8 6.45 195 6.45 195 8.5 196.4 8.5 196.4 13.05
Q 196.4 14.15 196.9 15 197.7 16.25 199.4 16.25 201.05 16.25 202.75 14.55
L 202.75 16.1 206.5 16.1 206.5 14.1 205.1 14.1 205.1 6.45 201.2 6.45 201.2 8.5 202.7 8.5 Z"/>
</g>

<g id="Suite_Toys_320x50_html5_psd_Asset_Suite_Products_Toys_Learning_to_use_your_feet_is_no_little_feat__0_Layer0_0_MEMBER_16_FILL">
<path fill="#FFFFFF" stroke="none" d="
M 215.9 6.75
Q 215.4 6.3 214.55 6.3 212.95 6.3 211.5 8.65
L 211.5 6.45 207.75 6.45 207.75 8.5 209.2 8.5 209.2 14.1 207.75 14.1 207.75 16.1 213.25 16.1 213.25 14.1 211.6 14.1 211.6 10.35
Q 212.35 8.9 213.5 8.5 213.9 9.35 214.9 9.35 215.5 9.35 215.95 8.9 216.35 8.5 216.35 7.85 216.35 7.2 215.9 6.75 Z"/>
</g>

<g id="Suite_Toys_320x50_html5_psd_Asset_Suite_Products_Toys_Learning_to_use_your_feet_is_no_little_feat__0_Layer0_0_MEMBER_17_FILL">
<path fill="#FFFFFF" stroke="none" d="
M 228.5 2.8
Q 229.05 2.8 229.4 2.45 229.8 2.05 229.8 1.45 229.8 0.75 229.2 0.25 228.6 -0.2 227.65 -0.2 226.05 -0.2 225 0.85 223.8 2.05 223.8 4.6
L 223.8 6.45 222.15 6.45 222.15 8.5 223.8 8.5 223.8 14.1 222.35 14.1 222.35 16.1 228.05 16.1 228.05 14.1 226.15 14.1 226.15 8.5 228.65 8.5 228.65 6.45 226.15 6.45 226.15 4.25
Q 226.15 2.9 226.6 2.3 226.75 2.1 227.1 1.9 227.55 2.8 228.5 2.8 Z"/>
</g>

<g id="Suite_Toys_320x50_html5_psd_Asset_Suite_Products_Toys_Learning_to_use_your_feet_is_no_little_feat__0_Layer0_0_MEMBER_18_FILL">
<path fill="#FFFFFF" stroke="none" d="
M 237.9 7.65
Q 236.65 6.3 234.4 6.3 232.25 6.3 230.85 7.75 229.55 9.2 229.55 11.3 229.55 13.55 231 14.9 232.5 16.25 234.85 16.25 237.1 16.25 238.5 15.4
L 238.7 13.25
Q 236.8 14.25 235.2 14.25 232.5 14.25 232.05 12.1
L 239 12.1 239.1 10.9
Q 239.1 8.9 237.9 7.65
M 232.9 8.7
Q 233.55 8.2 234.4 8.2 235.45 8.2 236.05 8.8 236.65 9.4 236.7 10.4
L 232 10.4
Q 232.2 9.3 232.9 8.7 Z"/>
</g>

<g id="Suite_Toys_320x50_html5_psd_Asset_Suite_Products_Toys_Learning_to_use_your_feet_is_no_little_feat__0_Layer0_0_MEMBER_19_FILL">
<path fill="#FFFFFF" stroke="none" d="
M 243.05 12.1
L 249.95 12.1
Q 250.1 11.6 250.1 10.9 250.1 8.9 248.9 7.65 247.65 6.3 245.4 6.3 243.25 6.3 241.85 7.75 240.5 9.2 240.5 11.3 240.5 13.55 242 14.9 243.45 16.25 245.85 16.25 248.1 16.25 249.5 15.4
L 249.7 13.25
Q 247.8 14.25 246.2 14.25 243.5 14.25 243.05 12.1
M 243 10.4
Q 243.35 8.2 245.4 8.2 246.45 8.2 247.05 8.8 247.65 9.4 247.7 10.4
L 243 10.4 Z"/>
</g>

<g id="Suite_Toys_320x50_html5_psd_Asset_Suite_Products_Toys_Learning_to_use_your_feet_is_no_little_feat__0_Layer0_0_MEMBER_20_FILL">
<path fill="#FFFFFF" stroke="none" d="
M 255.2 6.45
L 255.2 3.4 252.85 4.45 252.85 6.45 250.95 6.45 250.95 8.5 252.85 8.5 252.85 13.45
Q 252.85 14.35 253.15 14.95 253.85 16.25 255.75 16.25 257.05 16.25 258.05 15.7
L 258.25 13.65
Q 257.15 14.15 256.35 14.15 255.65 14.15 255.35 13.65 255.2 13.45 255.2 12.95
L 255.2 8.5 258.15 8.5 258.15 6.45 255.2 6.45 Z"/>
</g>

<g id="Suite_Toys_320x50_html5_psd_Asset_Suite_Products_Toys_Learning_to_use_your_feet_is_no_little_feat__0_Layer0_0_MEMBER_21_FILL">
<path fill="#FFFFFF" stroke="none" d="
M 91.65 33
L 92.8 33 92.8 37.5 91.65 37.5 91.65 39.1 95.85 39.1 95.85 37.5 94.7 37.5 94.7 31.4 91.65 31.4 91.65 33
M 93.55 30.2
Q 94.1 30.2 94.45 29.85 94.85 29.45 94.85 28.95 94.85 28.4 94.5 28.05 94.1 27.65 93.6 27.65 93.1 27.65 92.7 28.05 92.3 28.45 92.3 28.95 92.3 29.5 92.65 29.85 93.05 30.2 93.55 30.2 Z"/>
</g>

<g id="Suite_Toys_320x50_html5_psd_Asset_Suite_Products_Toys_Learning_to_use_your_feet_is_no_little_feat__0_Layer0_0_MEMBER_22_FILL">
<path fill="#FFFFFF" stroke="none" d="
M 99.1 33.45
Q 99.1 32.65 100.4 32.65 101.05 32.65 101.5 32.85
L 101.45 33.2
Q 101.45 33.6 101.75 33.9 102.05 34.15 102.5 34.15 103.45 34.15 103.45 33.1 103.45 32.55 103 32.1 102.1 31.2 100.45 31.2 98.9 31.2 98.05 32 97.3 32.65 97.3 33.65 97.3 34.6 98 35.15 98.65 35.6 100.3 36.05 101.8 36.5 101.8 37 101.8 37.8 100.4 37.8 99.65 37.8 99.05 37.55
L 99.05 37.25
Q 99.05 36.25 98.05 36.25 97.6 36.25 97.3 36.55 97 36.85 97 37.25 97 37.85 97.45 38.3 98.4 39.25 100.4 39.25 101.8 39.25 102.7 38.6 103.65 37.95 103.65 36.75 103.65 35.8 102.9 35.25 102.3 34.8 100.75 34.4 99.1 34 99.1 33.45 Z"/>
</g>

<g id="Suite_Toys_320x50_html5_psd_Asset_Suite_Products_Toys_Learning_to_use_your_feet_is_no_little_feat__0_Layer0_0_MEMBER_23_FILL">
<path fill="#FFFFFF" stroke="none" d="
M 111.75 32.6
L 111.75 31.4 108.75 31.4 108.75 33 109.9 33 109.9 37.5 108.75 37.5 108.75 39.1 112.9 39.1 112.9 37.5 111.85 37.5 111.85 33.9
Q 112.85 33 113.8 33 114.55 33 114.75 33.5 114.9 33.8 114.9 34.3
L 114.9 37.5 113.85 37.5 113.85 39.1 118 39.1 118 37.5 116.85 37.5 116.85 33.8
Q 116.85 32.9 116.45 32.25 115.85 31.25 114.45 31.25 113.2 31.25 111.75 32.6 Z"/>
</g>

<g id="Suite_Toys_320x50_html5_psd_Asset_Suite_Products_Toys_Learning_to_use_your_feet_is_no_little_feat__0_Layer0_0_MEMBER_24_FILL">
<path fill="#FFFFFF" stroke="none" d="
M 125.85 32.45
Q 124.7 31.25 122.85 31.25 121 31.25 119.85 32.45 118.75 33.6 118.75 35.25 118.75 36.9 119.85 38.05 121 39.2 122.85 39.2 124.65 39.2 125.85 38 126.95 36.9 126.95 35.25 126.95 33.6 125.85 32.45
M 124.35 36.95
Q 123.8 37.6 122.85 37.6 121.9 37.6 121.3 36.95 120.7 36.3 120.7 35.25 120.7 34.2 121.3 33.55 121.9 32.85 122.85 32.85 123.8 32.85 124.35 33.55 124.95 34.2 124.95 35.25 124.95 36.3 124.35 36.95 Z"/>
</g>

<g id="Suite_Toys_320x50_html5_psd_Asset_Suite_Products_Toys_Learning_to_use_your_feet_is_no_little_feat__0_Layer0_0_MEMBER_25_FILL">
<path fill="#FFFFFF" stroke="none" d="
M 131.85 27.85
L 133.05 27.85 133.05 37.5 131.85 37.5 131.85 39.1 136.1 39.1 136.1 37.5 134.95 37.5 134.95 26.2 131.85 26.2 131.85 27.85 Z"/>
</g>

<g id="Suite_Toys_320x50_html5_psd_Asset_Suite_Products_Toys_Learning_to_use_your_feet_is_no_little_feat__0_Layer0_0_MEMBER_26_FILL">
<path fill="#FFFFFF" stroke="none" d="
M 137.15 33
L 138.3 33 138.3 37.5 137.15 37.5 137.15 39.1 141.4 39.1 141.4 37.5 140.25 37.5 140.25 31.4 137.15 31.4 137.15 33
M 139.1 30.2
Q 139.6 30.2 140 29.85 140.4 29.45 140.4 28.95 140.4 28.45 140 28.05 139.65 27.65 139.1 27.65 138.6 27.65 138.2 28.05 137.8 28.45 137.8 28.95 137.8 29.45 138.2 29.85 138.55 30.2 139.1 30.2 Z"/>
</g>

<g id="Suite_Toys_320x50_html5_psd_Asset_Suite_Products_Toys_Learning_to_use_your_feet_is_no_little_feat__0_Layer0_0_MEMBER_27_FILL">
<path fill="#FFFFFF" stroke="none" d="
M 145.5 28.95
L 143.6 29.75 143.6 31.4 142.1 31.4 142.1 33 143.6 33 143.6 36.95
Q 143.6 37.65 143.85 38.15 144.4 39.2 145.95 39.2 147 39.2 147.8 38.75
L 147.95 37.1
Q 147.05 37.5 146.4 37.5 145.8 37.5 145.6 37.15
L 145.5 36.6 145.5 33 147.85 33 147.85 31.4 145.5 31.4 145.5 28.95 Z"/>
</g>

<g id="Suite_Toys_320x50_html5_psd_Asset_Suite_Products_Toys_Learning_to_use_your_feet_is_no_little_feat__0_Layer0_0_MEMBER_28_FILL">
<path fill="#FFFFFF" stroke="none" d="
M 152 31.4
L 152 28.95 150.1 29.75 150.1 31.4 148.6 31.4 148.6 33 150.1 33 150.1 36.95
Q 150.1 37.8 150.35 38.15 150.9 39.2 152.4 39.2 153.5 39.2 154.25 38.75
L 154.4 37.1
Q 153.5 37.5 152.9 37.5 152.3 37.5 152.1 37.15 152 37 152 36.6
L 152 33 154.3 33 154.3 31.4 152 31.4 Z"/>
</g>

<g id="Suite_Toys_320x50_html5_psd_Asset_Suite_Products_Toys_Learning_to_use_your_feet_is_no_little_feat__0_Layer0_0_MEMBER_29_FILL">
<path fill="#FFFFFF" stroke="none" d="
M 155.2 27.85
L 156.4 27.85 156.4 37.5 155.2 37.5 155.2 39.1 159.45 39.1 159.45 37.5 158.3 37.5 158.3 26.2 155.2 26.2 155.2 27.85 Z"/>
</g>

<g id="Suite_Toys_320x50_html5_psd_Asset_Suite_Products_Toys_Learning_to_use_your_feet_is_no_little_feat__0_Layer0_0_MEMBER_30_FILL">
<path fill="#FFFFFF" stroke="none" d="
M 162.55 35.9
L 168.1 35.9 168.15 34.95
Q 168.15 33.35 167.2 32.35 166.2 31.25 164.45 31.25 162.7 31.25 161.6 32.45 160.5 33.55 160.5 35.25 160.5 37.05 161.7 38.15 162.9 39.2 164.8 39.2 166.6 39.2 167.7 38.5
L 167.85 36.8
Q 166.4 37.6 165.05 37.6 162.9 37.6 162.55 35.9
M 162.5 34.55
Q 162.8 32.8 164.4 32.8 166.15 32.8 166.25 34.55
L 162.5 34.55 Z"/>
</g>

<g id="Suite_Toys_320x50_html5_psd_Asset_Suite_Products_Toys_Learning_to_use_your_feet_is_no_little_feat__0_Layer0_0_MEMBER_31_FILL">
<path fill="#FFFFFF" stroke="none" d="
M 180.9 24.45
Q 180.9 23.7 180.3 23.25 179.7 22.8 178.75 22.8 177.2 22.8 176.1 23.8 174.9 25 174.9 27.6
L 174.9 29.45 173.25 29.45 173.25 31.45 174.9 31.45 174.9 37.1 173.45 37.1 173.45 39.1 179.15 39.1 179.15 37.1 177.25 37.1 177.25 31.45 179.75 31.45 179.75 29.45 177.25 29.45 177.25 27.25
Q 177.25 25.9 177.7 25.3 177.8 25.1 178.2 24.9 178.75 25.8 179.6 25.8 180.15 25.8 180.5 25.45 180.9 25.05 180.9 24.45 Z"/>
</g>

<g id="Suite_Toys_320x50_html5_psd_Asset_Suite_Products_Toys_Learning_to_use_your_feet_is_no_little_feat__0_Layer0_0_MEMBER_32_FILL">
<path fill="#FFFFFF" stroke="none" d="
M 181.95 30.75
Q 180.65 32.2 180.65 34.3 180.65 36.55 182.1 37.9 183.6 39.25 185.95 39.25 188.05 39.25 189.6 38.4
L 189.8 36.2
Q 188 37.25 186.3 37.25 183.6 37.25 183.15 35.1
L 190.1 35.1 190.2 33.9
Q 190.2 31.9 189 30.65 187.75 29.3 185.5 29.3 183.35 29.3 181.95 30.75
M 183.1 33.4
Q 183.55 31.2 185.5 31.2 186.55 31.2 187.15 31.8 187.75 32.4 187.8 33.4
L 183.1 33.4 Z"/>
</g>

<g id="Suite_Toys_320x50_html5_psd_Asset_Suite_Products_Toys_Learning_to_use_your_feet_is_no_little_feat__0_Layer0_0_MEMBER_33_FILL">
<path fill="#FFFFFF" stroke="none" d="
M 195.85 29.3
Q 194.05 29.3 193 30.05 192.05 30.75 192.05 31.7 192.05 32.3 192.4 32.65 192.75 33 193.3 33 193.85 33 194.25 32.65 194.6 32.3 194.6 31.75
L 194.55 31.3
Q 194.95 31.1 195.45 31.1 196.8 31.1 197.35 31.85 197.75 32.35 197.75 33.15
L 197.75 33.9
Q 196.4 33.65 195.3 33.65 193.55 33.65 192.5 34.45 191.45 35.2 191.45 36.55 191.45 37.85 192.4 38.6 193.25 39.25 194.55 39.25 196.3 39.25 197.8 38.05
L 197.8 39.1 201.5 39.1 201.5 37.1 200.05 37.1 200.05 33
Q 200.05 31.55 199.3 30.55 198.3 29.3 195.85 29.3
M 193.9 36.35
Q 193.9 34.95 195.75 34.95 197 34.95 197.75 35.15
L 197.75 36.65
Q 196.6 37.5 195.3 37.5 193.9 37.5 193.9 36.35 Z"/>
</g>

<g id="Suite_Toys_320x50_html5_psd_Asset_Suite_Products_Toys_Learning_to_use_your_feet_is_no_little_feat__0_Layer0_0_MEMBER_34_FILL">
<path fill="#FFFFFF" stroke="none" d="
M 206.3 29.45
L 206.3 26.4 203.9 27.45 203.9 29.45 202.05 29.45 202.05 31.45 203.9 31.45 203.9 36.4
Q 203.9 37.4 204.25 37.95 204.95 39.25 206.85 39.25 207.95 39.25 209.15 38.7
L 209.35 36.6
Q 208.25 37.15 207.45 37.15 206.7 37.15 206.45 36.65 206.3 36.35 206.3 35.95
L 206.3 31.45 209.2 31.45 209.2 29.45 206.3 29.45 Z"/>
</g>

<g id="Suite_Toys_320x50_html5_psd_Asset_Suite_Products_Toys_Learning_to_use_your_feet_is_no_little_feat__0_Layer0_0_MEMBER_35_FILL">
<path fill="#FFFFFF" stroke="none" d="
M 211.5 38.75
Q 212.05 39.25 212.75 39.25 213.5 39.25 214.05 38.75 214.6 38.2 214.6 37.45 214.6 36.7 214.05 36.2 213.5 35.65 212.75 35.65 212.05 35.65 211.5 36.2 210.95 36.7 210.95 37.45 210.95 38.2 211.5 38.75 Z"/>
</g>
</defs>

<g transform="matrix( 1, 0, 0, 1, 8,20) ">
<g transform="matrix( 0.55572509765625, 0, 0, 0.55841064453125, -26.55,0.45) ">
<use xlink:href="#Suite_Toys_320x50_html5_psd_Asset_Suite_Products_Toys_Learning_to_use_your_feet_is_no_little_feat__0_Layer0_0_MEMBER_0_FILL"/>
</g>

<g transform="matrix( 0.55572509765625, 0, 0, 0.55841064453125, -26.55,0.45) ">
<use xlink:href="#Suite_Toys_320x50_html5_psd_Asset_Suite_Products_Toys_Learning_to_use_your_feet_is_no_little_feat__0_Layer0_0_MEMBER_1_FILL"/>
</g>

<g transform="matrix( 0.55572509765625, 0, 0, 0.55841064453125, -26.55,0.45) ">
<use xlink:href="#Suite_Toys_320x50_html5_psd_Asset_Suite_Products_Toys_Learning_to_use_your_feet_is_no_little_feat__0_Layer0_0_MEMBER_2_FILL"/>
</g>

<g transform="matrix( 0.55572509765625, 0, 0, 0.55841064453125, -26.55,0.45) ">
<use xlink:href="#Suite_Toys_320x50_html5_psd_Asset_Suite_Products_Toys_Learning_to_use_your_feet_is_no_little_feat__0_Layer0_0_MEMBER_3_FILL"/>
</g>

<g transform="matrix( 0.55572509765625, 0, 0, 0.55841064453125, -26.55,0.45) ">
<use xlink:href="#Suite_Toys_320x50_html5_psd_Asset_Suite_Products_Toys_Learning_to_use_your_feet_is_no_little_feat__0_Layer0_0_MEMBER_4_FILL"/>
</g>

<g transform="matrix( 0.55572509765625, 0, 0, 0.55841064453125, -26.55,0.45) ">
<use xlink:href="#Suite_Toys_320x50_html5_psd_Asset_Suite_Products_Toys_Learning_to_use_your_feet_is_no_little_feat__0_Layer0_0_MEMBER_5_FILL"/>
</g>

<g transform="matrix( 0.55572509765625, 0, 0, 0.55841064453125, -26.55,0.45) ">
<use xlink:href="#Suite_Toys_320x50_html5_psd_Asset_Suite_Products_Toys_Learning_to_use_your_feet_is_no_little_feat__0_Layer0_0_MEMBER_6_FILL"/>
</g>

<g transform="matrix( 0.55572509765625, 0, 0, 0.55841064453125, -26.55,0.45) ">
<use xlink:href="#Suite_Toys_320x50_html5_psd_Asset_Suite_Products_Toys_Learning_to_use_your_feet_is_no_little_feat__0_Layer0_0_MEMBER_7_FILL"/>
</g>

<g transform="matrix( 0.55572509765625, 0, 0, 0.55841064453125, -26.55,0.45) ">
<use xlink:href="#Suite_Toys_320x50_html5_psd_Asset_Suite_Products_Toys_Learning_to_use_your_feet_is_no_little_feat__0_Layer0_0_MEMBER_8_FILL"/>
</g>

<g transform="matrix( 0.55572509765625, 0, 0, 0.55841064453125, -26.55,0.45) ">
<use xlink:href="#Suite_Toys_320x50_html5_psd_Asset_Suite_Products_Toys_Learning_to_use_your_feet_is_no_little_feat__0_Layer0_0_MEMBER_9_FILL"/>
</g>

<g transform="matrix( 0.55572509765625, 0, 0, 0.55841064453125, -26.55,0.45) ">
<use xlink:href="#Suite_Toys_320x50_html5_psd_Asset_Suite_Products_Toys_Learning_to_use_your_feet_is_no_little_feat__0_Layer0_0_MEMBER_10_FILL"/>
</g>

<g transform="matrix( 0.55572509765625, 0, 0, 0.55841064453125, -26.55,0.45) ">
<use xlink:href="#Suite_Toys_320x50_html5_psd_Asset_Suite_Products_Toys_Learning_to_use_your_feet_is_no_little_feat__0_Layer0_0_MEMBER_11_FILL"/>
</g>

<g transform="matrix( 0.55572509765625, 0, 0, 0.55841064453125, -26.55,0.45) ">
<use xlink:href="#Suite_Toys_320x50_html5_psd_Asset_Suite_Products_Toys_Learning_to_use_your_feet_is_no_little_feat__0_Layer0_0_MEMBER_12_FILL"/>
</g>

<g transform="matrix( 0.55572509765625, 0, 0, 0.55841064453125, -26.55,0.45) ">
<use xlink:href="#Suite_Toys_320x50_html5_psd_Asset_Suite_Products_Toys_Learning_to_use_your_feet_is_no_little_feat__0_Layer0_0_MEMBER_13_FILL"/>
</g>

<g transform="matrix( 0.55572509765625, 0, 0, 0.55841064453125, -26.55,0.45) ">
<use xlink:href="#Suite_Toys_320x50_html5_psd_Asset_Suite_Products_Toys_Learning_to_use_your_feet_is_no_little_feat__0_Layer0_0_MEMBER_14_FILL"/>
</g>

<g transform="matrix( 0.55572509765625, 0, 0, 0.55841064453125, -26.55,0.45) ">
<use xlink:href="#Suite_Toys_320x50_html5_psd_Asset_Suite_Products_Toys_Learning_to_use_your_feet_is_no_little_feat__0_Layer0_0_MEMBER_15_FILL"/>
</g>

<g transform="matrix( 0.55572509765625, 0, 0, 0.55841064453125, -26.55,0.45) ">
<use xlink:href="#Suite_Toys_320x50_html5_psd_Asset_Suite_Products_Toys_Learning_to_use_your_feet_is_no_little_feat__0_Layer0_0_MEMBER_16_FILL"/>
</g>

<g transform="matrix( 0.55572509765625, 0, 0, 0.55841064453125, -26.55,0.45) ">
<use xlink:href="#Suite_Toys_320x50_html5_psd_Asset_Suite_Products_Toys_Learning_to_use_your_feet_is_no_little_feat__0_Layer0_0_MEMBER_17_FILL"/>
</g>

<g transform="matrix( 0.55572509765625, 0, 0, 0.55841064453125, -26.55,0.45) ">
<use xlink:href="#Suite_Toys_320x50_html5_psd_Asset_Suite_Products_Toys_Learning_to_use_your_feet_is_no_little_feat__0_Layer0_0_MEMBER_18_FILL"/>
</g>

<g transform="matrix( 0.55572509765625, 0, 0, 0.55841064453125, -26.55,0.45) ">
<use xlink:href="#Suite_Toys_320x50_html5_psd_Asset_Suite_Products_Toys_Learning_to_use_your_feet_is_no_little_feat__0_Layer0_0_MEMBER_19_FILL"/>
</g>

<g transform="matrix( 0.55572509765625, 0, 0, 0.55841064453125, -26.55,0.45) ">
<use xlink:href="#Suite_Toys_320x50_html5_psd_Asset_Suite_Products_Toys_Learning_to_use_your_feet_is_no_little_feat__0_Layer0_0_MEMBER_20_FILL"/>
</g>

<g transform="matrix( 0.55572509765625, 0, 0, 0.55841064453125, -26.55,0.45) ">
<use xlink:href="#Suite_Toys_320x50_html5_psd_Asset_Suite_Products_Toys_Learning_to_use_your_feet_is_no_little_feat__0_Layer0_0_MEMBER_21_FILL"/>
</g>

<g transform="matrix( 0.55572509765625, 0, 0, 0.55841064453125, -26.55,0.45) ">
<use xlink:href="#Suite_Toys_320x50_html5_psd_Asset_Suite_Products_Toys_Learning_to_use_your_feet_is_no_little_feat__0_Layer0_0_MEMBER_22_FILL"/>
</g>

<g transform="matrix( 0.55572509765625, 0, 0, 0.55841064453125, -26.55,0.45) ">
<use xlink:href="#Suite_Toys_320x50_html5_psd_Asset_Suite_Products_Toys_Learning_to_use_your_feet_is_no_little_feat__0_Layer0_0_MEMBER_23_FILL"/>
</g>

<g transform="matrix( 0.55572509765625, 0, 0, 0.55841064453125, -26.55,0.45) ">
<use xlink:href="#Suite_Toys_320x50_html5_psd_Asset_Suite_Products_Toys_Learning_to_use_your_feet_is_no_little_feat__0_Layer0_0_MEMBER_24_FILL"/>
</g>

<g transform="matrix( 0.55572509765625, 0, 0, 0.55841064453125, -26.55,0.45) ">
<use xlink:href="#Suite_Toys_320x50_html5_psd_Asset_Suite_Products_Toys_Learning_to_use_your_feet_is_no_little_feat__0_Layer0_0_MEMBER_25_FILL"/>
</g>

<g transform="matrix( 0.55572509765625, 0, 0, 0.55841064453125, -26.55,0.45) ">
<use xlink:href="#Suite_Toys_320x50_html5_psd_Asset_Suite_Products_Toys_Learning_to_use_your_feet_is_no_little_feat__0_Layer0_0_MEMBER_26_FILL"/>
</g>

<g transform="matrix( 0.55572509765625, 0, 0, 0.55841064453125, -26.55,0.45) ">
<use xlink:href="#Suite_Toys_320x50_html5_psd_Asset_Suite_Products_Toys_Learning_to_use_your_feet_is_no_little_feat__0_Layer0_0_MEMBER_27_FILL"/>
</g>

<g transform="matrix( 0.55572509765625, 0, 0, 0.55841064453125, -26.55,0.45) ">
<use xlink:href="#Suite_Toys_320x50_html5_psd_Asset_Suite_Products_Toys_Learning_to_use_your_feet_is_no_little_feat__0_Layer0_0_MEMBER_28_FILL"/>
</g>

<g transform="matrix( 0.55572509765625, 0, 0, 0.55841064453125, -26.55,0.45) ">
<use xlink:href="#Suite_Toys_320x50_html5_psd_Asset_Suite_Products_Toys_Learning_to_use_your_feet_is_no_little_feat__0_Layer0_0_MEMBER_29_FILL"/>
</g>

<g transform="matrix( 0.55572509765625, 0, 0, 0.55841064453125, -26.55,0.45) ">
<use xlink:href="#Suite_Toys_320x50_html5_psd_Asset_Suite_Products_Toys_Learning_to_use_your_feet_is_no_little_feat__0_Layer0_0_MEMBER_30_FILL"/>
</g>

<g transform="matrix( 0.55572509765625, 0, 0, 0.55841064453125, -26.55,0.45) ">
<use xlink:href="#Suite_Toys_320x50_html5_psd_Asset_Suite_Products_Toys_Learning_to_use_your_feet_is_no_little_feat__0_Layer0_0_MEMBER_31_FILL"/>
</g>

<g transform="matrix( 0.55572509765625, 0, 0, 0.55841064453125, -26.55,0.45) ">
<use xlink:href="#Suite_Toys_320x50_html5_psd_Asset_Suite_Products_Toys_Learning_to_use_your_feet_is_no_little_feat__0_Layer0_0_MEMBER_32_FILL"/>
</g>

<g transform="matrix( 0.55572509765625, 0, 0, 0.55841064453125, -26.55,0.45) ">
<use xlink:href="#Suite_Toys_320x50_html5_psd_Asset_Suite_Products_Toys_Learning_to_use_your_feet_is_no_little_feat__0_Layer0_0_MEMBER_33_FILL"/>
</g>

<g transform="matrix( 0.55572509765625, 0, 0, 0.55841064453125, -26.55,0.45) ">
<use xlink:href="#Suite_Toys_320x50_html5_psd_Asset_Suite_Products_Toys_Learning_to_use_your_feet_is_no_little_feat__0_Layer0_0_MEMBER_34_FILL"/>
</g>

<g transform="matrix( 0.55572509765625, 0, 0, 0.55841064453125, -26.55,0.45) ">
<use xlink:href="#Suite_Toys_320x50_html5_psd_Asset_Suite_Products_Toys_Learning_to_use_your_feet_is_no_little_feat__0_Layer0_0_MEMBER_35_FILL"/>
</g>
</g>
</svg>
