
<svg xmlns="http://www.w3.org/2000/svg" version="1.1" xmlns:xlink="http://www.w3.org/1999/xlink" preserveAspectRatio="none" x="0px" y="0px" width="728px" height="90px" viewBox="0 0 728 90">
<defs>
<g id="Suite_BabyGear_728x90_html5_psd_Asset_1_Suite_Products_Baby_Gear_footer_CTA_Shop_now_0_Layer0_0_MEMBER_0_FILL">
<path fill="#FFFFFF" stroke="none" d="
M -43.7 -2.95
Q -43.7 -1.7 -42.25 -0.75 -40.8 0.25 -38.8 0.25 -36.6 0.25 -35.3 -0.8 -33.9 -1.95 -33.9 -3.85 -33.9 -5.6 -35.15 -6.65 -36.05 -7.4 -38.25 -8.15 -40.8 -9.05 -40.8 -10.3 -40.8 -11.05 -40.25 -11.5 -39.65 -12 -38.65 -12 -37.6 -12 -36.8 -11.6 -36.95 -11.3 -36.95 -10.95 -36.95 -10.4 -36.55 -10 -36.15 -9.55 -35.45 -9.55 -34.05 -9.55 -34.05 -11.1 -34.05 -12.35 -35.35 -13.2 -36.7 -14.05 -38.6 -14.05 -40.65 -14.05 -41.95 -12.9 -43.2 -11.85 -43.2 -10.15 -43.2 -8.4 -41.95 -7.4 -41.1 -6.65 -38.8 -5.85 -36.3 -4.9 -36.3 -3.65 -36.3 -2.8 -36.95 -2.3 -37.6 -1.8 -38.75 -1.8 -40.1 -1.8 -40.95 -2.4 -40.75 -2.75 -40.75 -3.25 -40.75 -3.75 -41.15 -4.15 -41.6 -4.6 -42.25 -4.6 -42.9 -4.6 -43.3 -4.15 -43.7 -3.7 -43.7 -2.95 Z"/>
</g>

<g id="Suite_BabyGear_728x90_html5_psd_Asset_1_Suite_Products_Baby_Gear_footer_CTA_Shop_now_0_Layer0_0_MEMBER_1_FILL">
<path fill="#FFFFFF" stroke="none" d="
M -32.5 -13.45
L -31.1 -13.45 -31.1 -1.9 -32.5 -1.9 -32.5 0 -27.55 0 -27.55 -1.9 -28.8 -1.9 -28.8 -6.2
Q -27.5 -7.3 -26.45 -7.3 -25.75 -7.3 -25.4 -6.85 -25.15 -6.45 -25.15 -5.75
L -25.15 -1.9 -26.4 -1.9 -26.4 0 -21.45 0 -21.45 -1.9 -22.85 -1.9 -22.85 -6.3
Q -22.85 -7.55 -23.45 -8.4 -24.25 -9.35 -25.7 -9.35 -27.25 -9.35 -28.8 -7.8
L -28.8 -15.35 -32.5 -15.35 -32.5 -13.45 Z"/>
</g>

<g id="Suite_BabyGear_728x90_html5_psd_Asset_1_Suite_Products_Baby_Gear_footer_CTA_Shop_now_0_Layer0_0_MEMBER_2_FILL">
<path fill="#FFFFFF" stroke="none" d="
M -15.7 -9.35
Q -17.85 -9.35 -19.25 -7.9 -20.55 -6.55 -20.55 -4.6 -20.55 -2.6 -19.25 -1.25 -17.9 0.15 -15.7 0.15 -13.5 0.15 -12.1 -1.3 -10.8 -2.65 -10.8 -4.6 -10.8 -6.6 -12.1 -7.95 -13.5 -9.35 -15.7 -9.35
M -17.5 -6.65
Q -16.8 -7.45 -15.7 -7.45 -14.55 -7.45 -13.85 -6.65 -13.15 -5.85 -13.15 -4.6 -13.15 -3.35 -13.85 -2.55 -14.55 -1.75 -15.7 -1.75 -16.8 -1.75 -17.5 -2.55 -18.2 -3.35 -18.2 -4.6 -18.2 -5.85 -17.5 -6.65 Z"/>
</g>

<g id="Suite_BabyGear_728x90_html5_psd_Asset_1_Suite_Products_Baby_Gear_footer_CTA_Shop_now_0_Layer0_0_MEMBER_3_FILL">
<path fill="#FFFFFF" stroke="none" d="
M -0.25 -8.05
Q -1.4 -9.35 -3.2 -9.35 -4.65 -9.35 -5.95 -8.15
L -5.95 -9.2 -9.5 -9.2 -9.5 -7.25 -8.15 -7.25 -8.15 2.25 -9.5 2.25 -9.5 4.1 -4.4 4.1 -4.4 2.25 -5.85 2.25 -5.85 -0.7
Q -4.75 0.15 -3.35 0.15 -1.55 0.15 -0.3 -1.25 0.95 -2.65 0.95 -4.65 0.95 -6.7 -0.25 -8.05
M -3.75 -7.4
Q -2.75 -7.4 -2.1 -6.65 -1.4 -5.9 -1.4 -4.6 -1.4 -3.3 -2.1 -2.5 -2.75 -1.8 -3.75 -1.8 -4.9 -1.8 -5.85 -2.5
L -5.85 -6.45
Q -4.8 -7.4 -3.75 -7.4 Z"/>
</g>

<g id="Suite_BabyGear_728x90_html5_psd_Asset_1_Suite_Products_Baby_Gear_footer_CTA_Shop_now_0_Layer0_0_MEMBER_4_FILL">
<path fill="#FFFFFF" stroke="none" d="
M 8.35 -1.9
L 6.95 -1.9 6.95 0 11.85 0 11.85 -1.9 10.6 -1.9 10.6 -6.2
Q 12 -7.3 13 -7.3 13.8 -7.3 14.1 -6.7 14.3 -6.35 14.3 -5.75
L 14.3 -1.9 13.05 -1.9 13.05 0 17.95 0 17.95 -1.9 16.6 -1.9 16.6 -6.3
Q 16.6 -7.5 16.1 -8.2 15.35 -9.35 13.75 -9.35 12.15 -9.35 10.55 -7.75
L 10.55 -9.2 6.95 -9.2 6.95 -7.25 8.35 -7.25 8.35 -1.9 Z"/>
</g>

<g id="Suite_BabyGear_728x90_html5_psd_Asset_1_Suite_Products_Baby_Gear_footer_CTA_Shop_now_0_Layer0_0_MEMBER_5_FILL">
<path fill="#FFFFFF" stroke="none" d="
M 20.2 -7.9
Q 18.85 -6.55 18.85 -4.6 18.85 -2.6 20.15 -1.25 21.55 0.15 23.75 0.15 25.95 0.15 27.35 -1.3 28.65 -2.65 28.65 -4.6 28.65 -6.6 27.35 -7.95 25.95 -9.35 23.75 -9.35 21.55 -9.35 20.2 -7.9
M 21.9 -6.65
Q 22.6 -7.45 23.75 -7.45 24.9 -7.45 25.6 -6.65 26.3 -5.85 26.3 -4.6 26.3 -3.35 25.6 -2.55 24.9 -1.75 23.75 -1.75 22.6 -1.75 21.9 -2.55 21.2 -3.35 21.2 -4.6 21.2 -5.85 21.9 -6.65 Z"/>
</g>

<g id="Suite_BabyGear_728x90_html5_psd_Asset_1_Suite_Products_Baby_Gear_footer_CTA_Shop_now_0_Layer0_0_MEMBER_6_FILL">
<path fill="#FFFFFF" stroke="none" d="
M 29.4 -9.2
L 29.4 -7.25 30.75 -7.25 33 0.35 34.65 0.35 36.95 -5.25 39.2 0.35 40.85 0.35 43.1 -7.25 44.45 -7.25 44.45 -9.2 39.7 -9.2 39.7 -7.3 41.25 -7.3 39.95 -2.8 37.85 -8.25 36.25 -8.25 34.1 -2.8 32.85 -7.3 34.15 -7.3 34.15 -9.2 29.4 -9.2 Z"/>
</g>
</defs>

<g transform="matrix( 1, 0, 0, 1, 616,19) ">
<g transform="matrix( 1, 0, 0, 1.0013885498046875, 43.75,15.5) ">
<use xlink:href="#Suite_BabyGear_728x90_html5_psd_Asset_1_Suite_Products_Baby_Gear_footer_CTA_Shop_now_0_Layer0_0_MEMBER_0_FILL"/>
</g>

<g transform="matrix( 1, 0, 0, 1.0013885498046875, 43.75,15.5) ">
<use xlink:href="#Suite_BabyGear_728x90_html5_psd_Asset_1_Suite_Products_Baby_Gear_footer_CTA_Shop_now_0_Layer0_0_MEMBER_1_FILL"/>
</g>

<g transform="matrix( 1, 0, 0, 1.0013885498046875, 43.75,15.5) ">
<use xlink:href="#Suite_BabyGear_728x90_html5_psd_Asset_1_Suite_Products_Baby_Gear_footer_CTA_Shop_now_0_Layer0_0_MEMBER_2_FILL"/>
</g>

<g transform="matrix( 1, 0, 0, 1.0013885498046875, 43.75,15.5) ">
<use xlink:href="#Suite_BabyGear_728x90_html5_psd_Asset_1_Suite_Products_Baby_Gear_footer_CTA_Shop_now_0_Layer0_0_MEMBER_3_FILL"/>
</g>

<g transform="matrix( 1, 0, 0, 1.0013885498046875, 43.75,15.5) ">
<use xlink:href="#Suite_BabyGear_728x90_html5_psd_Asset_1_Suite_Products_Baby_Gear_footer_CTA_Shop_now_0_Layer0_0_MEMBER_4_FILL"/>
</g>

<g transform="matrix( 1, 0, 0, 1.0013885498046875, 43.75,15.5) ">
<use xlink:href="#Suite_BabyGear_728x90_html5_psd_Asset_1_Suite_Products_Baby_Gear_footer_CTA_Shop_now_0_Layer0_0_MEMBER_5_FILL"/>
</g>

<g transform="matrix( 1, 0, 0, 1.0013885498046875, 43.75,15.5) ">
<use xlink:href="#Suite_BabyGear_728x90_html5_psd_Asset_1_Suite_Products_Baby_Gear_footer_CTA_Shop_now_0_Layer0_0_MEMBER_6_FILL"/>
</g>
</g>
</svg>
