
<svg xmlns="http://www.w3.org/2000/svg" version="1.1" xmlns:xlink="http://www.w3.org/1999/xlink" preserveAspectRatio="none" x="0px" y="0px" width="728px" height="90px" viewBox="0 0 728 90">
<defs>
<g id="Suite_Toys_728x90_html5_psd_Asset_Suite_Products_Toy_text_When_you_re_on_the_move_and_getting_global__0_Layer0_0_MEMBER_0_FILL">
<path fill="#FFFFFF" stroke="none" d="
M 32.45 3.1
L 32.45 1.3 27.55 1.3 27.55 3.1 29.1 3.1 27.35 9.15 24.5 2.45 23.45 2.45 20.55 9.15 18.7 3.1 20.2 3.1 20.2 1.3 15.3 1.3 15.3 3.1 16.5 3.1 19.7 13 20.8 13 23.9 5.85 27 13 28.1 13 31.2 3.1 32.45 3.1 Z"/>
</g>

<g id="Suite_Toys_728x90_html5_psd_Asset_Suite_Products_Toy_text_When_you_re_on_the_move_and_getting_global__0_Layer0_0_MEMBER_1_FILL">
<path fill="#FFFFFF" stroke="none" d="
M 41.4 7.6
Q 41.4 6.55 40.85 5.85 40.2 5.05 39 5.05 37.75 5.05 36.35 6.35
L 36.35 0 33.3 0 33.3 1.6 34.45 1.6 34.45 11.3 33.3 11.3 33.3 12.85 37.4 12.85 37.4 11.3 36.35 11.3 36.35 7.65
Q 37.5 6.75 38.35 6.75 38.9 6.75 39.2 7.15 39.45 7.4 39.45 8.05
L 39.45 11.3 38.4 11.3 38.4 12.85 42.5 12.85 42.5 11.3 41.4 11.3 41.4 7.6 Z"/>
</g>

<g id="Suite_Toys_728x90_html5_psd_Asset_Suite_Products_Toy_text_When_you_re_on_the_move_and_getting_global__0_Layer0_0_MEMBER_2_FILL">
<path fill="#FFFFFF" stroke="none" d="
M 50.85 9.65
L 50.95 8.7
Q 50.95 7.15 50 6.15 48.95 5.05 47.2 5.05 45.45 5.05 44.35 6.25 43.3 7.35 43.3 9.05 43.3 10.85 44.45 11.95 45.65 13 47.55 13 49.35 13 50.45 12.3
L 50.6 10.6
Q 49.15 11.4 47.8 11.4 45.65 11.4 45.3 9.65
L 50.85 9.65
M 47.15 6.6
Q 48.9 6.6 49 8.35
L 45.25 8.35
Q 45.6 6.6 47.15 6.6 Z"/>
</g>

<g id="Suite_Toys_728x90_html5_psd_Asset_Suite_Products_Toy_text_When_you_re_on_the_move_and_getting_global__0_Layer0_0_MEMBER_3_FILL">
<path fill="#FFFFFF" stroke="none" d="
M 61.25 12.85
L 61.25 11.3 60.1 11.3 60.1 7.6
Q 60.1 6.7 59.7 6 59.05 5.05 57.7 5.05 56.45 5.05 55 6.4
L 55 5.15 52 5.15 52 6.8 53.15 6.8 53.15 11.3 52 11.3 52 12.85 56.15 12.85 56.15 11.3 55.1 11.3 55.1 7.65
Q 56.2 6.75 57.05 6.75 57.75 6.75 58 7.3 58.15 7.55 58.15 8.05
L 58.15 11.3 57.1 11.3 57.1 12.85 61.25 12.85 Z"/>
</g>

<g id="Suite_Toys_728x90_html5_psd_Asset_Suite_Products_Toy_text_When_you_re_on_the_move_and_getting_global__0_Layer0_0_MEMBER_4_FILL">
<path fill="#FFFFFF" stroke="none" d="
M 74.65 6.8
L 74.65 5.15 70.7 5.15 70.7 6.7 71.9 6.7 70.1 10.75 68.3 6.7 69.45 6.7 69.45 5.15 65.45 5.15 65.45 6.8 66.4 6.8 69.15 12.5 68.6 13.7 68.25 14.3
Q 67.85 14.7 67.6 14.75 67.4 14.15 66.75 14.15 65.8 14.15 65.8 15.15 65.8 15.6 66.25 16 66.75 16.35 67.45 16.35 68.65 16.35 69.5 15.35 69.9 15 70.1 14.45
L 73.7 6.8 74.65 6.8 Z"/>
</g>

<g id="Suite_Toys_728x90_html5_psd_Asset_Suite_Products_Toy_text_When_you_re_on_the_move_and_getting_global__0_Layer0_0_MEMBER_5_FILL">
<path fill="#FFFFFF" stroke="none" d="
M 83.25 9
Q 83.25 7.35 82.2 6.2 81.05 5.05 79.2 5.05 77.35 5.05 76.2 6.25 75.1 7.35 75.1 9 75.1 10.7 76.2 11.8 77.35 13 79.2 13 81 13 82.15 11.8 83.25 10.65 83.25 9
M 79.2 11.4
Q 78.25 11.4 77.65 10.75 77.05 10.1 77.05 9 77.05 7.95 77.65 7.3 78.25 6.65 79.2 6.65 80.15 6.65 80.7 7.3 81.3 7.95 81.3 9 81.3 10.1 80.7 10.75 80.15 11.4 79.2 11.4 Z"/>
</g>

<g id="Suite_Toys_728x90_html5_psd_Asset_Suite_Products_Toy_text_When_you_re_on_the_move_and_getting_global__0_Layer0_0_MEMBER_6_FILL">
<path fill="#FFFFFF" stroke="none" d="
M 92.1 11.3
L 92.1 5.15 89 5.15 89 6.8 90.2 6.8 90.2 10.35
Q 89.15 11.25 88.2 11.25 87.45 11.25 87.25 10.75 87.1 10.45 87.1 9.95
L 87.1 5.15 84.05 5.15 84.05 6.8 85.15 6.8 85.15 10.45
Q 85.15 11.35 85.55 12 86.2 13 87.55 13 88.8 13 90.25 11.65
L 90.25 12.85 93.25 12.85 93.25 11.3 92.1 11.3 Z"/>
</g>

<g id="Suite_Toys_728x90_html5_psd_Asset_Suite_Products_Toy_text_When_you_re_on_the_move_and_getting_global__0_Layer0_0_MEMBER_7_FILL">
<path fill="#FFFFFF" stroke="none" d="
M 96.75 4.55
Q 97.4 3.6 97.4 2.75 97.4 1.95 96.95 1.5 96.55 1.1 95.95 1.1 95.4 1.1 95 1.5 94.6 1.85 94.6 2.35 94.6 3.4 95.65 3.65 95.55 4.6 93.95 5.85
L 94.45 6.55
Q 95.95 5.7 96.75 4.55 Z"/>
</g>

<g id="Suite_Toys_728x90_html5_psd_Asset_Suite_Products_Toy_text_When_you_re_on_the_move_and_getting_global__0_Layer0_0_MEMBER_8_FILL">
<path fill="#FFFFFF" stroke="none" d="
M 105.05 7.15
Q 105.4 6.8 105.4 6.3 105.4 5.05 103.95 5.05 102.65 5.05 101.5 6.9
L 101.5 5.15 98.55 5.15 98.55 6.8 99.7 6.8 99.7 11.3 98.55 11.3 98.55 12.85 102.95 12.85 102.95 11.3 101.6 11.3 101.6 8.25
Q 102.2 7.15 103.1 6.8 103.5 7.5 104.25 7.5 104.75 7.5 105.05 7.15 Z"/>
</g>

<g id="Suite_Toys_728x90_html5_psd_Asset_Suite_Products_Toy_text_When_you_re_on_the_move_and_getting_global__0_Layer0_0_MEMBER_9_FILL">
<path fill="#FFFFFF" stroke="none" d="
M 113.15 12.3
L 113.3 10.6
Q 111.85 11.4 110.5 11.4 108.35 11.4 108 9.65
L 113.55 9.65 113.6 8.7
Q 113.6 7.1 112.65 6.15 111.65 5.05 109.85 5.05 108.1 5.05 107 6.25 105.95 7.35 105.95 9.05 105.95 10.85 107.15 11.95 108.35 13 110.25 13 112.05 13 113.15 12.3
M 107.95 8.35
Q 108.2 6.6 109.85 6.6 111.6 6.6 111.7 8.35
L 107.95 8.35 Z"/>
</g>

<g id="Suite_Toys_728x90_html5_psd_Asset_Suite_Products_Toy_text_When_you_re_on_the_move_and_getting_global__0_Layer0_0_MEMBER_10_FILL">
<path fill="#FFFFFF" stroke="none" d="
M 125.7 6.2
Q 124.55 5.05 122.7 5.05 120.9 5.05 119.75 6.25 118.65 7.35 118.65 9 118.65 10.65 119.75 11.8 120.9 13 122.7 13 124.55 13 125.7 11.8 126.8 10.7 126.8 9 126.8 7.35 125.7 6.2
M 124.25 10.75
Q 123.65 11.4 122.7 11.4 121.8 11.4 121.2 10.75 120.6 10.1 120.6 9 120.6 7.95 121.2 7.3 121.8 6.65 122.7 6.65 123.65 6.65 124.25 7.3 124.85 7.95 124.85 9 124.85 10.1 124.25 10.75 Z"/>
</g>

<g id="Suite_Toys_728x90_html5_psd_Asset_Suite_Products_Toy_text_When_you_re_on_the_move_and_getting_global__0_Layer0_0_MEMBER_11_FILL">
<path fill="#FFFFFF" stroke="none" d="
M 135.65 6
Q 134.95 5.05 133.65 5.05 132.4 5.05 130.95 6.4
L 130.95 5.15 127.95 5.15 127.95 6.8 129.1 6.8 129.1 11.3 127.95 11.3 127.95 12.85 132.1 12.85 132.1 11.3 131 11.3 131 7.65
Q 132.15 6.75 133 6.75 133.7 6.75 133.95 7.3 134.1 7.55 134.1 8.05
L 134.1 11.3 133.05 11.3 133.05 12.85 137.2 12.85 137.2 11.3 136.05 11.3 136.05 7.6
Q 136.05 6.7 135.65 6 Z"/>
</g>

<g id="Suite_Toys_728x90_html5_psd_Asset_Suite_Products_Toy_text_When_you_re_on_the_move_and_getting_global__0_Layer0_0_MEMBER_12_FILL">
<path fill="#FFFFFF" stroke="none" d="
M 143 3.55
L 143 5.15 141.5 5.15 141.5 6.8 143 6.8 143 10.75
Q 143 11.6 143.25 11.95 143.8 13 145.3 13 146.25 13 147.15 12.55
L 147.3 10.9
Q 146.4 11.3 145.8 11.3 145.2 11.3 145 10.95 144.9 10.8 144.9 10.35
L 144.9 6.8 147.2 6.8 147.2 5.15 144.9 5.15 144.9 2.75 143 3.55 Z"/>
</g>

<g id="Suite_Toys_728x90_html5_psd_Asset_Suite_Products_Toy_text_When_you_re_on_the_move_and_getting_global__0_Layer0_0_MEMBER_13_FILL">
<path fill="#FFFFFF" stroke="none" d="
M 155.85 5.85
Q 155.15 5.05 153.95 5.05 152.65 5.05 151.35 6.35
L 151.35 0 148.25 0 148.25 1.6 149.4 1.6 149.4 11.3 148.25 11.3 148.25 12.85 152.4 12.85 152.4 11.3 151.35 11.3 151.35 7.65
Q 152.45 6.75 153.3 6.75 153.9 6.75 154.2 7.15 154.4 7.4 154.4 8.05
L 154.4 11.3 153.35 11.3 153.35 12.85 157.5 12.85 157.5 11.3 156.35 11.3 156.35 7.6
Q 156.35 6.6 155.85 5.85 Z"/>
</g>

<g id="Suite_Toys_728x90_html5_psd_Asset_Suite_Products_Toy_text_When_you_re_on_the_move_and_getting_global__0_Layer0_0_MEMBER_14_FILL">
<path fill="#FFFFFF" stroke="none" d="
M 165.55 10.6
Q 164.1 11.4 162.75 11.4 160.6 11.4 160.25 9.65
L 165.8 9.65 165.9 8.7
Q 165.9 7.15 164.95 6.15 163.9 5.05 162.15 5.05 160.4 5.05 159.3 6.25 158.25 7.35 158.25 9.05 158.25 10.85 159.45 11.95 160.6 13 162.5 13 164.3 13 165.4 12.3
L 165.55 10.6
M 163.45 7.1
Q 163.95 7.55 163.95 8.35
L 160.2 8.35
Q 160.55 6.6 162.1 6.6 162.95 6.6 163.45 7.1 Z"/>
</g>

<g id="Suite_Toys_728x90_html5_psd_Asset_Suite_Products_Toy_text_When_you_re_on_the_move_and_getting_global__0_Layer0_0_MEMBER_15_FILL">
<path fill="#FFFFFF" stroke="none" d="
M 183.55 7.6
Q 183.55 6.7 183.25 6.15 182.65 5.05 181.05 5.05 179.75 5.05 178.5 6.3
L 178.25 5.85
Q 177.6 5.05 176.4 5.05 175.1 5.05 173.85 6.4
L 173.85 5.15 170.85 5.15 170.85 6.8 172 6.8 172 11.3 170.85 11.3 170.85 12.85 174.9 12.85 174.9 11.3 173.9 11.3 173.9 7.65
Q 175 6.75 175.8 6.75 176.45 6.75 176.7 7.3 176.8 7.5 176.8 8.05
L 176.8 11.3 175.75 11.3 175.75 12.85 179.75 12.85 179.75 11.3 178.75 11.3 178.75 7.65
Q 179.75 6.75 180.6 6.75 181.25 6.75 181.55 7.3
L 181.65 8.05 181.65 11.3 180.6 11.3 180.6 12.85 184.7 12.85 184.7 11.3 183.55 11.3 183.55 7.6 Z"/>
</g>

<g id="Suite_Toys_728x90_html5_psd_Asset_Suite_Products_Toy_text_When_you_re_on_the_move_and_getting_global__0_Layer0_0_MEMBER_16_FILL">
<path fill="#FFFFFF" stroke="none" d="
M 193.65 9
Q 193.65 7.35 192.55 6.2 191.4 5.05 189.55 5.05 187.75 5.05 186.55 6.25 185.45 7.35 185.45 9 185.45 10.7 186.55 11.8 187.7 13 189.55 13 191.4 13 192.55 11.8 193.65 10.7 193.65 9
M 191.1 10.75
Q 190.5 11.4 189.55 11.4 188.6 11.4 188.05 10.75 187.45 10.1 187.45 9 187.45 7.95 188.05 7.3 188.6 6.65 189.55 6.65 190.5 6.65 191.1 7.3 191.7 7.95 191.7 9 191.7 10.1 191.1 10.75 Z"/>
</g>

<g id="Suite_Toys_728x90_html5_psd_Asset_Suite_Products_Toy_text_When_you_re_on_the_move_and_getting_global__0_Layer0_0_MEMBER_17_FILL">
<path fill="#FFFFFF" stroke="none" d="
M 203.4 6.8
L 203.4 5.15 199.45 5.15 199.45 6.7 200.6 6.7 198.8 10.7 196.95 6.7 198.05 6.7 198.05 5.15 194.1 5.15 194.1 6.8 195 6.8 198.05 13 199.45 13 202.5 6.8 203.4 6.8 Z"/>
</g>

<g id="Suite_Toys_728x90_html5_psd_Asset_Suite_Products_Toy_text_When_you_re_on_the_move_and_getting_global__0_Layer0_0_MEMBER_18_FILL">
<path fill="#FFFFFF" stroke="none" d="
M 210.5 6.15
Q 209.5 5.05 207.75 5.05 206 5.05 204.9 6.25 203.8 7.35 203.8 9.05 203.8 10.85 205 11.95 206.2 13 208.1 13 209.9 13 211 12.3
L 211.15 10.6
Q 209.7 11.4 208.35 11.4 206.2 11.4 205.85 9.65
L 211.4 9.65 211.45 8.7
Q 211.45 7.1 210.5 6.15
M 207.7 6.6
Q 209.45 6.6 209.55 8.35
L 205.8 8.35
Q 206.05 6.6 207.7 6.6 Z"/>
</g>

<g id="Suite_Toys_728x90_html5_psd_Asset_Suite_Products_Toy_text_When_you_re_on_the_move_and_getting_global__0_Layer0_0_MEMBER_19_FILL">
<path fill="#FFFFFF" stroke="none" d="
M 41.35 35.85
L 41.35 34.3 40.2 34.3 40.2 31
Q 40.2 29.8 39.6 29.05 38.7 28 36.85 28 35.35 28 34.5 28.6 33.75 29.15 33.75 29.95 33.75 31 34.8 31 35.25 31 35.55 30.75 35.85 30.45 35.85 30
L 35.75 29.6 36.5 29.5
Q 37.55 29.5 38.05 30.05 38.35 30.55 38.35 31.1
L 38.35 31.75
Q 37.6 31.5 36.35 31.5 35 31.5 34.15 32.15 33.3 32.8 33.3 33.85 33.3 34.9 34.05 35.45 34.75 36 35.8 36 37.25 36 38.35 35
L 38.35 35.85 41.35 35.85
M 38.35 33.9
Q 37.4 34.6 36.4 34.6 35.25 34.6 35.25 33.65 35.25 32.55 36.75 32.55 37.7 32.55 38.35 32.7
L 38.35 33.9 Z"/>
</g>

<g id="Suite_Toys_728x90_html5_psd_Asset_Suite_Products_Toy_text_When_you_re_on_the_move_and_getting_global__0_Layer0_0_MEMBER_20_FILL">
<path fill="#FFFFFF" stroke="none" d="
M 51.35 35.85
L 51.35 34.3 50.25 34.3 50.25 30.6
Q 50.25 29.6 49.8 29 49.15 28 47.85 28 46.55 28 45.15 29.4
L 45.15 28.15 42.15 28.15 42.15 29.8 43.3 29.8 43.3 34.3 42.15 34.3 42.15 35.85 46.25 35.85 46.25 34.3 45.2 34.3 45.2 30.65
Q 46.35 29.75 47.2 29.75 47.9 29.75 48.15 30.25 48.3 30.55 48.3 31.05
L 48.3 34.3 47.25 34.3 47.25 35.85 51.35 35.85 Z"/>
</g>

<g id="Suite_Toys_728x90_html5_psd_Asset_Suite_Products_Toy_text_When_you_re_on_the_move_and_getting_global__0_Layer0_0_MEMBER_21_FILL">
<path fill="#FFFFFF" stroke="none" d="
M 59.9 23
L 56.8 23 56.8 24.6 57.95 24.6 57.95 28.75
Q 57 28 55.8 28 54.25 28 53.2 29.2 52.15 30.35 52.15 32.05 52.15 33.75 53.15 34.9 54.15 36 55.7 36 56.95 36 57.95 35
L 57.95 35.85 61 35.85 61 34.3 59.9 34.3 59.9 23
M 56.15 29.65
Q 57.1 29.65 57.95 30.25
L 57.95 33.55
Q 57.15 34.35 56.15 34.35 55.25 34.35 54.7 33.75 54.1 33.1 54.1 32.05 54.1 30.95 54.7 30.25 55.3 29.65 56.15 29.65 Z"/>
</g>

<g id="Suite_Toys_728x90_html5_psd_Asset_Suite_Products_Toy_text_When_you_re_on_the_move_and_getting_global__0_Layer0_0_MEMBER_22_FILL">
<path fill="#FFFFFF" stroke="none" d="
M 73.5 35.9
L 73.5 29.8 74.65 29.8 74.65 28.15 71.65 28.15 71.65 28.85
Q 70.7 28 69.45 28 67.95 28 66.9 29.15 65.85 30.25 65.85 31.9 65.85 33.6 66.85 34.65 67.85 35.7 69.35 35.7 70.6 35.7 71.6 34.7
L 71.6 35.8
Q 71.6 36.65 71.25 37.15 70.7 37.85 69.65 37.85 69.15 37.85 68.55 37.65
L 68.55 37.35
Q 68.55 36.35 67.5 36.35 67.05 36.35 66.75 36.65 66.45 36.95 66.45 37.4 66.45 37.95 66.9 38.4 67.75 39.35 69.9 39.35 71.8 39.35 72.8 38.2 73.5 37.25 73.5 35.9
M 71.6 30.25
L 71.6 33.35
Q 70.75 34.1 69.85 34.1 68.95 34.1 68.4 33.55 67.85 32.95 67.85 31.9 67.85 30.85 68.4 30.25 68.95 29.65 69.85 29.65 70.85 29.65 71.6 30.25 Z"/>
</g>

<g id="Suite_Toys_728x90_html5_psd_Asset_Suite_Products_Toy_text_When_you_re_on_the_move_and_getting_global__0_Layer0_0_MEMBER_23_FILL">
<path fill="#FFFFFF" stroke="none" d="
M 82.8 35.3
L 83 33.55
Q 81.6 34.4 80.2 34.4 78 34.4 77.65 32.65
L 83.2 32.65 83.3 31.7
Q 83.3 30.1 82.35 29.1 81.3 28 79.55 28 77.85 28 76.7 29.2 75.65 30.35 75.65 32.05 75.65 33.8 76.85 34.9 78 36 79.9 36 81.55 36 82.8 35.3
M 77.65 31.3
Q 77.95 29.55 79.55 29.55 80.35 29.55 80.85 30.05 81.35 30.5 81.4 31.3
L 77.65 31.3 Z"/>
</g>

<g id="Suite_Toys_728x90_html5_psd_Asset_Suite_Products_Toy_text_When_you_re_on_the_move_and_getting_global__0_Layer0_0_MEMBER_24_FILL">
<path fill="#FFFFFF" stroke="none" d="
M 87.4 28.15
L 87.4 25.7 85.5 26.55 85.5 28.15 84 28.15 84 29.8 85.5 29.8 85.5 33.75
Q 85.5 34.45 85.75 34.95 86.3 36 87.85 36 88.7 36 89.7 35.55
L 89.85 33.9
Q 88.95 34.3 88.3 34.3 87.75 34.3 87.5 33.9
L 87.4 33.35 87.4 29.8 89.75 29.8 89.75 28.15 87.4 28.15 Z"/>
</g>

<g id="Suite_Toys_728x90_html5_psd_Asset_Suite_Products_Toy_text_When_you_re_on_the_move_and_getting_global__0_Layer0_0_MEMBER_25_FILL">
<path fill="#FFFFFF" stroke="none" d="
M 96.2 29.8
L 96.2 28.15 93.9 28.15 93.9 25.7 92 26.55 92 28.15 90.5 28.15 90.5 29.8 92 29.8 92 33.75
Q 92 34.6 92.25 34.95 92.8 36 94.3 36 95.25 36 96.15 35.55
L 96.3 33.9
Q 95.4 34.3 94.8 34.3 94.25 34.3 94 33.9 93.9 33.75 93.9 33.35
L 93.9 29.8 96.2 29.8 Z"/>
</g>

<g id="Suite_Toys_728x90_html5_psd_Asset_Suite_Products_Toy_text_When_you_re_on_the_move_and_getting_global__0_Layer0_0_MEMBER_26_FILL">
<path fill="#FFFFFF" stroke="none" d="
M 97.4 28.15
L 97.4 29.8 98.55 29.8 98.55 34.3 97.4 34.3 97.4 35.85 101.6 35.85 101.6 34.3 100.45 34.3 100.45 28.15 97.4 28.15
M 100.6 25.7
Q 100.6 25.2 100.25 24.8 99.9 24.45 99.35 24.45 98.8 24.45 98.45 24.8 98.05 25.2 98.05 25.7 98.05 26.2 98.45 26.6 98.8 27 99.3 27 99.85 27 100.2 26.6 100.6 26.25 100.6 25.7 Z"/>
</g>

<g id="Suite_Toys_728x90_html5_psd_Asset_Suite_Products_Toy_text_When_you_re_on_the_move_and_getting_global__0_Layer0_0_MEMBER_27_FILL">
<path fill="#FFFFFF" stroke="none" d="
M 111.95 35.85
L 111.95 34.3 110.8 34.3 110.8 30.6
Q 110.8 29.65 110.4 29 109.75 28 108.4 28 107.1 28 105.7 29.4
L 105.7 28.15 102.7 28.15 102.7 29.8 103.85 29.8 103.85 34.3 102.7 34.3 102.7 35.85 106.85 35.85 106.85 34.3 105.8 34.3 105.8 30.65
Q 106.9 29.75 107.75 29.75 108.45 29.75 108.7 30.25 108.85 30.55 108.85 31.05
L 108.85 34.3 107.8 34.3 107.8 35.85 111.95 35.85 Z"/>
</g>

<g id="Suite_Toys_728x90_html5_psd_Asset_Suite_Products_Toy_text_When_you_re_on_the_move_and_getting_global__0_Layer0_0_MEMBER_28_FILL">
<path fill="#FFFFFF" stroke="none" d="
M 121.5 29.8
L 121.5 28.15 118.5 28.15 118.5 28.85
Q 117.55 28 116.3 28 114.8 28 113.75 29.15 112.7 30.25 112.7 31.9 112.7 33.6 113.7 34.65 114.7 35.7 116.2 35.7 117.5 35.7 118.4 34.7
L 118.4 35.8
Q 118.4 36.75 118.05 37.15 117.6 37.85 116.5 37.85 116.05 37.85 115.35 37.65
L 115.4 37.35
Q 115.4 36.9 115.1 36.65 114.8 36.35 114.35 36.35 113.9 36.35 113.6 36.65 113.3 36.95 113.3 37.4 113.3 38 113.7 38.4 114.65 39.35 116.75 39.35 118.7 39.35 119.6 38.2 120.35 37.3 120.35 35.9
L 120.35 29.8 121.5 29.8
M 116.7 29.65
Q 117.65 29.65 118.4 30.25
L 118.4 33.35
Q 117.65 34.1 116.7 34.1 115.8 34.1 115.25 33.55 114.65 32.95 114.65 31.9 114.65 30.85 115.25 30.25 115.8 29.65 116.7 29.65 Z"/>
</g>

<g id="Suite_Toys_728x90_html5_psd_Asset_Suite_Products_Toy_text_When_you_re_on_the_move_and_getting_global__0_Layer0_0_MEMBER_29_FILL">
<path fill="#FFFFFF" stroke="none" d="
M 138 27.9
L 138 25.8 134.1 25.8 134.1 26.7
Q 132.9 25.6 131.25 25.6 129.3 25.6 127.95 27.1 126.55 28.55 126.55 30.7 126.55 32.9 127.9 34.3 129.2 35.65 131.15 35.65 132.65 35.65 134.05 34.35
L 134.05 35.8
Q 134.05 36.9 133.55 37.55 132.95 38.45 131.5 38.45 131.05 38.45 130.05 38.2
L 130.05 37.8
Q 130.05 37.25 129.65 36.85 129.25 36.5 128.65 36.5 128.05 36.5 127.7 36.9 127.3 37.3 127.3 37.9 127.3 38.55 127.85 39.2 129.2 40.45 131.8 40.45 134.35 40.45 135.6 38.9 136.55 37.7 136.55 35.9
L 136.55 27.9 138 27.9
M 131.75 27.75
Q 133 27.75 134.05 28.55
L 134.05 32.55
Q 132.95 33.55 131.75 33.55 130.6 33.55 129.85 32.8 129.1 32.05 129.1 30.7 129.1 29.3 129.85 28.5 130.6 27.75 131.75 27.75 Z"/>
</g>

<g id="Suite_Toys_728x90_html5_psd_Asset_Suite_Products_Toy_text_When_you_re_on_the_move_and_getting_global__0_Layer0_0_MEMBER_30_FILL">
<path fill="#FFFFFF" stroke="none" d="
M 139.15 19.05
L 139.15 21.15 140.7 21.15 140.7 33.8 139.15 33.8 139.15 35.85 144.7 35.85 144.7 33.8 143.2 33.8 143.2 19.05 139.15 19.05 Z"/>
</g>

<g id="Suite_Toys_728x90_html5_psd_Asset_Suite_Products_Toy_text_When_you_re_on_the_move_and_getting_global__0_Layer0_0_MEMBER_31_FILL">
<path fill="#FFFFFF" stroke="none" d="
M 156.8 30.85
Q 156.8 28.65 155.4 27.15 153.9 25.6 151.45 25.6 149.1 25.6 147.55 27.2 146.1 28.7 146.1 30.85 146.1 33.05 147.55 34.5 149.05 36.05 151.45 36.05 153.85 36.05 155.35 34.5 156.8 33 156.8 30.85
M 154.25 30.85
Q 154.25 32.2 153.45 33.1 152.7 33.95 151.45 33.95 150.25 33.95 149.5 33.1 148.7 32.2 148.7 30.85 148.7 29.45 149.5 28.6 150.25 27.7 151.45 27.7 152.7 27.7 153.45 28.6 154.25 29.45 154.25 30.85 Z"/>
</g>

<g id="Suite_Toys_728x90_html5_psd_Asset_Suite_Products_Toy_text_When_you_re_on_the_move_and_getting_global__0_Layer0_0_MEMBER_32_FILL">
<path fill="#FFFFFF" stroke="none" d="
M 168.05 27.05
Q 166.75 25.6 164.75 25.6 163.1 25.6 161.8 26.9
L 161.8 19.05 157.75 19.05 157.75 21.15 159.3 21.15 159.3 35.9 161 35.9 161.55 34.9
Q 162.95 36.05 164.6 36.05 166.6 36.05 168 34.5 169.4 33 169.4 30.8 169.4 28.55 168.05 27.05
M 166.05 33.1
Q 165.3 33.9 164.2 33.9 162.95 33.9 161.8 33.1
L 161.8 28.8
Q 163.05 27.75 164.2 27.75 165.35 27.75 166.05 28.55 166.85 29.4 166.85 30.8 166.85 32.25 166.05 33.1 Z"/>
</g>

<g id="Suite_Toys_728x90_html5_psd_Asset_Suite_Products_Toy_text_When_you_re_on_the_move_and_getting_global__0_Layer0_0_MEMBER_33_FILL">
<path fill="#FFFFFF" stroke="none" d="
M 177.45 29.65
L 177.45 30.45
Q 176.55 30.2 174.9 30.2 173.1 30.2 172 31 170.85 31.85 170.85 33.2 170.85 34.55 171.85 35.35 172.75 36.05 174.1 36.05 176 36.05 177.5 34.75
L 177.5 35.85 181.35 35.85 181.35 33.8 179.85 33.8 179.85 29.5
Q 179.85 27.95 179.1 26.95 178 25.6 175.5 25.6 173.55 25.6 172.45 26.4 171.5 27.1 171.5 28.15 171.5 29.5 172.8 29.5 173.4 29.5 173.8 29.15 174.15 28.75 174.15 28.2
L 174.1 27.7
Q 174.4 27.55 175.05 27.55 176.5 27.55 177.05 28.25 177.45 28.8 177.45 29.65
M 173.4 33
Q 173.4 31.5 175.35 31.5 176.45 31.5 177.45 31.75
L 177.45 33.35
Q 176.2 34.25 174.9 34.25 173.4 34.25 173.4 33 Z"/>
</g>

<g id="Suite_Toys_728x90_html5_psd_Asset_Suite_Products_Toy_text_When_you_re_on_the_move_and_getting_global__0_Layer0_0_MEMBER_34_FILL">
<path fill="#FFFFFF" stroke="none" d="
M 182.15 19.05
L 182.15 21.15 183.75 21.15 183.75 33.8 182.15 33.8 182.15 35.85 187.75 35.85 187.75 33.8 186.25 33.8 186.25 19.05 182.15 19.05 Z"/>
</g>

<g id="Suite_Toys_728x90_html5_psd_Asset_Suite_Products_Toy_text_When_you_re_on_the_move_and_getting_global__0_Layer0_0_MEMBER_35_FILL">
<path fill="#FFFFFF" stroke="none" d="
M 189.95 35.5
Q 190.5 36.05 191.3 36.05 192.1 36.05 192.65 35.5 193.2 34.95 193.2 34.15 193.2 33.35 192.65 32.8 192.1 32.25 191.3 32.25 190.5 32.25 189.95 32.8 189.4 33.35 189.4 34.15 189.4 34.95 189.95 35.5 Z"/>
</g>
</defs>

<g transform="matrix( 1, 0, 0, 1, 36,38) ">
<g transform="matrix( 1.1206512451171875, 0, 0, 1.1260833740234375, -17.15,0.45) ">
<use xlink:href="#Suite_Toys_728x90_html5_psd_Asset_Suite_Products_Toy_text_When_you_re_on_the_move_and_getting_global__0_Layer0_0_MEMBER_0_FILL"/>
</g>

<g transform="matrix( 1.1206512451171875, 0, 0, 1.1260833740234375, -17.15,0.45) ">
<use xlink:href="#Suite_Toys_728x90_html5_psd_Asset_Suite_Products_Toy_text_When_you_re_on_the_move_and_getting_global__0_Layer0_0_MEMBER_1_FILL"/>
</g>

<g transform="matrix( 1.1206512451171875, 0, 0, 1.1260833740234375, -17.15,0.45) ">
<use xlink:href="#Suite_Toys_728x90_html5_psd_Asset_Suite_Products_Toy_text_When_you_re_on_the_move_and_getting_global__0_Layer0_0_MEMBER_2_FILL"/>
</g>

<g transform="matrix( 1.1206512451171875, 0, 0, 1.1260833740234375, -17.15,0.45) ">
<use xlink:href="#Suite_Toys_728x90_html5_psd_Asset_Suite_Products_Toy_text_When_you_re_on_the_move_and_getting_global__0_Layer0_0_MEMBER_3_FILL"/>
</g>

<g transform="matrix( 1.1206512451171875, 0, 0, 1.1260833740234375, -17.15,0.45) ">
<use xlink:href="#Suite_Toys_728x90_html5_psd_Asset_Suite_Products_Toy_text_When_you_re_on_the_move_and_getting_global__0_Layer0_0_MEMBER_4_FILL"/>
</g>

<g transform="matrix( 1.1206512451171875, 0, 0, 1.1260833740234375, -17.15,0.45) ">
<use xlink:href="#Suite_Toys_728x90_html5_psd_Asset_Suite_Products_Toy_text_When_you_re_on_the_move_and_getting_global__0_Layer0_0_MEMBER_5_FILL"/>
</g>

<g transform="matrix( 1.1206512451171875, 0, 0, 1.1260833740234375, -17.15,0.45) ">
<use xlink:href="#Suite_Toys_728x90_html5_psd_Asset_Suite_Products_Toy_text_When_you_re_on_the_move_and_getting_global__0_Layer0_0_MEMBER_6_FILL"/>
</g>

<g transform="matrix( 1.1206512451171875, 0, 0, 1.1260833740234375, -17.15,0.45) ">
<use xlink:href="#Suite_Toys_728x90_html5_psd_Asset_Suite_Products_Toy_text_When_you_re_on_the_move_and_getting_global__0_Layer0_0_MEMBER_7_FILL"/>
</g>

<g transform="matrix( 1.1206512451171875, 0, 0, 1.1260833740234375, -17.15,0.45) ">
<use xlink:href="#Suite_Toys_728x90_html5_psd_Asset_Suite_Products_Toy_text_When_you_re_on_the_move_and_getting_global__0_Layer0_0_MEMBER_8_FILL"/>
</g>

<g transform="matrix( 1.1206512451171875, 0, 0, 1.1260833740234375, -17.15,0.45) ">
<use xlink:href="#Suite_Toys_728x90_html5_psd_Asset_Suite_Products_Toy_text_When_you_re_on_the_move_and_getting_global__0_Layer0_0_MEMBER_9_FILL"/>
</g>

<g transform="matrix( 1.1206512451171875, 0, 0, 1.1260833740234375, -17.15,0.45) ">
<use xlink:href="#Suite_Toys_728x90_html5_psd_Asset_Suite_Products_Toy_text_When_you_re_on_the_move_and_getting_global__0_Layer0_0_MEMBER_10_FILL"/>
</g>

<g transform="matrix( 1.1206512451171875, 0, 0, 1.1260833740234375, -17.15,0.45) ">
<use xlink:href="#Suite_Toys_728x90_html5_psd_Asset_Suite_Products_Toy_text_When_you_re_on_the_move_and_getting_global__0_Layer0_0_MEMBER_11_FILL"/>
</g>

<g transform="matrix( 1.1206512451171875, 0, 0, 1.1260833740234375, -17.15,0.45) ">
<use xlink:href="#Suite_Toys_728x90_html5_psd_Asset_Suite_Products_Toy_text_When_you_re_on_the_move_and_getting_global__0_Layer0_0_MEMBER_12_FILL"/>
</g>

<g transform="matrix( 1.1206512451171875, 0, 0, 1.1260833740234375, -17.15,0.45) ">
<use xlink:href="#Suite_Toys_728x90_html5_psd_Asset_Suite_Products_Toy_text_When_you_re_on_the_move_and_getting_global__0_Layer0_0_MEMBER_13_FILL"/>
</g>

<g transform="matrix( 1.1206512451171875, 0, 0, 1.1260833740234375, -17.15,0.45) ">
<use xlink:href="#Suite_Toys_728x90_html5_psd_Asset_Suite_Products_Toy_text_When_you_re_on_the_move_and_getting_global__0_Layer0_0_MEMBER_14_FILL"/>
</g>

<g transform="matrix( 1.1206512451171875, 0, 0, 1.1260833740234375, -17.15,0.45) ">
<use xlink:href="#Suite_Toys_728x90_html5_psd_Asset_Suite_Products_Toy_text_When_you_re_on_the_move_and_getting_global__0_Layer0_0_MEMBER_15_FILL"/>
</g>

<g transform="matrix( 1.1206512451171875, 0, 0, 1.1260833740234375, -17.15,0.45) ">
<use xlink:href="#Suite_Toys_728x90_html5_psd_Asset_Suite_Products_Toy_text_When_you_re_on_the_move_and_getting_global__0_Layer0_0_MEMBER_16_FILL"/>
</g>

<g transform="matrix( 1.1206512451171875, 0, 0, 1.1260833740234375, -17.15,0.45) ">
<use xlink:href="#Suite_Toys_728x90_html5_psd_Asset_Suite_Products_Toy_text_When_you_re_on_the_move_and_getting_global__0_Layer0_0_MEMBER_17_FILL"/>
</g>

<g transform="matrix( 1.1206512451171875, 0, 0, 1.1260833740234375, -17.15,0.45) ">
<use xlink:href="#Suite_Toys_728x90_html5_psd_Asset_Suite_Products_Toy_text_When_you_re_on_the_move_and_getting_global__0_Layer0_0_MEMBER_18_FILL"/>
</g>

<g transform="matrix( 1.1206512451171875, 0, 0, 1.1260833740234375, -17.15,0.45) ">
<use xlink:href="#Suite_Toys_728x90_html5_psd_Asset_Suite_Products_Toy_text_When_you_re_on_the_move_and_getting_global__0_Layer0_0_MEMBER_19_FILL"/>
</g>

<g transform="matrix( 1.1206512451171875, 0, 0, 1.1260833740234375, -17.15,0.45) ">
<use xlink:href="#Suite_Toys_728x90_html5_psd_Asset_Suite_Products_Toy_text_When_you_re_on_the_move_and_getting_global__0_Layer0_0_MEMBER_20_FILL"/>
</g>

<g transform="matrix( 1.1206512451171875, 0, 0, 1.1260833740234375, -17.15,0.45) ">
<use xlink:href="#Suite_Toys_728x90_html5_psd_Asset_Suite_Products_Toy_text_When_you_re_on_the_move_and_getting_global__0_Layer0_0_MEMBER_21_FILL"/>
</g>

<g transform="matrix( 1.1206512451171875, 0, 0, 1.1260833740234375, -17.15,0.45) ">
<use xlink:href="#Suite_Toys_728x90_html5_psd_Asset_Suite_Products_Toy_text_When_you_re_on_the_move_and_getting_global__0_Layer0_0_MEMBER_22_FILL"/>
</g>

<g transform="matrix( 1.1206512451171875, 0, 0, 1.1260833740234375, -17.15,0.45) ">
<use xlink:href="#Suite_Toys_728x90_html5_psd_Asset_Suite_Products_Toy_text_When_you_re_on_the_move_and_getting_global__0_Layer0_0_MEMBER_23_FILL"/>
</g>

<g transform="matrix( 1.1206512451171875, 0, 0, 1.1260833740234375, -17.15,0.45) ">
<use xlink:href="#Suite_Toys_728x90_html5_psd_Asset_Suite_Products_Toy_text_When_you_re_on_the_move_and_getting_global__0_Layer0_0_MEMBER_24_FILL"/>
</g>

<g transform="matrix( 1.1206512451171875, 0, 0, 1.1260833740234375, -17.15,0.45) ">
<use xlink:href="#Suite_Toys_728x90_html5_psd_Asset_Suite_Products_Toy_text_When_you_re_on_the_move_and_getting_global__0_Layer0_0_MEMBER_25_FILL"/>
</g>

<g transform="matrix( 1.1206512451171875, 0, 0, 1.1260833740234375, -17.15,0.45) ">
<use xlink:href="#Suite_Toys_728x90_html5_psd_Asset_Suite_Products_Toy_text_When_you_re_on_the_move_and_getting_global__0_Layer0_0_MEMBER_26_FILL"/>
</g>

<g transform="matrix( 1.1206512451171875, 0, 0, 1.1260833740234375, -17.15,0.45) ">
<use xlink:href="#Suite_Toys_728x90_html5_psd_Asset_Suite_Products_Toy_text_When_you_re_on_the_move_and_getting_global__0_Layer0_0_MEMBER_27_FILL"/>
</g>

<g transform="matrix( 1.1206512451171875, 0, 0, 1.1260833740234375, -17.15,0.45) ">
<use xlink:href="#Suite_Toys_728x90_html5_psd_Asset_Suite_Products_Toy_text_When_you_re_on_the_move_and_getting_global__0_Layer0_0_MEMBER_28_FILL"/>
</g>

<g transform="matrix( 1.1206512451171875, 0, 0, 1.1260833740234375, -17.15,0.45) ">
<use xlink:href="#Suite_Toys_728x90_html5_psd_Asset_Suite_Products_Toy_text_When_you_re_on_the_move_and_getting_global__0_Layer0_0_MEMBER_29_FILL"/>
</g>

<g transform="matrix( 1.1206512451171875, 0, 0, 1.1260833740234375, -17.15,0.45) ">
<use xlink:href="#Suite_Toys_728x90_html5_psd_Asset_Suite_Products_Toy_text_When_you_re_on_the_move_and_getting_global__0_Layer0_0_MEMBER_30_FILL"/>
</g>

<g transform="matrix( 1.1206512451171875, 0, 0, 1.1260833740234375, -17.15,0.45) ">
<use xlink:href="#Suite_Toys_728x90_html5_psd_Asset_Suite_Products_Toy_text_When_you_re_on_the_move_and_getting_global__0_Layer0_0_MEMBER_31_FILL"/>
</g>

<g transform="matrix( 1.1206512451171875, 0, 0, 1.1260833740234375, -17.15,0.45) ">
<use xlink:href="#Suite_Toys_728x90_html5_psd_Asset_Suite_Products_Toy_text_When_you_re_on_the_move_and_getting_global__0_Layer0_0_MEMBER_32_FILL"/>
</g>

<g transform="matrix( 1.1206512451171875, 0, 0, 1.1260833740234375, -17.15,0.45) ">
<use xlink:href="#Suite_Toys_728x90_html5_psd_Asset_Suite_Products_Toy_text_When_you_re_on_the_move_and_getting_global__0_Layer0_0_MEMBER_33_FILL"/>
</g>

<g transform="matrix( 1.1206512451171875, 0, 0, 1.1260833740234375, -17.15,0.45) ">
<use xlink:href="#Suite_Toys_728x90_html5_psd_Asset_Suite_Products_Toy_text_When_you_re_on_the_move_and_getting_global__0_Layer0_0_MEMBER_34_FILL"/>
</g>

<g transform="matrix( 1.1206512451171875, 0, 0, 1.1260833740234375, -17.15,0.45) ">
<use xlink:href="#Suite_Toys_728x90_html5_psd_Asset_Suite_Products_Toy_text_When_you_re_on_the_move_and_getting_global__0_Layer0_0_MEMBER_35_FILL"/>
</g>
</g>
</svg>
