
<svg xmlns="http://www.w3.org/2000/svg" version="1.1" xmlns:xlink="http://www.w3.org/1999/xlink" preserveAspectRatio="none" x="0px" y="0px" width="160px" height="600px" viewBox="0 0 160 600">
<defs>
<g id="Suite_Toys_160x600_html5_psd_Asset_Suite_Products_Toys_text_Learning_to_use_your_feet_is_no_little_feat__0_Layer0_0_MEMBER_0_FILL">
<path fill="#FFFFFF" stroke="none" d="
M 13.2 3.1
L 13.2 1.3 8.35 1.3 8.35 3.1 9.7 3.1 9.7 11.1 8.35 11.1 8.35 12.85 16.75 12.85 16.75 9.5 14.85 9.5 14.85 11.1 11.65 11.1 11.65 3.1 13.2 3.1 Z"/>
</g>

<g id="Suite_Toys_160x600_html5_psd_Asset_Suite_Products_Toys_text_Learning_to_use_your_feet_is_no_little_feat__0_Layer0_0_MEMBER_1_FILL">
<path fill="#FFFFFF" stroke="none" d="
M 25.15 10.6
Q 23.7 11.4 22.4 11.4 20.2 11.4 19.85 9.65
L 25.4 9.65 25.5 8.7
Q 25.5 7.15 24.55 6.15 23.5 5.05 21.75 5.05 20 5.05 18.9 6.25 17.85 7.35 17.85 9.05 17.85 10.85 19.05 11.95 20.2 13 22.1 13 23.9 13 25 12.3
L 25.15 10.6
M 23.05 7.1
Q 23.55 7.55 23.55 8.35
L 19.85 8.35
Q 20.1 6.6 21.7 6.6 22.55 6.6 23.05 7.1 Z"/>
</g>

<g id="Suite_Toys_160x600_html5_psd_Asset_Suite_Products_Toys_text_Learning_to_use_your_feet_is_no_little_feat__0_Layer0_0_MEMBER_2_FILL">
<path fill="#FFFFFF" stroke="none" d="
M 31.5 8.1
L 31.5 8.75
Q 30.7 8.55 29.55 8.55 28.15 8.55 27.35 9.15 26.45 9.8 26.45 10.85 26.45 11.9 27.2 12.45 27.9 13 28.95 13 30.4 13 31.55 12.05
L 31.55 12.85 34.5 12.85 34.5 11.3 33.4 11.3 33.4 8
Q 33.4 6.8 32.8 6.05 31.95 5.05 30 5.05 28.55 5.05 27.7 5.65 26.95 6.2 26.95 7 26.95 8 28 8 29 8 29 7
L 28.95 6.65
Q 29.25 6.5 29.7 6.5 30.8 6.5 31.2 7.05 31.5 7.45 31.5 8.1
M 31.5 9.7
L 31.5 10.95
Q 30.6 11.6 29.6 11.6 28.45 11.6 28.45 10.65 28.45 9.55 29.95 9.55 30.9 9.55 31.5 9.7 Z"/>
</g>

<g id="Suite_Toys_160x600_html5_psd_Asset_Suite_Products_Toys_text_Learning_to_use_your_feet_is_no_little_feat__0_Layer0_0_MEMBER_3_FILL">
<path fill="#FFFFFF" stroke="none" d="
M 42.2 6.3
Q 42.2 5.05 40.8 5.05 39.5 5.05 38.35 6.9
L 38.35 5.15 35.35 5.15 35.35 6.8 36.5 6.8 36.5 11.3 35.35 11.3 35.35 12.85 39.75 12.85 39.75 11.3 38.4 11.3 38.4 8.25
Q 39 7.15 39.95 6.8 40.25 7.5 41.05 7.5 41.55 7.5 41.85 7.15 42.2 6.8 42.2 6.3 Z"/>
</g>

<g id="Suite_Toys_160x600_html5_psd_Asset_Suite_Products_Toys_text_Learning_to_use_your_feet_is_no_little_feat__0_Layer0_0_MEMBER_4_FILL">
<path fill="#FFFFFF" stroke="none" d="
M 51.05 7.6
Q 51.05 6.6 50.65 6 50 5.05 48.7 5.05 47.35 5.05 46 6.4
L 46 5.15 43 5.15 43 6.8 44.15 6.8 44.15 11.3 43 11.3 43 12.85 47.1 12.85 47.1 11.3 46.05 11.3 46.05 7.65
Q 47.15 6.75 48.05 6.75 48.7 6.75 49 7.3 49.15 7.55 49.15 8.05
L 49.15 11.3 48.1 11.3 48.1 12.85 52.2 12.85 52.2 11.3 51.05 11.3 51.05 7.6 Z"/>
</g>

<g id="Suite_Toys_160x600_html5_psd_Asset_Suite_Products_Toys_text_Learning_to_use_your_feet_is_no_little_feat__0_Layer0_0_MEMBER_5_FILL">
<path fill="#FFFFFF" stroke="none" d="
M 54.25 11.3
L 53.05 11.3 53.05 12.85 57.3 12.85 57.3 11.3 56.15 11.3 56.15 5.15 53.05 5.15 53.05 6.8 54.25 6.8 54.25 11.3
M 55.9 3.65
Q 56.3 3.25 56.3 2.75 56.3 2.2 55.9 1.8 55.55 1.45 55 1.45 54.5 1.45 54.1 1.8 53.7 2.2 53.7 2.75 53.7 3.25 54.1 3.65 54.45 4 55 4 55.5 4 55.9 3.65 Z"/>
</g>

<g id="Suite_Toys_160x600_html5_psd_Asset_Suite_Products_Toys_text_Learning_to_use_your_feet_is_no_little_feat__0_Layer0_0_MEMBER_6_FILL">
<path fill="#FFFFFF" stroke="none" d="
M 64.55 11.3
L 63.5 11.3 63.5 12.85 67.6 12.85 67.6 11.3 66.45 11.3 66.45 7.6
Q 66.45 6.6 66.05 6 65.4 5.05 64.1 5.05 62.75 5.05 61.4 6.4
L 61.4 5.15 58.4 5.15 58.4 6.8 59.55 6.8 59.55 11.3 58.4 11.3 58.4 12.85 62.5 12.85 62.5 11.3 61.45 11.3 61.45 7.65
Q 62.55 6.75 63.45 6.75 64.1 6.75 64.4 7.3 64.55 7.55 64.55 8.05
L 64.55 11.3 Z"/>
</g>

<g id="Suite_Toys_160x600_html5_psd_Asset_Suite_Products_Toys_text_Learning_to_use_your_feet_is_no_little_feat__0_Layer0_0_MEMBER_7_FILL">
<path fill="#FFFFFF" stroke="none" d="
M 74.15 5.15
L 74.15 5.85
Q 73.25 5.05 71.95 5.05 70.45 5.05 69.4 6.2 68.35 7.3 68.35 8.95 68.35 10.6 69.4 11.65 70.4 12.7 71.9 12.7 73.05 12.7 74.1 11.75
L 74.1 12.85
Q 74.1 13.65 73.75 14.15 73.25 14.85 72.2 14.85 71.65 14.85 71.05 14.65
L 71.05 14.35
Q 71.05 13.35 70 13.35 69.55 13.35 69.25 13.65 68.95 13.95 68.95 14.4 68.95 14.95 69.4 15.4 70.4 16.4 72.4 16.4 74.35 16.4 75.3 15.2 76 14.35 76 12.9
L 76 6.8 77.15 6.8 77.15 5.15 74.15 5.15
M 70.9 7.25
Q 71.45 6.7 72.35 6.7 73.35 6.7 74.1 7.3
L 74.1 10.35
Q 73.25 11.1 72.35 11.1 71.45 11.1 70.9 10.55 70.35 9.95 70.35 8.9 70.35 7.85 70.9 7.25 Z"/>
</g>

<g id="Suite_Toys_160x600_html5_psd_Asset_Suite_Products_Toys_text_Learning_to_use_your_feet_is_no_little_feat__0_Layer0_0_MEMBER_8_FILL">
<path fill="#FFFFFF" stroke="none" d="
M 83.1 5.15
L 81.6 5.15 81.6 6.8 83.1 6.8 83.1 10.75
Q 83.1 11.6 83.35 11.95 83.9 13 85.4 13 86.35 13 87.25 12.55
L 87.4 10.9
Q 86.5 11.3 85.9 11.3 85.3 11.3 85.1 10.95 85 10.8 85 10.35
L 85 6.8 87.3 6.8 87.3 5.15 85 5.15 85 2.75 83.1 3.55 83.1 5.15 Z"/>
</g>

<g id="Suite_Toys_160x600_html5_psd_Asset_Suite_Products_Toys_text_Learning_to_use_your_feet_is_no_little_feat__0_Layer0_0_MEMBER_9_FILL">
<path fill="#FFFFFF" stroke="none" d="
M 95.45 6.2
Q 94.3 5.05 92.45 5.05 90.6 5.05 89.45 6.25 88.35 7.35 88.35 9 88.35 10.7 89.45 11.8 90.6 13 92.45 13 94.3 13 95.45 11.8 96.55 10.65 96.55 9 96.55 7.35 95.45 6.2
M 93.95 10.75
Q 93.4 11.4 92.45 11.4 91.5 11.4 90.9 10.75 90.3 10.1 90.3 9 90.3 7.95 90.9 7.3 91.5 6.65 92.45 6.65 93.4 6.65 93.95 7.3 94.55 7.95 94.55 9 94.55 10.1 93.95 10.75 Z"/>
</g>

<g id="Suite_Toys_160x600_html5_psd_Asset_Suite_Products_Toys_text_Learning_to_use_your_feet_is_no_little_feat__0_Layer0_0_MEMBER_10_FILL">
<path fill="#FFFFFF" stroke="none" d="
M 104.35 5.15
L 101.3 5.15 101.3 6.8 102.4 6.8 102.4 10.45
Q 102.4 11.35 102.8 12 103.45 13 104.8 13 106.05 13 107.5 11.65
L 107.5 12.85 110.5 12.85 110.5 11.3 109.35 11.3 109.35 5.15 106.25 5.15 106.25 6.8 107.45 6.8 107.45 10.35
Q 106.4 11.25 105.45 11.25 104.7 11.25 104.5 10.75 104.35 10.45 104.35 9.95
L 104.35 5.15 Z"/>
</g>

<g id="Suite_Toys_160x600_html5_psd_Asset_Suite_Products_Toys_text_Learning_to_use_your_feet_is_no_little_feat__0_Layer0_0_MEMBER_11_FILL">
<path fill="#FFFFFF" stroke="none" d="
M 115.1 5
Q 113.55 5 112.7 5.8 111.95 6.45 111.95 7.45 111.95 8.4 112.65 8.95 113.3 9.4 114.95 9.85 116.45 10.25 116.45 10.8 116.45 11.6 115.05 11.6 114.25 11.6 113.65 11.35
L 113.7 11.05
Q 113.7 10 112.65 10 112.2 10 111.95 10.3 111.65 10.6 111.65 11.05 111.65 11.7 112.1 12.1 113.05 13.05 115.05 13.05 116.4 13.05 117.35 12.4 118.3 11.7 118.3 10.55 118.3 9.6 117.55 9.05 116.95 8.65 115.4 8.2 113.75 7.8 113.75 7.25 113.75 6.45 115.05 6.45 115.7 6.45 116.15 6.65
L 116.1 6.95
Q 116.1 7.9 117.15 7.9 118.1 7.9 118.1 6.85 118.1 6.3 117.65 5.9 116.85 5 115.1 5 Z"/>
</g>

<g id="Suite_Toys_160x600_html5_psd_Asset_Suite_Products_Toys_text_Learning_to_use_your_feet_is_no_little_feat__0_Layer0_0_MEMBER_12_FILL">
<path fill="#FFFFFF" stroke="none" d="
M 126.25 6.15
Q 125.2 5.05 123.45 5.05 121.7 5.05 120.6 6.25 119.55 7.35 119.55 9.05 119.55 10.85 120.75 11.95 121.9 13 123.8 13 125.6 13 126.7 12.3
L 126.85 10.6
Q 125.5 11.4 124.1 11.4 121.9 11.4 121.55 9.65
L 127.1 9.65 127.2 8.7
Q 127.2 7.15 126.25 6.15
M 121.55 8.35
Q 121.8 6.6 123.45 6.6 124.25 6.6 124.75 7.1 125.25 7.55 125.25 8.35
L 121.55 8.35 Z"/>
</g>

<g id="Suite_Toys_160x600_html5_psd_Asset_Suite_Products_Toys_text_Learning_to_use_your_feet_is_no_little_feat__0_Layer0_0_MEMBER_13_FILL">
<path fill="#FFFFFF" stroke="none" d="
M 14.35 26.05
L 14.35 28.5 15.85 28.5 20.05 37.25 18.6 40.05
Q 18.2 40.55 17.65 40.75 17.25 39.85 16.35 39.85 15.75 39.85 15.35 40.25 14.9 40.65 14.9 41.35 14.9 42.1 15.6 42.65 16.35 43.2 17.45 43.2 19.3 43.2 20.55 41.7 21.1 41 21.5 40.25
L 27 28.5 28.45 28.5 28.45 26.05 22.4 26.05 22.4 28.4 24.2 28.4 21.45 34.6 18.75 28.4 20.45 28.4 20.45 26.05 14.35 26.05 Z"/>
</g>

<g id="Suite_Toys_160x600_html5_psd_Asset_Suite_Products_Toys_text_Learning_to_use_your_feet_is_no_little_feat__0_Layer0_0_MEMBER_14_FILL">
<path fill="#FFFFFF" stroke="none" d="
M 35.4 25.8
Q 32.6 25.8 30.8 27.65 29.1 29.4 29.1 31.95 29.1 34.5 30.8 36.25 32.55 38.05 35.4 38.05 38.2 38.05 40 36.2 41.7 34.5 41.7 31.95 41.7 29.4 40 27.65 38.25 25.8 35.4 25.8
M 33.05 29.3
Q 33.95 28.3 35.4 28.3 36.85 28.3 37.75 29.3 38.65 30.35 38.65 31.95 38.65 33.55 37.75 34.6 36.85 35.6 35.4 35.6 33.95 35.6 33.05 34.6 32.15 33.55 32.15 31.95 32.15 30.35 33.05 29.3 Z"/>
</g>

<g id="Suite_Toys_160x600_html5_psd_Asset_Suite_Products_Toys_text_Learning_to_use_your_feet_is_no_little_feat__0_Layer0_0_MEMBER_15_FILL">
<path fill="#FFFFFF" stroke="none" d="
M 52.3 28.5
L 52.3 34
Q 50.65 35.4 49.25 35.4 48.15 35.4 47.8 34.6 47.55 34.25 47.55 33.4
L 47.55 26.05 42.85 26.05 42.85 28.5 44.6 28.5 44.6 34.15
Q 44.6 35.6 45.2 36.5 46.2 38.05 48.25 38.05 50.2 38.05 52.4 35.95
L 52.4 37.85 57 37.85 57 35.4 55.2 35.4 55.2 26.05 50.45 26.05 50.45 28.5 52.3 28.5 Z"/>
</g>

<g id="Suite_Toys_160x600_html5_psd_Asset_Suite_Products_Toys_text_Learning_to_use_your_feet_is_no_little_feat__0_Layer0_0_MEMBER_16_FILL">
<path fill="#FFFFFF" stroke="none" d="
M 58.5 26.05
L 58.5 28.5 60.25 28.5 60.25 35.4 58.5 35.4 58.5 37.85 65.25 37.85 65.25 35.4 63.2 35.4 63.2 30.8
Q 64.1 29.05 65.55 28.55 66.05 29.6 67.3 29.6 68 29.6 68.55 29.05 69.05 28.5 69.05 27.75 69.05 26.9 68.5 26.4 67.9 25.8 66.85 25.8 64.9 25.8 63.1 28.7
L 63.1 26.05 58.5 26.05 Z"/>
</g>

<g id="Suite_Toys_160x600_html5_psd_Asset_Suite_Products_Toys_text_Learning_to_use_your_feet_is_no_little_feat__0_Layer0_0_MEMBER_17_FILL">
<path fill="#FFFFFF" stroke="none" d="
M 82.25 20.45
Q 82.75 21.55 83.95 21.55 84.6 21.55 85.05 21.1 85.55 20.65 85.55 19.9 85.55 19 84.8 18.45 84.05 17.9 82.9 17.9 80.95 17.9 79.7 19.15 78.15 20.65 78.15 23.75
L 78.15 26.05 76.15 26.05 76.15 28.5 78.15 28.5 78.15 35.4 76.4 35.4 76.4 37.85 83.4 37.85 83.4 35.4 81.1 35.4 81.1 28.5 84.15 28.5 84.15 26.05 81.1 26.05 81.1 23.3
Q 81.1 21.65 81.6 20.95 81.85 20.6 82.25 20.45 Z"/>
</g>

<g id="Suite_Toys_160x600_html5_psd_Asset_Suite_Products_Toys_text_Learning_to_use_your_feet_is_no_little_feat__0_Layer0_0_MEMBER_18_FILL">
<path fill="#FFFFFF" stroke="none" d="
M 96.45 34.35
Q 94.35 35.6 92.15 35.6 88.85 35.6 88.3 32.95
L 96.8 32.95
Q 96.95 32.35 96.95 31.5 96.95 29.05 95.5 27.45 93.9 25.8 91.2 25.8 88.55 25.8 86.85 27.65 85.2 29.4 85.2 31.95 85.2 34.7 87.05 36.4 88.85 38.05 91.75 38.05 94.35 38.05 96.2 37
L 96.45 34.35
M 93.2 28.95
Q 93.95 29.7 94 30.9
L 88.25 30.9
Q 88.5 29.55 89.35 28.8 90.1 28.2 91.15 28.2 92.45 28.2 93.2 28.95 Z"/>
</g>

<g id="Suite_Toys_160x600_html5_psd_Asset_Suite_Products_Toys_text_Learning_to_use_your_feet_is_no_little_feat__0_Layer0_0_MEMBER_19_FILL">
<path fill="#FFFFFF" stroke="none" d="
M 100.35 27.65
Q 98.7 29.4 98.7 31.95 98.7 34.7 100.5 36.4 102.3 38.05 105.2 38.05 107.85 38.05 109.7 37
L 109.95 34.35
Q 107.75 35.6 105.65 35.6 102.3 35.6 101.75 32.95
L 110.3 32.95 110.4 31.5
Q 110.4 29.05 108.95 27.45 107.4 25.8 104.7 25.8 102.05 25.8 100.35 27.65
M 106.7 28.95
Q 107.45 29.7 107.5 30.9
L 101.75 30.9
Q 102.15 28.2 104.65 28.2 105.95 28.2 106.7 28.95 Z"/>
</g>

<g id="Suite_Toys_160x600_html5_psd_Asset_Suite_Products_Toys_text_Learning_to_use_your_feet_is_no_little_feat__0_Layer0_0_MEMBER_20_FILL">
<path fill="#FFFFFF" stroke="none" d="
M 116.7 22.3
L 113.8 23.55 113.8 26.05 111.5 26.05 111.5 28.5 113.8 28.5 113.8 34.6
Q 113.8 35.65 114.2 36.45 115.05 38.05 117.4 38.05 118.8 38.05 120.2 37.35
L 120.45 34.85
Q 119.05 35.45 118.15 35.45 117.2 35.45 116.9 34.9 116.7 34.55 116.7 34
L 116.7 28.5 120.3 28.5 120.3 26.05 116.7 26.05 116.7 22.3 Z"/>
</g>

<g id="Suite_Toys_160x600_html5_psd_Asset_Suite_Products_Toys_text_Learning_to_use_your_feet_is_no_little_feat__0_Layer0_0_MEMBER_21_FILL">
<path fill="#FFFFFF" stroke="none" d="
M 32.55 49.15
L 29.45 49.15 29.45 50.75 30.65 50.75 30.65 55.25 29.45 55.25 29.45 56.85 33.7 56.85 33.7 55.25 32.55 55.25 32.55 49.15
M 30.5 47.6
Q 30.9 48 31.4 48 31.95 48 32.3 47.6 32.7 47.25 32.7 46.7 32.7 46.2 32.3 45.8 31.95 45.45 31.45 45.45 30.9 45.45 30.55 45.8 30.15 46.2 30.15 46.7 30.15 47.25 30.5 47.6 Z"/>
</g>

<g id="Suite_Toys_160x600_html5_psd_Asset_Suite_Products_Toys_text_Learning_to_use_your_feet_is_no_little_feat__0_Layer0_0_MEMBER_22_FILL">
<path fill="#FFFFFF" stroke="none" d="
M 39.3 50.95
Q 39.3 51.9 40.35 51.9 41.25 51.9 41.25 50.85 41.25 50.25 40.85 49.9 40.05 49 38.25 49 36.75 49 35.85 49.8 35.1 50.45 35.1 51.45 35.1 52.4 35.8 52.9 36.45 53.4 38.15 53.85 39.65 54.25 39.65 54.75 39.65 55.6 38.25 55.6 37.45 55.6 36.85 55.35
L 36.9 55.05
Q 36.9 54 35.85 54 35.4 54 35.15 54.3 34.85 54.6 34.85 55.05 34.85 55.65 35.3 56.1 36.2 57 38.25 57 39.6 57 40.5 56.4 41.5 55.7 41.5 54.55 41.5 53.6 40.7 53.05 40.1 52.65 38.55 52.2 36.95 51.8 36.95 51.2 36.95 50.4 38.25 50.4 38.7 50.4 39.3 50.6
L 39.3 50.95 Z"/>
</g>

<g id="Suite_Toys_160x600_html5_psd_Asset_Suite_Products_Toys_text_Learning_to_use_your_feet_is_no_little_feat__0_Layer0_0_MEMBER_23_FILL">
<path fill="#FFFFFF" stroke="none" d="
M 49.6 49.15
L 46.6 49.15 46.6 50.75 47.75 50.75 47.75 55.25 46.6 55.25 46.6 56.85 50.7 56.85 50.7 55.25 49.65 55.25 49.65 51.65
Q 50.8 50.75 51.65 50.75 52.25 50.75 52.6 51.25 52.75 51.55 52.75 52.05
L 52.75 55.25 51.7 55.25 51.7 56.85 55.8 56.85 55.8 55.25 54.65 55.25 54.65 51.6
Q 54.65 50.55 54.25 50 53.6 49 52.3 49 51 49 49.6 50.4
L 49.6 49.15 Z"/>
</g>

<g id="Suite_Toys_160x600_html5_psd_Asset_Suite_Products_Toys_text_Learning_to_use_your_feet_is_no_little_feat__0_Layer0_0_MEMBER_24_FILL">
<path fill="#FFFFFF" stroke="none" d="
M 63.65 55.8
Q 64.75 54.65 64.75 53 64.75 51.35 63.65 50.2 62.5 49 60.65 49 58.85 49 57.65 50.2 56.55 51.35 56.55 53 56.55 54.7 57.65 55.8 58.8 57 60.65 57 62.5 57 63.65 55.8
M 62.8 53
Q 62.8 54.05 62.2 54.75 61.6 55.4 60.65 55.4 59.7 55.4 59.15 54.75 58.55 54.05 58.55 53 58.55 51.95 59.15 51.3 59.7 50.6 60.65 50.6 61.6 50.6 62.2 51.3 62.8 51.95 62.8 53 Z"/>
</g>

<g id="Suite_Toys_160x600_html5_psd_Asset_Suite_Products_Toys_text_Learning_to_use_your_feet_is_no_little_feat__0_Layer0_0_MEMBER_25_FILL">
<path fill="#FFFFFF" stroke="none" d="
M 69.7 45.6
L 70.9 45.6 70.9 55.25 69.7 55.25 69.7 56.85 73.95 56.85 73.95 55.25 72.8 55.25 72.8 44 69.7 44 69.7 45.6 Z"/>
</g>

<g id="Suite_Toys_160x600_html5_psd_Asset_Suite_Products_Toys_text_Learning_to_use_your_feet_is_no_little_feat__0_Layer0_0_MEMBER_26_FILL">
<path fill="#FFFFFF" stroke="none" d="
M 78.05 49.15
L 75 49.15 75 50.75 76.15 50.75 76.15 55.25 75 55.25 75 56.85 79.2 56.85 79.2 55.25 78.05 55.25 78.05 49.15
M 76.9 48
Q 77.45 48 77.8 47.6 78.2 47.25 78.2 46.7 78.2 46.2 77.85 45.8 77.5 45.45 76.95 45.45 76.4 45.45 76.05 45.8 75.65 46.2 75.65 46.7 75.65 47.25 76 47.6 76.4 48 76.9 48 Z"/>
</g>

<g id="Suite_Toys_160x600_html5_psd_Asset_Suite_Products_Toys_text_Learning_to_use_your_feet_is_no_little_feat__0_Layer0_0_MEMBER_27_FILL">
<path fill="#FFFFFF" stroke="none" d="
M 81.45 47.55
L 81.45 49.15 79.95 49.15 79.95 50.75 81.45 50.75 81.45 54.75
Q 81.45 55.5 81.7 55.95 82.25 57 83.75 57 84.7 57 85.6 56.55
L 85.75 54.9
Q 84.85 55.3 84.25 55.3 83.7 55.3 83.45 54.9 83.35 54.75 83.35 54.35
L 83.35 50.75 85.65 50.75 85.65 49.15 83.35 49.15 83.35 46.7 81.45 47.55 Z"/>
</g>

<g id="Suite_Toys_160x600_html5_psd_Asset_Suite_Products_Toys_text_Learning_to_use_your_feet_is_no_little_feat__0_Layer0_0_MEMBER_28_FILL">
<path fill="#FFFFFF" stroke="none" d="
M 87.9 49.15
L 86.4 49.15 86.4 50.75 87.9 50.75 87.9 54.75
Q 87.9 55.45 88.2 55.95 88.7 57 90.25 57 91.1 57 92.1 56.55
L 92.25 54.9
Q 91.35 55.3 90.75 55.3 90.2 55.3 89.95 54.9 89.8 54.7 89.8 54.35
L 89.8 50.75 92.15 50.75 92.15 49.15 89.8 49.15 89.8 46.7 87.9 47.55 87.9 49.15 Z"/>
</g>

<g id="Suite_Toys_160x600_html5_psd_Asset_Suite_Products_Toys_text_Learning_to_use_your_feet_is_no_little_feat__0_Layer0_0_MEMBER_29_FILL">
<path fill="#FFFFFF" stroke="none" d="
M 93.05 45.6
L 94.25 45.6 94.25 55.25 93.05 55.25 93.05 56.85 97.3 56.85 97.3 55.25 96.15 55.25 96.15 44 93.05 44 93.05 45.6 Z"/>
</g>

<g id="Suite_Toys_160x600_html5_psd_Asset_Suite_Products_Toys_text_Learning_to_use_your_feet_is_no_little_feat__0_Layer0_0_MEMBER_30_FILL">
<path fill="#FFFFFF" stroke="none" d="
M 105.9 53.65
L 106 52.7
Q 106 51.1 105.05 50.1 104 49 102.25 49 100.55 49 99.4 50.2 98.35 51.35 98.35 53 98.35 54.8 99.55 55.9 100.7 57 102.6 57 104.25 57 105.55 56.3
L 105.7 54.55
Q 104.3 55.4 102.9 55.4 100.8 55.4 100.35 53.65
L 105.9 53.65
M 102.25 50.55
Q 104 50.55 104.1 52.3
L 100.35 52.3
Q 100.65 50.55 102.25 50.55 Z"/>
</g>

<g id="Suite_Toys_160x600_html5_psd_Asset_Suite_Products_Toys_text_Learning_to_use_your_feet_is_no_little_feat__0_Layer0_0_MEMBER_31_FILL">
<path fill="#FFFFFF" stroke="none" d="
M 48.25 65.45
Q 48.9 66.55 49.95 66.55 50.6 66.55 51.05 66.1 51.55 65.65 51.55 64.85 51.55 64 50.8 63.45 50.1 62.9 48.95 62.9 47 62.9 45.7 64.1 44.85 64.95 44.5 66.05 44.2 67.05 44.2 68.75
L 44.2 71 42.15 71 42.15 73.5 44.2 73.5 44.2 80.4 42.4 80.4 42.4 82.85 49.4 82.85 49.4 80.4 47.1 80.4 47.1 73.5 50.15 73.5 50.15 71 47.1 71 47.1 68.3
Q 47.1 66.75 47.65 65.95 47.8 65.65 48.25 65.45 Z"/>
</g>

<g id="Suite_Toys_160x600_html5_psd_Asset_Suite_Products_Toys_text_Learning_to_use_your_feet_is_no_little_feat__0_Layer0_0_MEMBER_32_FILL">
<path fill="#FFFFFF" stroke="none" d="
M 57.2 70.8
Q 54.55 70.8 52.85 72.6 51.2 74.35 51.2 76.95 51.2 79.7 53.05 81.35 54.85 83.05 57.75 83.05 60.45 83.05 62.2 81.95
L 62.45 79.35
Q 60.3 80.55 58.2 80.55 54.85 80.55 54.3 77.9
L 62.8 77.9
Q 62.95 77.3 62.95 76.45 62.95 74 61.5 72.45 59.95 70.8 57.2 70.8
M 55.35 73.8
Q 56.15 73.2 57.2 73.2 58.45 73.2 59.2 73.95 59.95 74.65 60 75.9
L 54.25 75.9
Q 54.5 74.55 55.35 73.8 Z"/>
</g>

<g id="Suite_Toys_160x600_html5_psd_Asset_Suite_Products_Toys_text_Learning_to_use_your_feet_is_no_little_feat__0_Layer0_0_MEMBER_33_FILL">
<path fill="#FFFFFF" stroke="none" d="
M 69.4 73.05
Q 71.05 73.05 71.75 73.95 72.2 74.5 72.2 75.55
L 72.2 76.5
Q 70.7 76.15 69.2 76.15 67.05 76.15 65.8 77.1 64.45 78.1 64.45 79.75 64.45 81.35 65.6 82.25 66.65 83.05 68.3 83.05 70.45 83.05 72.25 81.55
L 72.25 82.85 76.8 82.85 76.8 80.4 75.05 80.4 75.05 75.35
Q 75.05 73.55 74.15 72.4 72.85 70.8 69.9 70.8 67.65 70.8 66.35 71.75 65.2 72.6 65.2 73.8 65.2 74.5 65.65 74.95 66.1 75.4 66.8 75.4 67.45 75.4 67.9 74.95 68.35 74.5 68.35 73.85
L 68.25 73.25
Q 68.85 73.05 69.4 73.05
M 72.2 78
L 72.2 79.85
Q 70.75 80.9 69.25 80.9 67.5 80.9 67.5 79.45 67.5 77.75 69.75 77.75 71.1 77.75 72.2 78 Z"/>
</g>

<g id="Suite_Toys_160x600_html5_psd_Asset_Suite_Products_Toys_text_Learning_to_use_your_feet_is_no_little_feat__0_Layer0_0_MEMBER_34_FILL">
<path fill="#FFFFFF" stroke="none" d="
M 82.7 71
L 82.7 67.25 79.8 68.55 79.8 71 77.5 71 77.5 73.5 79.8 73.5 79.8 79.55
Q 79.8 80.8 80.2 81.45 81.05 83.05 83.35 83.05 84.8 83.05 86.2 82.35
L 86.45 79.8
Q 85.15 80.45 84.1 80.45 83.2 80.45 82.9 79.85 82.7 79.5 82.7 79
L 82.7 73.5 86.3 73.5 86.3 71 82.7 71 Z"/>
</g>

<g id="Suite_Toys_160x600_html5_psd_Asset_Suite_Products_Toys_text_Learning_to_use_your_feet_is_no_little_feat__0_Layer0_0_MEMBER_35_FILL">
<path fill="#FFFFFF" stroke="none" d="
M 89.1 82.4
Q 89.75 83.05 90.65 83.05 91.55 83.05 92.2 82.4 92.85 81.75 92.85 80.85 92.85 79.9 92.2 79.25 91.55 78.6 90.65 78.6 89.75 78.6 89.1 79.25 88.45 79.9 88.45 80.85 88.45 81.75 89.1 82.4 Z"/>
</g>
</defs>

<g transform="matrix( 1, 0, 0, 1, 13,80) ">
<g transform="matrix( 1.12249755859375, 0, 0, 1.1279449462890625, -8.8,-1.55) ">
<use xlink:href="#Suite_Toys_160x600_html5_psd_Asset_Suite_Products_Toys_text_Learning_to_use_your_feet_is_no_little_feat__0_Layer0_0_MEMBER_0_FILL"/>
</g>

<g transform="matrix( 1.12249755859375, 0, 0, 1.1279449462890625, -8.8,-1.55) ">
<use xlink:href="#Suite_Toys_160x600_html5_psd_Asset_Suite_Products_Toys_text_Learning_to_use_your_feet_is_no_little_feat__0_Layer0_0_MEMBER_1_FILL"/>
</g>

<g transform="matrix( 1.12249755859375, 0, 0, 1.1279449462890625, -8.8,-1.55) ">
<use xlink:href="#Suite_Toys_160x600_html5_psd_Asset_Suite_Products_Toys_text_Learning_to_use_your_feet_is_no_little_feat__0_Layer0_0_MEMBER_2_FILL"/>
</g>

<g transform="matrix( 1.12249755859375, 0, 0, 1.1279449462890625, -8.8,-1.55) ">
<use xlink:href="#Suite_Toys_160x600_html5_psd_Asset_Suite_Products_Toys_text_Learning_to_use_your_feet_is_no_little_feat__0_Layer0_0_MEMBER_3_FILL"/>
</g>

<g transform="matrix( 1.12249755859375, 0, 0, 1.1279449462890625, -8.8,-1.55) ">
<use xlink:href="#Suite_Toys_160x600_html5_psd_Asset_Suite_Products_Toys_text_Learning_to_use_your_feet_is_no_little_feat__0_Layer0_0_MEMBER_4_FILL"/>
</g>

<g transform="matrix( 1.12249755859375, 0, 0, 1.1279449462890625, -8.8,-1.55) ">
<use xlink:href="#Suite_Toys_160x600_html5_psd_Asset_Suite_Products_Toys_text_Learning_to_use_your_feet_is_no_little_feat__0_Layer0_0_MEMBER_5_FILL"/>
</g>

<g transform="matrix( 1.12249755859375, 0, 0, 1.1279449462890625, -8.8,-1.55) ">
<use xlink:href="#Suite_Toys_160x600_html5_psd_Asset_Suite_Products_Toys_text_Learning_to_use_your_feet_is_no_little_feat__0_Layer0_0_MEMBER_6_FILL"/>
</g>

<g transform="matrix( 1.12249755859375, 0, 0, 1.1279449462890625, -8.8,-1.55) ">
<use xlink:href="#Suite_Toys_160x600_html5_psd_Asset_Suite_Products_Toys_text_Learning_to_use_your_feet_is_no_little_feat__0_Layer0_0_MEMBER_7_FILL"/>
</g>

<g transform="matrix( 1.12249755859375, 0, 0, 1.1279449462890625, -8.8,-1.55) ">
<use xlink:href="#Suite_Toys_160x600_html5_psd_Asset_Suite_Products_Toys_text_Learning_to_use_your_feet_is_no_little_feat__0_Layer0_0_MEMBER_8_FILL"/>
</g>

<g transform="matrix( 1.12249755859375, 0, 0, 1.1279449462890625, -8.8,-1.55) ">
<use xlink:href="#Suite_Toys_160x600_html5_psd_Asset_Suite_Products_Toys_text_Learning_to_use_your_feet_is_no_little_feat__0_Layer0_0_MEMBER_9_FILL"/>
</g>

<g transform="matrix( 1.12249755859375, 0, 0, 1.1279449462890625, -8.8,-1.55) ">
<use xlink:href="#Suite_Toys_160x600_html5_psd_Asset_Suite_Products_Toys_text_Learning_to_use_your_feet_is_no_little_feat__0_Layer0_0_MEMBER_10_FILL"/>
</g>

<g transform="matrix( 1.12249755859375, 0, 0, 1.1279449462890625, -8.8,-1.55) ">
<use xlink:href="#Suite_Toys_160x600_html5_psd_Asset_Suite_Products_Toys_text_Learning_to_use_your_feet_is_no_little_feat__0_Layer0_0_MEMBER_11_FILL"/>
</g>

<g transform="matrix( 1.12249755859375, 0, 0, 1.1279449462890625, -8.8,-1.55) ">
<use xlink:href="#Suite_Toys_160x600_html5_psd_Asset_Suite_Products_Toys_text_Learning_to_use_your_feet_is_no_little_feat__0_Layer0_0_MEMBER_12_FILL"/>
</g>

<g transform="matrix( 1.12249755859375, 0, 0, 1.1279449462890625, -8.8,-1.55) ">
<use xlink:href="#Suite_Toys_160x600_html5_psd_Asset_Suite_Products_Toys_text_Learning_to_use_your_feet_is_no_little_feat__0_Layer0_0_MEMBER_13_FILL"/>
</g>

<g transform="matrix( 1.12249755859375, 0, 0, 1.1279449462890625, -8.8,-1.55) ">
<use xlink:href="#Suite_Toys_160x600_html5_psd_Asset_Suite_Products_Toys_text_Learning_to_use_your_feet_is_no_little_feat__0_Layer0_0_MEMBER_14_FILL"/>
</g>

<g transform="matrix( 1.12249755859375, 0, 0, 1.1279449462890625, -8.8,-1.55) ">
<use xlink:href="#Suite_Toys_160x600_html5_psd_Asset_Suite_Products_Toys_text_Learning_to_use_your_feet_is_no_little_feat__0_Layer0_0_MEMBER_15_FILL"/>
</g>

<g transform="matrix( 1.12249755859375, 0, 0, 1.1279449462890625, -8.8,-1.55) ">
<use xlink:href="#Suite_Toys_160x600_html5_psd_Asset_Suite_Products_Toys_text_Learning_to_use_your_feet_is_no_little_feat__0_Layer0_0_MEMBER_16_FILL"/>
</g>

<g transform="matrix( 1.12249755859375, 0, 0, 1.1279449462890625, -8.8,-1.55) ">
<use xlink:href="#Suite_Toys_160x600_html5_psd_Asset_Suite_Products_Toys_text_Learning_to_use_your_feet_is_no_little_feat__0_Layer0_0_MEMBER_17_FILL"/>
</g>

<g transform="matrix( 1.12249755859375, 0, 0, 1.1279449462890625, -8.8,-1.55) ">
<use xlink:href="#Suite_Toys_160x600_html5_psd_Asset_Suite_Products_Toys_text_Learning_to_use_your_feet_is_no_little_feat__0_Layer0_0_MEMBER_18_FILL"/>
</g>

<g transform="matrix( 1.12249755859375, 0, 0, 1.1279449462890625, -8.8,-1.55) ">
<use xlink:href="#Suite_Toys_160x600_html5_psd_Asset_Suite_Products_Toys_text_Learning_to_use_your_feet_is_no_little_feat__0_Layer0_0_MEMBER_19_FILL"/>
</g>

<g transform="matrix( 1.12249755859375, 0, 0, 1.1279449462890625, -8.8,-1.55) ">
<use xlink:href="#Suite_Toys_160x600_html5_psd_Asset_Suite_Products_Toys_text_Learning_to_use_your_feet_is_no_little_feat__0_Layer0_0_MEMBER_20_FILL"/>
</g>

<g transform="matrix( 1.12249755859375, 0, 0, 1.1279449462890625, -8.8,-1.55) ">
<use xlink:href="#Suite_Toys_160x600_html5_psd_Asset_Suite_Products_Toys_text_Learning_to_use_your_feet_is_no_little_feat__0_Layer0_0_MEMBER_21_FILL"/>
</g>

<g transform="matrix( 1.12249755859375, 0, 0, 1.1279449462890625, -8.8,-1.55) ">
<use xlink:href="#Suite_Toys_160x600_html5_psd_Asset_Suite_Products_Toys_text_Learning_to_use_your_feet_is_no_little_feat__0_Layer0_0_MEMBER_22_FILL"/>
</g>

<g transform="matrix( 1.12249755859375, 0, 0, 1.1279449462890625, -8.8,-1.55) ">
<use xlink:href="#Suite_Toys_160x600_html5_psd_Asset_Suite_Products_Toys_text_Learning_to_use_your_feet_is_no_little_feat__0_Layer0_0_MEMBER_23_FILL"/>
</g>

<g transform="matrix( 1.12249755859375, 0, 0, 1.1279449462890625, -8.8,-1.55) ">
<use xlink:href="#Suite_Toys_160x600_html5_psd_Asset_Suite_Products_Toys_text_Learning_to_use_your_feet_is_no_little_feat__0_Layer0_0_MEMBER_24_FILL"/>
</g>

<g transform="matrix( 1.12249755859375, 0, 0, 1.1279449462890625, -8.8,-1.55) ">
<use xlink:href="#Suite_Toys_160x600_html5_psd_Asset_Suite_Products_Toys_text_Learning_to_use_your_feet_is_no_little_feat__0_Layer0_0_MEMBER_25_FILL"/>
</g>

<g transform="matrix( 1.12249755859375, 0, 0, 1.1279449462890625, -8.8,-1.55) ">
<use xlink:href="#Suite_Toys_160x600_html5_psd_Asset_Suite_Products_Toys_text_Learning_to_use_your_feet_is_no_little_feat__0_Layer0_0_MEMBER_26_FILL"/>
</g>

<g transform="matrix( 1.12249755859375, 0, 0, 1.1279449462890625, -8.8,-1.55) ">
<use xlink:href="#Suite_Toys_160x600_html5_psd_Asset_Suite_Products_Toys_text_Learning_to_use_your_feet_is_no_little_feat__0_Layer0_0_MEMBER_27_FILL"/>
</g>

<g transform="matrix( 1.12249755859375, 0, 0, 1.1279449462890625, -8.8,-1.55) ">
<use xlink:href="#Suite_Toys_160x600_html5_psd_Asset_Suite_Products_Toys_text_Learning_to_use_your_feet_is_no_little_feat__0_Layer0_0_MEMBER_28_FILL"/>
</g>

<g transform="matrix( 1.12249755859375, 0, 0, 1.1279449462890625, -8.8,-1.55) ">
<use xlink:href="#Suite_Toys_160x600_html5_psd_Asset_Suite_Products_Toys_text_Learning_to_use_your_feet_is_no_little_feat__0_Layer0_0_MEMBER_29_FILL"/>
</g>

<g transform="matrix( 1.12249755859375, 0, 0, 1.1279449462890625, -8.8,-1.55) ">
<use xlink:href="#Suite_Toys_160x600_html5_psd_Asset_Suite_Products_Toys_text_Learning_to_use_your_feet_is_no_little_feat__0_Layer0_0_MEMBER_30_FILL"/>
</g>

<g transform="matrix( 1.12249755859375, 0, 0, 1.1279449462890625, -8.8,-1.55) ">
<use xlink:href="#Suite_Toys_160x600_html5_psd_Asset_Suite_Products_Toys_text_Learning_to_use_your_feet_is_no_little_feat__0_Layer0_0_MEMBER_31_FILL"/>
</g>

<g transform="matrix( 1.12249755859375, 0, 0, 1.1279449462890625, -8.8,-1.55) ">
<use xlink:href="#Suite_Toys_160x600_html5_psd_Asset_Suite_Products_Toys_text_Learning_to_use_your_feet_is_no_little_feat__0_Layer0_0_MEMBER_32_FILL"/>
</g>

<g transform="matrix( 1.12249755859375, 0, 0, 1.1279449462890625, -8.8,-1.55) ">
<use xlink:href="#Suite_Toys_160x600_html5_psd_Asset_Suite_Products_Toys_text_Learning_to_use_your_feet_is_no_little_feat__0_Layer0_0_MEMBER_33_FILL"/>
</g>

<g transform="matrix( 1.12249755859375, 0, 0, 1.1279449462890625, -8.8,-1.55) ">
<use xlink:href="#Suite_Toys_160x600_html5_psd_Asset_Suite_Products_Toys_text_Learning_to_use_your_feet_is_no_little_feat__0_Layer0_0_MEMBER_34_FILL"/>
</g>

<g transform="matrix( 1.12249755859375, 0, 0, 1.1279449462890625, -8.8,-1.55) ">
<use xlink:href="#Suite_Toys_160x600_html5_psd_Asset_Suite_Products_Toys_text_Learning_to_use_your_feet_is_no_little_feat__0_Layer0_0_MEMBER_35_FILL"/>
</g>
</g>
</svg>
