
<svg xmlns="http://www.w3.org/2000/svg" version="1.1" xmlns:xlink="http://www.w3.org/1999/xlink" preserveAspectRatio="none" x="0px" y="0px" width="320px" height="50px" viewBox="0 0 320 50">
<defs>
<g id="Suite_BabyGear_320x50_html5_psd_Asset_Suite_Products_Baby_Gear_Kick_start_their_development_0_Layer0_0_MEMBER_0_FILL">
<path fill="#FFFFFF" stroke="none" d="
M 67.9 4.65
L 67.9 1.95 60.2 1.95 60.2 4.6 62.2 4.6 56.3 10.5 56.3 4.6 58.5 4.6 58.5 1.95 51.35 1.95 51.35 4.65 53.3 4.65 53.3 16.75 51.35 16.75 51.35 19.45 58.5 19.45 58.5 16.75 56.3 16.75 56.3 13.95 58.85 11.45 63.7 19.45 67.9 19.45 67.9 16.75 65.55 16.75 61.1 9.45 66 4.65 67.9 4.65 Z"/>
</g>

<g id="Suite_BabyGear_320x50_html5_psd_Asset_Suite_Products_Baby_Gear_Kick_start_their_development_0_Layer0_0_MEMBER_1_FILL">
<path fill="#FFFFFF" stroke="none" d="
M 69.8 7.8
L 69.8 10.25 71.6 10.25 71.6 17.05 69.8 17.05 69.8 19.45 76.2 19.45 76.2 17.05 74.45 17.05 74.45 7.8 69.8 7.8
M 71.4 5.5
Q 71.95 6.05 72.7 6.05 73.5 6.05 74.1 5.5 74.7 4.9 74.7 4.1 74.7 3.3 74.1 2.75 73.55 2.2 72.75 2.2 72 2.2 71.4 2.75 70.8 3.35 70.8 4.1 70.8 4.9 71.4 5.5 Z"/>
</g>

<g id="Suite_BabyGear_320x50_html5_psd_Asset_Suite_Products_Baby_Gear_Kick_start_their_development_0_Layer0_0_MEMBER_2_FILL">
<path fill="#FFFFFF" stroke="none" d="
M 87.65 8.85
Q 86.1 7.6 83.85 7.6 81.35 7.6 79.6 9.45 77.95 11.15 77.95 13.5 77.95 16.25 79.8 18 81.55 19.65 84.35 19.65 86.65 19.65 88.5 18.6
L 88.75 16
Q 86.5 17.2 84.6 17.2 83 17.2 81.95 16.2 80.85 15.2 80.85 13.55 80.85 11.8 81.85 10.8 82.65 9.95 83.8 9.95 85.15 9.95 85.9 10.7 85.5 11.1 85.5 11.7 85.5 12.4 86 12.95 86.55 13.45 87.25 13.45 88.05 13.45 88.55 12.95 89.1 12.4 89.1 11.5 89.1 10.05 87.65 8.85 Z"/>
</g>

<g id="Suite_BabyGear_320x50_html5_psd_Asset_Suite_Products_Baby_Gear_Kick_start_their_development_0_Layer0_0_MEMBER_3_FILL">
<path fill="#FFFFFF" stroke="none" d="
M 104.25 10.25
L 104.25 7.8 97.35 7.8 97.35 10.1 99 10.1 95.6 13.05 95.6 0 91 0 91 2.45 92.7 2.45 92.7 17.05 91 17.05 91 19.45 97.05 19.45 97.05 17.1 95.6 17.1 95.6 15.6 97.25 14.2 100.6 19.45 104.25 19.45 104.25 17 102.35 17 99.4 12.55 102.1 10.25 104.25 10.25 Z"/>
</g>

<g id="Suite_BabyGear_320x50_html5_psd_Asset_Suite_Products_Baby_Gear_Kick_start_their_development_0_Layer0_0_MEMBER_4_FILL">
<path fill="#FFFFFF" stroke="none" d="
M 113.4 8.75
Q 112.25 9.75 112.25 11.25 112.25 12.7 113.35 13.5 114.3 14.2 116.85 14.85 119.1 15.5 119.1 16.25 119.1 17.5 117 17.5 115.8 17.5 114.9 17.15
L 114.95 16.65
Q 114.95 15.95 114.45 15.55 114 15.15 113.4 15.15 112.7 15.15 112.25 15.6 111.85 16.05 111.85 16.7 111.85 17.65 112.5 18.25 113.05 18.85 114.35 19.25 115.65 19.65 116.95 19.65 119.05 19.65 120.4 18.7 121.85 17.7 121.85 15.95 121.85 14.5 120.7 13.65 119.8 13.05 117.45 12.4 116.1 12 115.55 11.7 115 11.35 115 10.9 115 10.4 115.5 10.1 116.05 9.7 116.95 9.7 117.95 9.7 118.6 10
L 118.55 10.5
Q 118.55 11.15 119 11.55 119.4 11.95 120.1 11.95 120.75 11.95 121.15 11.5 121.55 11.1 121.55 10.4 121.55 9.5 120.9 8.9 120.3 8.3 119.2 7.95 118.05 7.55 117 7.55 114.7 7.55 113.4 8.75 Z"/>
</g>

<g id="Suite_BabyGear_320x50_html5_psd_Asset_Suite_Products_Baby_Gear_Kick_start_their_development_0_Layer0_0_MEMBER_5_FILL">
<path fill="#FFFFFF" stroke="none" d="
M 131.8 10.25
L 131.8 7.8 128.3 7.8 128.3 4.1 125.45 5.35 125.45 7.8 123.15 7.8 123.15 10.25 125.45 10.25 125.45 16.2
Q 125.45 17.35 125.8 18.05 126.65 19.65 128.95 19.65 130.35 19.65 131.75 18.95
L 132 16.45
Q 130.6 17.05 129.7 17.05 128.8 17.05 128.5 16.5 128.3 16.15 128.3 15.65
L 128.3 10.25 131.8 10.25 Z"/>
</g>

<g id="Suite_BabyGear_320x50_html5_psd_Asset_Suite_Products_Baby_Gear_Kick_start_their_development_0_Layer0_0_MEMBER_6_FILL">
<path fill="#FFFFFF" stroke="none" d="
M 145.8 19.45
L 145.8 17.05 144.1 17.05 144.1 12.1
Q 144.1 10.3 143.2 9.15 141.9 7.6 139 7.6 136.8 7.6 135.5 8.55 134.4 9.35 134.4 10.55 134.4 11.25 134.85 11.7 135.25 12.1 135.95 12.1 136.6 12.1 137.05 11.65 137.5 11.25 137.5 10.6
L 137.4 10
Q 137.9 9.8 138.55 9.8 140.15 9.8 140.8 10.65 141.25 11.25 141.25 12.25
L 141.25 13.2
Q 139.85 12.85 138.3 12.85 136.2 12.85 134.95 13.8 133.65 14.75 133.65 16.4 133.65 17.95 134.8 18.85 135.85 19.65 137.4 19.65 139.6 19.65 141.3 18.15
L 141.3 19.45 145.8 19.45
M 141.25 16.5
Q 139.9 17.55 138.35 17.55 136.65 17.55 136.65 16.1 136.65 15.3 137.25 14.85 137.85 14.4 138.9 14.4 140.3 14.4 141.25 14.7
L 141.25 16.5 Z"/>
</g>

<g id="Suite_BabyGear_320x50_html5_psd_Asset_Suite_Products_Baby_Gear_Kick_start_their_development_0_Layer0_0_MEMBER_7_FILL">
<path fill="#FFFFFF" stroke="none" d="
M 156.85 8.15
Q 156.3 7.6 155.25 7.6 153.35 7.6 151.55 10.45
L 151.55 7.8 147.05 7.8 147.05 10.25 148.8 10.25 148.8 17.05 147.05 17.05 147.05 19.45 153.7 19.45 153.7 17.05 151.65 17.05 151.65 12.5
Q 152.55 10.75 154 10.25 154.4 11.3 155.7 11.3 156.4 11.3 156.9 10.8 157.4 10.25 157.4 9.5 157.4 8.65 156.85 8.15 Z"/>
</g>

<g id="Suite_BabyGear_320x50_html5_psd_Asset_Suite_Products_Baby_Gear_Kick_start_their_development_0_Layer0_0_MEMBER_8_FILL">
<path fill="#FFFFFF" stroke="none" d="
M 163.15 7.8
L 163.15 4.1 160.25 5.35 160.25 7.8 158 7.8 158 10.25 160.25 10.25 160.25 16.2
Q 160.25 17.25 160.65 18.05 161.5 19.65 163.8 19.65 165.2 19.65 166.6 18.95
L 166.85 16.45
Q 165.45 17.05 164.55 17.05 163.65 17.05 163.35 16.5 163.15 16.15 163.15 15.65
L 163.15 10.25 166.65 10.25 166.65 7.8 163.15 7.8 Z"/>
</g>

<g id="Suite_BabyGear_320x50_html5_psd_Asset_Suite_Products_Baby_Gear_Kick_start_their_development_0_Layer0_0_MEMBER_9_FILL">
<path fill="#FFFFFF" stroke="none" d="
M 31.65 30.1
L 31.65 31.9 30 31.9 30 33.7 31.65 33.7 31.65 38.05
Q 31.65 38.9 31.95 39.4 32.6 40.6 34.25 40.6 35.2 40.6 36.3 40.05
L 36.45 38.25
Q 35.55 38.7 34.8 38.7 34.15 38.7 33.9 38.3 33.75 38 33.75 37.65
L 33.75 33.7 36.35 33.7 36.35 31.9 33.75 31.9 33.75 29.2 31.65 30.1 Z"/>
</g>

<g id="Suite_BabyGear_320x50_html5_psd_Asset_Suite_Products_Baby_Gear_Kick_start_their_development_0_Layer0_0_MEMBER_10_FILL">
<path fill="#FFFFFF" stroke="none" d="
M 40.9 33.2
L 40.9 26.15 37.5 26.15 37.5 27.95 38.8 27.95 38.8 38.65 37.5 38.65 37.5 40.4 42.05 40.4 42.05 38.65 40.9 38.65 40.9 34.65
Q 42.15 33.65 43.1 33.65 43.75 33.65 44.05 34.1 44.35 34.4 44.35 35.1
L 44.35 38.65 43.15 38.65 43.15 40.4 47.7 40.4 47.7 38.65 46.45 38.65 46.45 34.6
Q 46.45 33.45 45.9 32.65 45.25 31.75 43.8 31.75 42.35 31.75 40.9 33.2 Z"/>
</g>

<g id="Suite_BabyGear_320x50_html5_psd_Asset_Suite_Products_Baby_Gear_Kick_start_their_development_0_Layer0_0_MEMBER_11_FILL">
<path fill="#FFFFFF" stroke="none" d="
M 50.75 36.9
L 56.95 36.9 57 35.85
Q 57 34.05 55.95 32.95 54.85 31.75 52.9 31.75 50.95 31.75 49.75 33.05 48.55 34.3 48.55 36.2 48.55 38.2 49.85 39.4 51.15 40.6 53.25 40.6 55.2 40.6 56.5 39.8
L 56.65 37.9
Q 55.1 38.8 53.6 38.8 51.2 38.8 50.75 36.9
M 50.75 35.4
Q 51.1 33.45 52.85 33.45 53.75 33.45 54.35 34 54.85 34.5 54.9 35.4
L 50.75 35.4 Z"/>
</g>

<g id="Suite_BabyGear_320x50_html5_psd_Asset_Suite_Products_Baby_Gear_Kick_start_their_development_0_Layer0_0_MEMBER_12_FILL">
<path fill="#FFFFFF" stroke="none" d="
M 58.25 31.9
L 58.25 33.7 59.55 33.7 59.55 38.65 58.25 38.65 58.25 40.4 62.95 40.4 62.95 38.65 61.65 38.65 61.65 31.9 58.25 31.9
M 59.4 30.2
Q 59.85 30.6 60.4 30.6 60.95 30.6 61.4 30.2 61.85 29.75 61.85 29.2 61.85 28.6 61.45 28.2 61 27.8 60.45 27.8 59.85 27.8 59.45 28.2 59 28.6 59 29.2 59 29.75 59.4 30.2 Z"/>
</g>

<g id="Suite_BabyGear_320x50_html5_psd_Asset_Suite_Products_Baby_Gear_Kick_start_their_development_0_Layer0_0_MEMBER_13_FILL">
<path fill="#FFFFFF" stroke="none" d="
M 71.4 34.05
Q 71.75 33.7 71.75 33.15 71.75 31.75 70.2 31.75 68.85 31.75 67.45 33.8
L 67.45 31.9 64.15 31.9 64.15 33.7 65.45 33.7 65.45 38.65 64.15 38.65 64.15 40.4 69.05 40.4 69.05 38.65 67.55 38.65 67.55 35.3
Q 68.3 34.05 69.25 33.7 69.55 34.45 70.5 34.45 71 34.45 71.4 34.05 Z"/>
</g>

<g id="Suite_BabyGear_320x50_html5_psd_Asset_Suite_Products_Baby_Gear_Kick_start_their_development_0_Layer0_0_MEMBER_14_FILL">
<path fill="#FFFFFF" stroke="none" d="
M 83.45 32.55
Q 82.45 31.75 81.05 31.75 79.35 31.75 78.15 33.05 76.95 34.35 76.95 36.2 76.95 38.1 78.1 39.35 79.2 40.6 80.9 40.6 82.25 40.6 83.45 39.5
L 83.45 40.4 86.8 40.4 86.8 38.65 85.55 38.65 85.55 26.15 82.15 26.15 82.15 27.95 83.45 27.95 83.45 32.55
M 81.4 33.55
Q 82.4 33.55 83.45 34.25
L 83.45 37.9
Q 82.45 38.75 81.4 38.75 80.45 38.75 79.8 38.1 79.15 37.35 79.15 36.2 79.15 35 79.85 34.25 80.45 33.55 81.4 33.55 Z"/>
</g>

<g id="Suite_BabyGear_320x50_html5_psd_Asset_Suite_Products_Baby_Gear_Kick_start_their_development_0_Layer0_0_MEMBER_15_FILL">
<path fill="#FFFFFF" stroke="none" d="
M 95.3 32.95
Q 94.2 31.75 92.2 31.75 90.3 31.75 89.1 33.05 87.9 34.3 87.9 36.2 87.9 38.2 89.2 39.4 90.5 40.6 92.6 40.6 94.55 40.6 95.85 39.8
L 96 37.9
Q 94.35 38.8 92.9 38.8 90.55 38.8 90.1 36.9
L 96.25 36.9 96.35 35.85
Q 96.35 34.05 95.3 32.95
M 93.7 34
Q 94.2 34.5 94.25 35.4
L 90.1 35.4
Q 90.4 33.45 92.2 33.45 93.1 33.45 93.7 34 Z"/>
</g>

<g id="Suite_BabyGear_320x50_html5_psd_Asset_Suite_Products_Baby_Gear_Kick_start_their_development_0_Layer0_0_MEMBER_16_FILL">
<path fill="#FFFFFF" stroke="none" d="
M 97.05 33.7
L 98.05 33.7 101.45 40.6 102.95 40.6 106.35 33.7 107.35 33.7 107.35 31.9 103 31.9 103 33.6 104.3 33.6 102.25 38.05 100.2 33.6 101.4 33.6 101.4 31.9 97.05 31.9 97.05 33.7 Z"/>
</g>

<g id="Suite_BabyGear_320x50_html5_psd_Asset_Suite_Products_Baby_Gear_Kick_start_their_development_0_Layer0_0_MEMBER_17_FILL">
<path fill="#FFFFFF" stroke="none" d="
M 115.25 32.95
Q 114.1 31.75 112.15 31.75 110.2 31.75 109 33.05 107.8 34.3 107.8 36.2 107.8 38.2 109.15 39.4 110.45 40.6 112.55 40.6 114.45 40.6 115.75 39.8
L 115.95 37.9
Q 114.3 38.8 112.85 38.8 110.5 38.8 110.05 36.9
L 116.2 36.9 116.3 35.85
Q 116.3 34.05 115.25 32.95
M 113.6 34
Q 114.15 34.55 114.15 35.4
L 110 35.4
Q 110.35 33.45 112.1 33.45 113.05 33.45 113.6 34 Z"/>
</g>

<g id="Suite_BabyGear_320x50_html5_psd_Asset_Suite_Products_Baby_Gear_Kick_start_their_development_0_Layer0_0_MEMBER_18_FILL">
<path fill="#FFFFFF" stroke="none" d="
M 122.1 40.4
L 122.1 38.65 120.85 38.65 120.85 26.15 117.4 26.15 117.4 27.95 118.7 27.95 118.7 38.65 117.4 38.65 117.4 40.4 122.1 40.4 Z"/>
</g>

<g id="Suite_BabyGear_320x50_html5_psd_Asset_Suite_Products_Baby_Gear_Kick_start_their_development_0_Layer0_0_MEMBER_19_FILL">
<path fill="#FFFFFF" stroke="none" d="
M 124.55 33.05
Q 123.3 34.3 123.3 36.15 123.3 38 124.5 39.3 125.8 40.6 127.85 40.6 129.85 40.6 131.15 39.25 132.35 38 132.35 36.15 132.35 34.3 131.15 33.05 129.9 31.75 127.85 31.75 125.8 31.75 124.55 33.05
M 129.55 34.25
Q 130.2 35 130.2 36.15 130.2 37.3 129.55 38.05 128.85 38.8 127.85 38.8 126.8 38.8 126.15 38.05 125.45 37.3 125.45 36.15 125.45 35 126.15 34.25 126.8 33.5 127.85 33.5 128.85 33.5 129.55 34.25 Z"/>
</g>

<g id="Suite_BabyGear_320x50_html5_psd_Asset_Suite_Products_Baby_Gear_Kick_start_their_development_0_Layer0_0_MEMBER_20_FILL">
<path fill="#FFFFFF" stroke="none" d="
M 133.55 33.7
L 134.8 33.7 134.8 42.5 133.55 42.5 133.55 44.25 138.3 44.25 138.3 42.5 136.9 42.5 136.9 39.75
Q 138 40.6 139.25 40.6 140.95 40.6 142.1 39.3 143.25 38 143.25 36.1 143.25 34.2 142.15 32.95 141.05 31.75 139.35 31.75 138.05 31.75 136.85 32.85
L 136.85 31.9 133.55 31.9 133.55 33.7
M 140.45 34.25
Q 141.1 34.95 141.1 36.15 141.1 37.35 140.45 38.1 139.8 38.75 138.9 38.75 137.8 38.75 136.9 38.1
L 136.9 34.45
Q 137.9 33.55 138.9 33.55 139.85 33.55 140.45 34.25 Z"/>
</g>

<g id="Suite_BabyGear_320x50_html5_psd_Asset_Suite_Products_Baby_Gear_Kick_start_their_development_0_Layer0_0_MEMBER_21_FILL">
<path fill="#FFFFFF" stroke="none" d="
M 153 33.15
L 152.75 32.65
Q 152 31.75 150.7 31.75 149.15 31.75 147.85 33.25
L 147.85 31.9 144.55 31.9 144.55 33.7 145.8 33.7 145.8 38.65 144.55 38.65 144.55 40.4 149.05 40.4 149.05 38.65 147.9 38.65 147.9 34.6
Q 149.15 33.65 150 33.65 150.8 33.65 151 34.25 151.15 34.65 151.15 35.05
L 151.15 38.65 150 38.65 150 40.4 154.4 40.4 154.4 38.65 153.25 38.65 153.25 34.6
Q 154.5 33.65 155.35 33.65 156.15 33.65 156.35 34.25 156.5 34.65 156.5 35.05
L 156.5 38.65 155.35 38.65 155.35 40.4 159.9 40.4 159.9 38.65 158.6 38.65 158.6 34.55
Q 158.6 33.6 158.25 32.95 157.65 31.75 155.85 31.75 154.4 31.75 153 33.15 Z"/>
</g>

<g id="Suite_BabyGear_320x50_html5_psd_Asset_Suite_Products_Baby_Gear_Kick_start_their_development_0_Layer0_0_MEMBER_22_FILL">
<path fill="#FFFFFF" stroke="none" d="
M 162.95 36.9
L 169.1 36.9 169.2 35.85
Q 169.2 34.05 168.15 32.95 167 31.75 165.05 31.75 163.1 31.75 161.9 33.05 160.7 34.3 160.7 36.2 160.7 38.2 162.05 39.4 163.35 40.6 165.45 40.6 167.35 40.6 168.65 39.8
L 168.85 37.9
Q 167.2 38.8 165.75 38.8 163.4 38.8 162.95 36.9
M 162.9 35.4
Q 163.25 33.45 165.05 33.45 165.95 33.45 166.5 34 167.05 34.55 167.05 35.4
L 162.9 35.4 Z"/>
</g>

<g id="Suite_BabyGear_320x50_html5_psd_Asset_Suite_Products_Baby_Gear_Kick_start_their_development_0_Layer0_0_MEMBER_23_FILL">
<path fill="#FFFFFF" stroke="none" d="
M 173.7 33.25
L 173.7 31.9 170.4 31.9 170.4 33.7 171.65 33.7 171.65 38.65 170.4 38.65 170.4 40.4 174.95 40.4 174.95 38.65 173.8 38.65 173.8 34.65
Q 175 33.65 176 33.65 176.75 33.65 177.05 34.25 177.2 34.55 177.2 35.1
L 177.2 38.65 176.05 38.65 176.05 40.4 180.6 40.4 180.6 38.65 179.35 38.65 179.35 34.6
Q 179.35 33.55 178.9 32.85 178.2 31.75 176.7 31.75 175.2 31.75 173.7 33.25 Z"/>
</g>

<g id="Suite_BabyGear_320x50_html5_psd_Asset_Suite_Products_Baby_Gear_Kick_start_their_development_0_Layer0_0_MEMBER_24_FILL">
<path fill="#FFFFFF" stroke="none" d="
M 181.1 31.9
L 181.1 33.7 182.75 33.7 182.75 38.05
Q 182.75 38.9 183.05 39.4 183.6 40.6 185.35 40.6 186.35 40.6 187.35 40.05
L 187.55 38.25
Q 186.65 38.7 185.85 38.7 185.25 38.7 184.95 38.3
L 184.85 37.65 184.85 33.7 187.45 33.7 187.45 31.9 184.85 31.9 184.85 29.2 182.75 30.1 182.75 31.9 181.1 31.9 Z"/>
</g>
</defs>

<g transform="matrix( 1, 0, 0, 1, 24,21) ">
<g transform="matrix( 0.5689849853515625, 0, 0, 0.567535400390625, -16.15,0.4) ">
<use xlink:href="#Suite_BabyGear_320x50_html5_psd_Asset_Suite_Products_Baby_Gear_Kick_start_their_development_0_Layer0_0_MEMBER_0_FILL"/>
</g>

<g transform="matrix( 0.5689849853515625, 0, 0, 0.567535400390625, -16.15,0.4) ">
<use xlink:href="#Suite_BabyGear_320x50_html5_psd_Asset_Suite_Products_Baby_Gear_Kick_start_their_development_0_Layer0_0_MEMBER_1_FILL"/>
</g>

<g transform="matrix( 0.5689849853515625, 0, 0, 0.567535400390625, -16.15,0.4) ">
<use xlink:href="#Suite_BabyGear_320x50_html5_psd_Asset_Suite_Products_Baby_Gear_Kick_start_their_development_0_Layer0_0_MEMBER_2_FILL"/>
</g>

<g transform="matrix( 0.5689849853515625, 0, 0, 0.567535400390625, -16.15,0.4) ">
<use xlink:href="#Suite_BabyGear_320x50_html5_psd_Asset_Suite_Products_Baby_Gear_Kick_start_their_development_0_Layer0_0_MEMBER_3_FILL"/>
</g>

<g transform="matrix( 0.5689849853515625, 0, 0, 0.567535400390625, -16.15,0.4) ">
<use xlink:href="#Suite_BabyGear_320x50_html5_psd_Asset_Suite_Products_Baby_Gear_Kick_start_their_development_0_Layer0_0_MEMBER_4_FILL"/>
</g>

<g transform="matrix( 0.5689849853515625, 0, 0, 0.567535400390625, -16.15,0.4) ">
<use xlink:href="#Suite_BabyGear_320x50_html5_psd_Asset_Suite_Products_Baby_Gear_Kick_start_their_development_0_Layer0_0_MEMBER_5_FILL"/>
</g>

<g transform="matrix( 0.5689849853515625, 0, 0, 0.567535400390625, -16.15,0.4) ">
<use xlink:href="#Suite_BabyGear_320x50_html5_psd_Asset_Suite_Products_Baby_Gear_Kick_start_their_development_0_Layer0_0_MEMBER_6_FILL"/>
</g>

<g transform="matrix( 0.5689849853515625, 0, 0, 0.567535400390625, -16.15,0.4) ">
<use xlink:href="#Suite_BabyGear_320x50_html5_psd_Asset_Suite_Products_Baby_Gear_Kick_start_their_development_0_Layer0_0_MEMBER_7_FILL"/>
</g>

<g transform="matrix( 0.5689849853515625, 0, 0, 0.567535400390625, -16.15,0.4) ">
<use xlink:href="#Suite_BabyGear_320x50_html5_psd_Asset_Suite_Products_Baby_Gear_Kick_start_their_development_0_Layer0_0_MEMBER_8_FILL"/>
</g>

<g transform="matrix( 0.5689849853515625, 0, 0, 0.567535400390625, -16.15,0.4) ">
<use xlink:href="#Suite_BabyGear_320x50_html5_psd_Asset_Suite_Products_Baby_Gear_Kick_start_their_development_0_Layer0_0_MEMBER_9_FILL"/>
</g>

<g transform="matrix( 0.5689849853515625, 0, 0, 0.567535400390625, -16.15,0.4) ">
<use xlink:href="#Suite_BabyGear_320x50_html5_psd_Asset_Suite_Products_Baby_Gear_Kick_start_their_development_0_Layer0_0_MEMBER_10_FILL"/>
</g>

<g transform="matrix( 0.5689849853515625, 0, 0, 0.567535400390625, -16.15,0.4) ">
<use xlink:href="#Suite_BabyGear_320x50_html5_psd_Asset_Suite_Products_Baby_Gear_Kick_start_their_development_0_Layer0_0_MEMBER_11_FILL"/>
</g>

<g transform="matrix( 0.5689849853515625, 0, 0, 0.567535400390625, -16.15,0.4) ">
<use xlink:href="#Suite_BabyGear_320x50_html5_psd_Asset_Suite_Products_Baby_Gear_Kick_start_their_development_0_Layer0_0_MEMBER_12_FILL"/>
</g>

<g transform="matrix( 0.5689849853515625, 0, 0, 0.567535400390625, -16.15,0.4) ">
<use xlink:href="#Suite_BabyGear_320x50_html5_psd_Asset_Suite_Products_Baby_Gear_Kick_start_their_development_0_Layer0_0_MEMBER_13_FILL"/>
</g>

<g transform="matrix( 0.5689849853515625, 0, 0, 0.567535400390625, -16.15,0.4) ">
<use xlink:href="#Suite_BabyGear_320x50_html5_psd_Asset_Suite_Products_Baby_Gear_Kick_start_their_development_0_Layer0_0_MEMBER_14_FILL"/>
</g>

<g transform="matrix( 0.5689849853515625, 0, 0, 0.567535400390625, -16.15,0.4) ">
<use xlink:href="#Suite_BabyGear_320x50_html5_psd_Asset_Suite_Products_Baby_Gear_Kick_start_their_development_0_Layer0_0_MEMBER_15_FILL"/>
</g>

<g transform="matrix( 0.5689849853515625, 0, 0, 0.567535400390625, -16.15,0.4) ">
<use xlink:href="#Suite_BabyGear_320x50_html5_psd_Asset_Suite_Products_Baby_Gear_Kick_start_their_development_0_Layer0_0_MEMBER_16_FILL"/>
</g>

<g transform="matrix( 0.5689849853515625, 0, 0, 0.567535400390625, -16.15,0.4) ">
<use xlink:href="#Suite_BabyGear_320x50_html5_psd_Asset_Suite_Products_Baby_Gear_Kick_start_their_development_0_Layer0_0_MEMBER_17_FILL"/>
</g>

<g transform="matrix( 0.5689849853515625, 0, 0, 0.567535400390625, -16.15,0.4) ">
<use xlink:href="#Suite_BabyGear_320x50_html5_psd_Asset_Suite_Products_Baby_Gear_Kick_start_their_development_0_Layer0_0_MEMBER_18_FILL"/>
</g>

<g transform="matrix( 0.5689849853515625, 0, 0, 0.567535400390625, -16.15,0.4) ">
<use xlink:href="#Suite_BabyGear_320x50_html5_psd_Asset_Suite_Products_Baby_Gear_Kick_start_their_development_0_Layer0_0_MEMBER_19_FILL"/>
</g>

<g transform="matrix( 0.5689849853515625, 0, 0, 0.567535400390625, -16.15,0.4) ">
<use xlink:href="#Suite_BabyGear_320x50_html5_psd_Asset_Suite_Products_Baby_Gear_Kick_start_their_development_0_Layer0_0_MEMBER_20_FILL"/>
</g>

<g transform="matrix( 0.5689849853515625, 0, 0, 0.567535400390625, -16.15,0.4) ">
<use xlink:href="#Suite_BabyGear_320x50_html5_psd_Asset_Suite_Products_Baby_Gear_Kick_start_their_development_0_Layer0_0_MEMBER_21_FILL"/>
</g>

<g transform="matrix( 0.5689849853515625, 0, 0, 0.567535400390625, -16.15,0.4) ">
<use xlink:href="#Suite_BabyGear_320x50_html5_psd_Asset_Suite_Products_Baby_Gear_Kick_start_their_development_0_Layer0_0_MEMBER_22_FILL"/>
</g>

<g transform="matrix( 0.5689849853515625, 0, 0, 0.567535400390625, -16.15,0.4) ">
<use xlink:href="#Suite_BabyGear_320x50_html5_psd_Asset_Suite_Products_Baby_Gear_Kick_start_their_development_0_Layer0_0_MEMBER_23_FILL"/>
</g>

<g transform="matrix( 0.5689849853515625, 0, 0, 0.567535400390625, -16.15,0.4) ">
<use xlink:href="#Suite_BabyGear_320x50_html5_psd_Asset_Suite_Products_Baby_Gear_Kick_start_their_development_0_Layer0_0_MEMBER_24_FILL"/>
</g>
</g>
</svg>
