
<svg xmlns="http://www.w3.org/2000/svg" version="1.1" xmlns:xlink="http://www.w3.org/1999/xlink" preserveAspectRatio="none" x="0px" y="0px" width="300px" height="600px" viewBox="0 0 300 600">
<defs>
<g id="Suite_Toys_300x600_html5_psd_Asset_Suite_Products_Toys_text_Little_People__Animal_Friends_Farm___0_Layer0_0_MEMBER_0_FILL">
<path fill="#6B6E71" stroke="none" d="
M 63.05 9.25
L 63.05 7 61.95 7 61.95 8.25 59.3 8.25 59.3 1.95 60.45 1.95 60.45 0.95 57.15 0.95 57.15 1.95 58.15 1.95 58.15 8.25 57.15 8.25 57.15 9.25 63.05 9.25 Z"/>
</g>

<g id="Suite_Toys_300x600_html5_psd_Asset_Suite_Products_Toys_text_Little_People__Animal_Friends_Farm___0_Layer0_0_MEMBER_1_FILL">
<path fill="#6B6E71" stroke="none" d="
M 64.05 4.75
L 64.95 4.75 64.95 8.35 64.05 8.35 64.05 9.25 66.9 9.25 66.9 8.35 66.05 8.35 66.05 3.8 64.05 3.8 64.05 4.75
M 66.15 1.85
Q 66.15 1.55 65.95 1.35 65.7 1.1 65.4 1.1 64.6 1.1 64.6 1.85 64.6 2.65 65.35 2.65 66.15 2.65 66.15 1.85 Z"/>
</g>

<g id="Suite_Toys_300x600_html5_psd_Asset_Suite_Products_Toys_text_Little_People__Animal_Friends_Farm___0_Layer0_0_MEMBER_2_FILL">
<path fill="#6B6E71" stroke="none" d="
M 71.25 4.75
L 71.25 3.8 69.6 3.8 69.6 2.1 68.5 2.55 68.5 3.8 67.5 3.8 67.5 4.75 68.5 4.75 68.5 7.9
Q 68.5 8.2 68.7 8.7 69 9.35 70 9.35 70.6 9.35 71.2 9.05
L 71.35 8.05
Q 70.55 8.4 70.3 8.4 69.85 8.4 69.7 8.1
L 69.6 7.7 69.6 4.75 71.25 4.75 Z"/>
</g>

<g id="Suite_Toys_300x600_html5_psd_Asset_Suite_Products_Toys_text_Little_People__Animal_Friends_Farm___0_Layer0_0_MEMBER_3_FILL">
<path fill="#6B6E71" stroke="none" d="
M 72.9 3.8
L 71.9 3.8 71.9 4.75 72.9 4.75 72.9 7.9
Q 72.9 8.2 73.1 8.7 73.4 9.35 74.4 9.35 75 9.35 75.6 9.05
L 75.75 8.05
Q 74.95 8.4 74.7 8.4 74.25 8.4 74.1 8.1
L 74 7.7 74 4.75 75.65 4.75 75.65 3.8 74 3.8 74 2.1 72.9 2.55 72.9 3.8 Z"/>
</g>

<g id="Suite_Toys_300x600_html5_psd_Asset_Suite_Products_Toys_text_Little_People__Animal_Friends_Farm___0_Layer0_0_MEMBER_4_FILL">
<path fill="#6B6E71" stroke="none" d="
M 78.35 0
L 76.35 0 76.35 0.95 77.25 0.95 77.25 8.35 76.35 8.35 76.35 9.25 79.2 9.25 79.2 8.35 78.35 8.35 78.35 0 Z"/>
</g>

<g id="Suite_Toys_300x600_html5_psd_Asset_Suite_Products_Toys_text_Little_People__Animal_Friends_Farm___0_Layer0_0_MEMBER_5_FILL">
<path fill="#6B6E71" stroke="none" d="
M 84.7 4.5
Q 84 3.7 82.75 3.7 81.55 3.7 80.8 4.55 80.05 5.35 80.05 6.55 80.05 7.8 80.85 8.55 81.7 9.35 83 9.35 84.2 9.35 85 8.85
L 85.1 7.85
Q 84 8.45 83.2 8.45 81.45 8.45 81.2 6.9
L 85.3 6.9 85.35 6.3
Q 85.35 5.2 84.7 4.5
M 81.2 6.05
Q 81.45 4.6 82.75 4.6 84.15 4.6 84.25 6.05
L 81.2 6.05 Z"/>
</g>

<g id="Suite_Toys_300x600_html5_psd_Asset_Suite_Products_Toys_text_Little_People__Animal_Friends_Farm___0_Layer0_0_MEMBER_6_FILL">
<path fill="#6B6E71" stroke="none" d="
M 94.65 5.65
Q 95.55 4.9 95.55 3.6 95.55 2.4 94.65 1.65 93.8 0.95 92.45 0.95
L 89.2 0.95 89.2 1.95 90.2 1.95 90.2 8.25 89.2 8.25 89.2 9.25 92.45 9.25 92.45 8.25 91.35 8.25 91.35 6.35 92.35 6.35
Q 93.8 6.35 94.65 5.65
M 91.35 1.95
L 92.4 1.95
Q 93.25 1.95 93.8 2.4 94.35 2.85 94.35 3.6 94.35 5.35 92.45 5.35
L 91.35 5.35 91.35 1.95 Z"/>
</g>

<g id="Suite_Toys_300x600_html5_psd_Asset_Suite_Products_Toys_text_Little_People__Animal_Friends_Farm___0_Layer0_0_MEMBER_7_FILL">
<path fill="#6B6E71" stroke="none" d="
M 101.5 6.9
L 101.55 6.3
Q 101.55 5.2 100.9 4.5 100.2 3.7 99 3.7 97.75 3.7 97 4.55 96.25 5.35 96.25 6.55 96.25 7.8 97.05 8.55 97.9 9.35 99.2 9.35 100.4 9.35 101.25 8.85
L 101.3 7.85
Q 100.25 8.45 99.4 8.45 97.65 8.45 97.4 6.9
L 101.5 6.9
M 97.4 6.05
Q 97.65 4.6 98.95 4.6 100.35 4.6 100.45 6.05
L 97.4 6.05 Z"/>
</g>

<g id="Suite_Toys_300x600_html5_psd_Asset_Suite_Products_Toys_text_Little_People__Animal_Friends_Farm___0_Layer0_0_MEMBER_8_FILL">
<path fill="#6B6E71" stroke="none" d="
M 105.35 3.7
Q 104.05 3.7 103.25 4.55 102.5 5.35 102.5 6.55 102.5 7.7 103.25 8.5 104.1 9.35 105.35 9.35 106.65 9.35 107.45 8.5 108.2 7.7 108.2 6.55 108.2 5.35 107.45 4.55 106.65 3.7 105.35 3.7
M 104.1 5.2
Q 104.6 4.65 105.35 4.65 106.1 4.65 106.6 5.2 107.1 5.75 107.1 6.55 107.1 7.35 106.6 7.9 106.1 8.45 105.35 8.45 104.6 8.45 104.1 7.9 103.6 7.35 103.6 6.55 103.6 5.75 104.1 5.2 Z"/>
</g>

<g id="Suite_Toys_300x600_html5_psd_Asset_Suite_Products_Toys_text_Little_People__Animal_Friends_Farm___0_Layer0_0_MEMBER_9_FILL">
<path fill="#6B6E71" stroke="none" d="
M 114.5 4.5
Q 113.75 3.7 112.7 3.7 111.75 3.7 110.95 4.5
L 110.95 3.8 109.05 3.8 109.05 4.75 109.9 4.75 109.9 10.85 109.05 10.85 109.05 11.75 111.95 11.75 111.95 10.85 111 10.85 111 8.8
Q 111.7 9.35 112.6 9.35 113.75 9.35 114.5 8.5 115.25 7.7 115.25 6.5 115.25 5.3 114.5 4.5
M 112.5 4.65
Q 113.2 4.65 113.65 5.15 114.1 5.7 114.1 6.5 114.1 7.35 113.65 7.9 113.15 8.4 112.45 8.4 111.65 8.4 111 7.9
L 111 5.35
Q 111.7 4.65 112.5 4.65 Z"/>
</g>

<g id="Suite_Toys_300x600_html5_psd_Asset_Suite_Products_Toys_text_Little_People__Animal_Friends_Farm___0_Layer0_0_MEMBER_10_FILL">
<path fill="#6B6E71" stroke="none" d="
M 116.15 0
L 116.15 0.95 117 0.95 117 8.35 116.15 8.35 116.15 9.25 118.95 9.25 118.95 8.35 118.1 8.35 118.1 0 116.15 0 Z"/>
</g>

<g id="Suite_Toys_300x600_html5_psd_Asset_Suite_Products_Toys_text_Little_People__Animal_Friends_Farm___0_Layer0_0_MEMBER_11_FILL">
<path fill="#6B6E71" stroke="none" d="
M 124.9 7.85
Q 123.8 8.45 122.95 8.45 121.2 8.45 120.95 6.9
L 125.05 6.9 125.1 6.3
Q 125.1 5.2 124.45 4.5 123.75 3.7 122.55 3.7 121.35 3.7 120.6 4.55 119.85 5.35 119.85 6.55 119.85 7.8 120.65 8.55 121.45 9.35 122.8 9.35 123.95 9.35 124.8 8.85
L 124.9 7.85
M 122.5 4.6
Q 123.9 4.6 124 6.05
L 120.95 6.05
Q 121.2 4.6 122.5 4.6 Z"/>
</g>

<g id="Suite_Toys_300x600_html5_psd_Asset_Suite_Products_Toys_text_Little_People__Animal_Friends_Farm___0_Layer0_0_MEMBER_12_FILL">
<path fill="#6B6E71" stroke="none" d="
M 130.35 2.75
Q 130.35 1.8 129.7 1.15 129.05 0.5 128.1 0.5 127.15 0.5 126.45 1.15 125.8 1.8 125.8 2.75 125.8 3.7 126.45 4.35 127.15 5 128.1 5 129.05 5 129.7 4.35 130.35 3.7 130.35 2.75
M 129.35 1.45
Q 129.9 2 129.9 2.75 129.9 3.55 129.35 4.05 128.85 4.6 128.1 4.6 127.35 4.6 126.85 4.05 126.3 3.55 126.3 2.75 126.3 1.95 126.85 1.45 127.35 0.95 128.1 0.95 128.85 0.95 129.35 1.45
M 127.2 1.65
L 127.2 2.05 127.45 2.05 127.45 3.4 127.2 3.4 127.2 3.8 128.1 3.8 128.1 3.4 127.85 3.4 127.85 3 128.15 3 128.55 3.8 129.05 3.8 129.05 3.4 128.85 3.4 128.55 2.9
Q 128.95 2.7 128.95 2.3 128.95 1.65 128.1 1.65
L 127.2 1.65
M 128.05 2.65
L 127.85 2.65 127.85 2.05 128.05 2.05
Q 128.5 2.05 128.5 2.35 128.5 2.65 128.05 2.65 Z"/>
</g>

<g id="Suite_Toys_300x600_html5_psd_Asset_Suite_Products_Toys_text_Little_People__Animal_Friends_Farm___0_Layer0_0_MEMBER_13_FILL">
<path fill="#6B6E71" stroke="none" d="
M 142.1 9.25
L 142.1 8.25 141.35 8.25 139 1.95 139.95 1.95 139.95 0.95 135.8 0.95 135.8 1.95 136.7 1.95 134.4 8.25 133.65 8.25 133.65 9.25 136.6 9.25 136.6 8.25 135.6 8.25 136.2 6.5 139.5 6.5 140.1 8.25 139.15 8.25 139.15 9.25 142.1 9.25
M 137.85 1.9
L 139.15 5.55 136.55 5.55 137.85 1.9 Z"/>
</g>

<g id="Suite_Toys_300x600_html5_psd_Asset_Suite_Products_Toys_text_Little_People__Animal_Friends_Farm___0_Layer0_0_MEMBER_14_FILL">
<path fill="#6B6E71" stroke="none" d="
M 148.35 5.55
Q 148.35 4.9 148.1 4.4 147.65 3.7 146.65 3.7 145.7 3.7 144.65 4.75
L 144.65 3.8 142.8 3.8 142.8 4.75 143.65 4.75 143.65 8.35 142.8 8.35 142.8 9.25 145.5 9.25 145.5 8.35 144.7 8.35 144.7 5.55
Q 145.45 4.7 146.35 4.7 146.95 4.7 147.15 5.15 147.25 5.3 147.25 5.8
L 147.25 8.35 146.45 8.35 146.45 9.25 149.2 9.25 149.2 8.35 148.35 8.35 148.35 5.55 Z"/>
</g>

<g id="Suite_Toys_300x600_html5_psd_Asset_Suite_Products_Toys_text_Little_People__Animal_Friends_Farm___0_Layer0_0_MEMBER_15_FILL">
<path fill="#6B6E71" stroke="none" d="
M 151.25 1.1
Q 150.95 1.1 150.75 1.35 150.5 1.55 150.5 1.85 150.5 2.2 150.75 2.4 150.95 2.65 151.25 2.65 152.05 2.65 152.05 1.85 152.05 1.1 151.25 1.1
M 151.95 8.35
L 151.95 3.8 149.95 3.8 149.95 4.75 150.85 4.75 150.85 8.35 149.95 8.35 149.95 9.25 152.8 9.25 152.8 8.35 151.95 8.35 Z"/>
</g>

<g id="Suite_Toys_300x600_html5_psd_Asset_Suite_Products_Toys_text_Little_People__Animal_Friends_Farm___0_Layer0_0_MEMBER_16_FILL">
<path fill="#6B6E71" stroke="none" d="
M 162.65 5.55
Q 162.65 5.1 162.45 4.5 162.05 3.7 160.9 3.7 160 3.7 159 4.7
L 158.85 4.35
Q 158.35 3.7 157.5 3.7 156.6 3.7 155.55 4.75
L 155.55 3.8 153.7 3.8 153.7 4.75 154.55 4.75 154.55 8.35 153.7 8.35 153.7 9.25 156.4 9.25 156.4 8.35 155.6 8.35 155.6 5.5
Q 156.5 4.7 157.2 4.7 157.75 4.7 157.95 5.15
L 158.05 5.75 158.05 8.35 157.25 8.35 157.25 9.25 159.95 9.25 159.95 8.35 159.15 8.35 159.15 5.5
Q 159.95 4.7 160.7 4.7 161.3 4.7 161.45 5.15
L 161.55 5.75 161.55 8.35 160.75 8.35 160.75 9.25 163.5 9.25 163.5 8.35 162.65 8.35 162.65 5.55 Z"/>
</g>

<g id="Suite_Toys_300x600_html5_psd_Asset_Suite_Products_Toys_text_Little_People__Animal_Friends_Farm___0_Layer0_0_MEMBER_17_FILL">
<path fill="#6B6E71" stroke="none" d="
M 167.55 5
Q 167.8 5.35 167.8 5.75
L 167.8 6.4
Q 167.05 6.15 166.3 6.15 165.35 6.15 164.8 6.6 164.2 7.05 164.2 7.8 164.2 9.35 165.95 9.35 167 9.35 167.85 8.6
L 167.85 9.25 169.7 9.25 169.7 8.35 168.85 8.35 168.85 5.65
Q 168.85 4.9 168.45 4.4 167.9 3.7 166.6 3.7 165.6 3.7 165.05 4.15 164.5 4.5 164.5 5 164.5 5.65 165.15 5.65 165.8 5.65 165.8 5.05
L 165.7 4.75
Q 166 4.6 166.45 4.6 167.3 4.6 167.55 5
M 165.3 7.7
Q 165.3 6.8 166.5 6.8 167.1 6.8 167.8 7
L 167.8 7.9
Q 167.05 8.55 166.3 8.55 165.3 8.55 165.3 7.7 Z"/>
</g>

<g id="Suite_Toys_300x600_html5_psd_Asset_Suite_Products_Toys_text_Little_People__Animal_Friends_Farm___0_Layer0_0_MEMBER_18_FILL">
<path fill="#6B6E71" stroke="none" d="
M 172.25 8.35
L 172.25 0 170.25 0 170.25 0.95 171.15 0.95 171.15 8.35 170.25 8.35 170.25 9.25 173.1 9.25 173.1 8.35 172.25 8.35 Z"/>
</g>

<g id="Suite_Toys_300x600_html5_psd_Asset_Suite_Products_Toys_text_Little_People__Animal_Friends_Farm___0_Layer0_0_MEMBER_19_FILL">
<path fill="#6B6E71" stroke="none" d="
M 182.9 3.1
L 182.9 0.95 176.85 0.95 176.85 1.95 177.85 1.95 177.85 8.25 176.85 8.25 176.85 9.25 180.15 9.25 180.15 8.25 179 8.25 179 5.7 181.6 5.7 181.6 4.7 179 4.7 179 1.95 181.8 1.95 181.8 3.1 182.9 3.1 Z"/>
</g>

<g id="Suite_Toys_300x600_html5_psd_Asset_Suite_Products_Toys_text_Little_People__Animal_Friends_Farm___0_Layer0_0_MEMBER_20_FILL">
<path fill="#6B6E71" stroke="none" d="
M 186.45 4.75
Q 186.65 5.25 187.15 5.25 187.85 5.25 187.85 4.5 187.85 3.7 186.95 3.7 186.05 3.7 185.25 5.05
L 185.25 3.8 183.4 3.8 183.4 4.75 184.25 4.75 184.25 8.35 183.4 8.35 183.4 9.25 186.3 9.25 186.3 8.35 185.3 8.35 185.3 5.85
Q 185.7 5.05 186.45 4.75 Z"/>
</g>

<g id="Suite_Toys_300x600_html5_psd_Asset_Suite_Products_Toys_text_Little_People__Animal_Friends_Farm___0_Layer0_0_MEMBER_21_FILL">
<path fill="#6B6E71" stroke="none" d="
M 188.5 4.75
L 189.4 4.75 189.4 8.35 188.5 8.35 188.5 9.25 191.35 9.25 191.35 8.35 190.45 8.35 190.45 3.8 188.5 3.8 188.5 4.75
M 190.6 1.85
Q 190.6 1.55 190.35 1.35 190.15 1.1 189.8 1.1 189.5 1.1 189.25 1.35 189 1.55 189 1.85 189 2.65 189.8 2.65 190.1 2.65 190.35 2.4 190.6 2.2 190.6 1.85 Z"/>
</g>

<g id="Suite_Toys_300x600_html5_psd_Asset_Suite_Products_Toys_text_Little_People__Animal_Friends_Farm___0_Layer0_0_MEMBER_22_FILL">
<path fill="#6B6E71" stroke="none" d="
M 196.85 4.5
Q 196.15 3.7 194.95 3.7 193.75 3.7 193 4.55 192.25 5.35 192.25 6.55 192.25 7.8 193.05 8.55 193.9 9.35 195.2 9.35 196.4 9.35 197.2 8.85
L 197.3 7.85
Q 196.2 8.45 195.35 8.45 193.65 8.45 193.4 6.9
L 197.45 6.9 197.5 6.3
Q 197.5 5.2 196.85 4.5
M 193.95 4.95
Q 194.35 4.6 194.9 4.6 196.35 4.6 196.45 6.05
L 193.4 6.05
Q 193.45 5.35 193.95 4.95 Z"/>
</g>

<g id="Suite_Toys_300x600_html5_psd_Asset_Suite_Products_Toys_text_Little_People__Animal_Friends_Farm___0_Layer0_0_MEMBER_23_FILL">
<path fill="#6B6E71" stroke="none" d="
M 204 5.55
Q 204 4.9 203.75 4.4 203.3 3.7 202.3 3.7 201.3 3.7 200.35 4.75
L 200.35 3.8 198.45 3.8 198.45 4.75 199.3 4.75 199.3 8.35 198.45 8.35 198.45 9.25 201.15 9.25 201.15 8.35 200.35 8.35 200.35 5.55
Q 201.2 4.7 202 4.7 202.6 4.7 202.8 5.15 202.95 5.4 202.95 5.8
L 202.95 8.35 202.1 8.35 202.1 9.25 204.85 9.25 204.85 8.35 204 8.35 204 5.55 Z"/>
</g>

<g id="Suite_Toys_300x600_html5_psd_Asset_Suite_Products_Toys_text_Little_People__Animal_Friends_Farm___0_Layer0_0_MEMBER_24_FILL">
<path fill="#6B6E71" stroke="none" d="
M 209.8 4.3
Q 209.2 3.7 208.2 3.7 207.05 3.7 206.3 4.55 205.55 5.35 205.55 6.55 205.55 7.8 206.3 8.55 207 9.35 208.1 9.35 209.05 9.35 209.85 8.55
L 209.85 9.25 211.75 9.25 211.75 8.35 210.9 8.35 210.9 0 208.9 0 208.9 0.95 209.8 0.95 209.8 4.3
M 208.3 4.65
Q 209.05 4.65 209.8 5.2
L 209.8 7.7
Q 209.1 8.4 208.3 8.4 207.6 8.4 207.1 7.9 206.65 7.4 206.65 6.55 206.65 5.7 207.15 5.15 207.6 4.65 208.3 4.65 Z"/>
</g>

<g id="Suite_Toys_300x600_html5_psd_Asset_Suite_Products_Toys_text_Little_People__Animal_Friends_Farm___0_Layer0_0_MEMBER_25_FILL">
<path fill="#6B6E71" stroke="none" d="
M 213.25 4.2
Q 212.7 4.65 212.7 5.35 212.7 6.05 213.25 6.4 213.65 6.7 214.8 7 216 7.3 216 7.8 216 8.55 214.85 8.55 214.1 8.55 213.7 8.25
L 213.75 8
Q 213.75 7.35 213.1 7.35 212.5 7.35 212.5 8 212.5 8.45 212.8 8.75 213.45 9.4 214.85 9.4 215.75 9.4 216.4 8.95 217.05 8.45 217.05 7.7 217.05 7 216.5 6.6 216.05 6.3 215 6.05 213.75 5.7 213.75 5.25 213.75 4.55 214.8 4.55 215.35 4.55 215.65 4.7
L 215.6 5
Q 215.6 5.6 216.3 5.6 216.85 5.6 216.85 4.95 216.85 4.65 216.6 4.3 216 3.7 214.8 3.7 213.8 3.7 213.25 4.2 Z"/>
</g>

<g id="Suite_Toys_300x600_html5_psd_Asset_Suite_Products_Toys_text_Little_People__Animal_Friends_Farm___0_Layer0_0_MEMBER_26_FILL">
<path fill="#6B6E71" stroke="none" d="
M 227 3.1
L 227 0.95 221 0.95 221 1.95 222 1.95 222 8.25 221 8.25 221 9.25 224.25 9.25 224.25 8.25 223.15 8.25 223.15 5.7 225.7 5.7 225.7 4.7 223.15 4.7 223.15 1.95 225.9 1.95 225.9 3.1 227 3.1 Z"/>
</g>

<g id="Suite_Toys_300x600_html5_psd_Asset_Suite_Products_Toys_text_Little_People__Animal_Friends_Farm___0_Layer0_0_MEMBER_27_FILL">
<path fill="#6B6E71" stroke="none" d="
M 230.65 5
Q 230.9 5.35 230.9 5.75
L 230.9 6.4
Q 230.15 6.15 229.4 6.15 228.45 6.15 227.85 6.6 227.25 7.05 227.25 7.8 227.25 8.55 227.8 8.95 228.25 9.35 229.05 9.35 230.05 9.35 230.9 8.6
L 230.9 9.25 232.8 9.25 232.8 8.35 231.95 8.35 231.95 5.65
Q 231.95 4.85 231.5 4.4 230.95 3.7 229.7 3.7 228.7 3.7 228.15 4.15 227.6 4.5 227.6 5 227.6 5.65 228.25 5.65 228.85 5.65 228.85 5.05
L 228.8 4.75
Q 229.05 4.6 229.5 4.6 230.3 4.6 230.65 5
M 230.9 7
L 230.9 7.9
Q 230.05 8.55 229.35 8.55 228.35 8.55 228.35 7.7 228.35 6.8 229.55 6.8 230.1 6.8 230.9 7 Z"/>
</g>

<g id="Suite_Toys_300x600_html5_psd_Asset_Suite_Products_Toys_text_Little_People__Animal_Friends_Farm___0_Layer0_0_MEMBER_28_FILL">
<path fill="#6B6E71" stroke="none" d="
M 236.6 4.75
Q 236.8 5.25 237.3 5.25 238 5.25 238 4.5 238 3.7 237.1 3.7 236.2 3.7 235.4 5.05
L 235.4 3.8 233.5 3.8 233.5 4.75 234.35 4.75 234.35 8.35 233.5 8.35 233.5 9.25 236.45 9.25 236.45 8.35 235.45 8.35 235.45 5.85
Q 235.9 5 236.6 4.75 Z"/>
</g>

<g id="Suite_Toys_300x600_html5_psd_Asset_Suite_Products_Toys_text_Little_People__Animal_Friends_Farm___0_Layer0_0_MEMBER_29_FILL">
<path fill="#6B6E71" stroke="none" d="
M 243.9 4.7
Q 243.9 4.5 243.75 4.35 243.35 3.7 242.4 3.7 241.45 3.7 240.5 4.75
L 240.5 3.8 238.6 3.8 238.6 4.75 239.45 4.75 239.45 8.35 238.6 8.35 238.6 9.25 241.35 9.25 241.35 8.35 240.55 8.35 240.55 5.5
Q 241.35 4.7 242.1 4.7 242.7 4.7 242.9 5.15
L 242.95 5.75 242.95 8.35 242.15 8.35 242.15 9.25 244.85 9.25 244.85 8.35 244.05 8.35 244.05 5.5
Q 244.95 4.7 245.6 4.7 246.2 4.7 246.4 5.15
L 246.5 5.75 246.5 8.35 245.65 8.35 245.65 9.25 248.4 9.25 248.4 8.35 247.55 8.35 247.55 5.55
Q 247.55 4.9 247.35 4.5 246.95 3.7 245.85 3.7 244.9 3.7 243.9 4.7 Z"/>
</g>
</defs>

<g transform="matrix( 1, 0, 0, 1, 57,567) ">
<g transform="matrix( 1, 0, 0, 0.9994049072265625, -57.3,0.7) ">
<use xlink:href="#Suite_Toys_300x600_html5_psd_Asset_Suite_Products_Toys_text_Little_People__Animal_Friends_Farm___0_Layer0_0_MEMBER_0_FILL"/>
</g>

<g transform="matrix( 1, 0, 0, 0.9994049072265625, -57.3,0.7) ">
<use xlink:href="#Suite_Toys_300x600_html5_psd_Asset_Suite_Products_Toys_text_Little_People__Animal_Friends_Farm___0_Layer0_0_MEMBER_1_FILL"/>
</g>

<g transform="matrix( 1, 0, 0, 0.9994049072265625, -57.3,0.7) ">
<use xlink:href="#Suite_Toys_300x600_html5_psd_Asset_Suite_Products_Toys_text_Little_People__Animal_Friends_Farm___0_Layer0_0_MEMBER_2_FILL"/>
</g>

<g transform="matrix( 1, 0, 0, 0.9994049072265625, -57.3,0.7) ">
<use xlink:href="#Suite_Toys_300x600_html5_psd_Asset_Suite_Products_Toys_text_Little_People__Animal_Friends_Farm___0_Layer0_0_MEMBER_3_FILL"/>
</g>

<g transform="matrix( 1, 0, 0, 0.9994049072265625, -57.3,0.7) ">
<use xlink:href="#Suite_Toys_300x600_html5_psd_Asset_Suite_Products_Toys_text_Little_People__Animal_Friends_Farm___0_Layer0_0_MEMBER_4_FILL"/>
</g>

<g transform="matrix( 1, 0, 0, 0.9994049072265625, -57.3,0.7) ">
<use xlink:href="#Suite_Toys_300x600_html5_psd_Asset_Suite_Products_Toys_text_Little_People__Animal_Friends_Farm___0_Layer0_0_MEMBER_5_FILL"/>
</g>

<g transform="matrix( 1, 0, 0, 0.9994049072265625, -57.3,0.7) ">
<use xlink:href="#Suite_Toys_300x600_html5_psd_Asset_Suite_Products_Toys_text_Little_People__Animal_Friends_Farm___0_Layer0_0_MEMBER_6_FILL"/>
</g>

<g transform="matrix( 1, 0, 0, 0.9994049072265625, -57.3,0.7) ">
<use xlink:href="#Suite_Toys_300x600_html5_psd_Asset_Suite_Products_Toys_text_Little_People__Animal_Friends_Farm___0_Layer0_0_MEMBER_7_FILL"/>
</g>

<g transform="matrix( 1, 0, 0, 0.9994049072265625, -57.3,0.7) ">
<use xlink:href="#Suite_Toys_300x600_html5_psd_Asset_Suite_Products_Toys_text_Little_People__Animal_Friends_Farm___0_Layer0_0_MEMBER_8_FILL"/>
</g>

<g transform="matrix( 1, 0, 0, 0.9994049072265625, -57.3,0.7) ">
<use xlink:href="#Suite_Toys_300x600_html5_psd_Asset_Suite_Products_Toys_text_Little_People__Animal_Friends_Farm___0_Layer0_0_MEMBER_9_FILL"/>
</g>

<g transform="matrix( 1, 0, 0, 0.9994049072265625, -57.3,0.7) ">
<use xlink:href="#Suite_Toys_300x600_html5_psd_Asset_Suite_Products_Toys_text_Little_People__Animal_Friends_Farm___0_Layer0_0_MEMBER_10_FILL"/>
</g>

<g transform="matrix( 1, 0, 0, 0.9994049072265625, -57.3,0.7) ">
<use xlink:href="#Suite_Toys_300x600_html5_psd_Asset_Suite_Products_Toys_text_Little_People__Animal_Friends_Farm___0_Layer0_0_MEMBER_11_FILL"/>
</g>

<g transform="matrix( 1, 0, 0, 0.9994049072265625, -57.3,0.7) ">
<use xlink:href="#Suite_Toys_300x600_html5_psd_Asset_Suite_Products_Toys_text_Little_People__Animal_Friends_Farm___0_Layer0_0_MEMBER_12_FILL"/>
</g>

<g transform="matrix( 1, 0, 0, 0.9994049072265625, -57.3,0.7) ">
<use xlink:href="#Suite_Toys_300x600_html5_psd_Asset_Suite_Products_Toys_text_Little_People__Animal_Friends_Farm___0_Layer0_0_MEMBER_13_FILL"/>
</g>

<g transform="matrix( 1, 0, 0, 0.9994049072265625, -57.3,0.7) ">
<use xlink:href="#Suite_Toys_300x600_html5_psd_Asset_Suite_Products_Toys_text_Little_People__Animal_Friends_Farm___0_Layer0_0_MEMBER_14_FILL"/>
</g>

<g transform="matrix( 1, 0, 0, 0.9994049072265625, -57.3,0.7) ">
<use xlink:href="#Suite_Toys_300x600_html5_psd_Asset_Suite_Products_Toys_text_Little_People__Animal_Friends_Farm___0_Layer0_0_MEMBER_15_FILL"/>
</g>

<g transform="matrix( 1, 0, 0, 0.9994049072265625, -57.3,0.7) ">
<use xlink:href="#Suite_Toys_300x600_html5_psd_Asset_Suite_Products_Toys_text_Little_People__Animal_Friends_Farm___0_Layer0_0_MEMBER_16_FILL"/>
</g>

<g transform="matrix( 1, 0, 0, 0.9994049072265625, -57.3,0.7) ">
<use xlink:href="#Suite_Toys_300x600_html5_psd_Asset_Suite_Products_Toys_text_Little_People__Animal_Friends_Farm___0_Layer0_0_MEMBER_17_FILL"/>
</g>

<g transform="matrix( 1, 0, 0, 0.9994049072265625, -57.3,0.7) ">
<use xlink:href="#Suite_Toys_300x600_html5_psd_Asset_Suite_Products_Toys_text_Little_People__Animal_Friends_Farm___0_Layer0_0_MEMBER_18_FILL"/>
</g>

<g transform="matrix( 1, 0, 0, 0.9994049072265625, -57.3,0.7) ">
<use xlink:href="#Suite_Toys_300x600_html5_psd_Asset_Suite_Products_Toys_text_Little_People__Animal_Friends_Farm___0_Layer0_0_MEMBER_19_FILL"/>
</g>

<g transform="matrix( 1, 0, 0, 0.9994049072265625, -57.3,0.7) ">
<use xlink:href="#Suite_Toys_300x600_html5_psd_Asset_Suite_Products_Toys_text_Little_People__Animal_Friends_Farm___0_Layer0_0_MEMBER_20_FILL"/>
</g>

<g transform="matrix( 1, 0, 0, 0.9994049072265625, -57.3,0.7) ">
<use xlink:href="#Suite_Toys_300x600_html5_psd_Asset_Suite_Products_Toys_text_Little_People__Animal_Friends_Farm___0_Layer0_0_MEMBER_21_FILL"/>
</g>

<g transform="matrix( 1, 0, 0, 0.9994049072265625, -57.3,0.7) ">
<use xlink:href="#Suite_Toys_300x600_html5_psd_Asset_Suite_Products_Toys_text_Little_People__Animal_Friends_Farm___0_Layer0_0_MEMBER_22_FILL"/>
</g>

<g transform="matrix( 1, 0, 0, 0.9994049072265625, -57.3,0.7) ">
<use xlink:href="#Suite_Toys_300x600_html5_psd_Asset_Suite_Products_Toys_text_Little_People__Animal_Friends_Farm___0_Layer0_0_MEMBER_23_FILL"/>
</g>

<g transform="matrix( 1, 0, 0, 0.9994049072265625, -57.3,0.7) ">
<use xlink:href="#Suite_Toys_300x600_html5_psd_Asset_Suite_Products_Toys_text_Little_People__Animal_Friends_Farm___0_Layer0_0_MEMBER_24_FILL"/>
</g>

<g transform="matrix( 1, 0, 0, 0.9994049072265625, -57.3,0.7) ">
<use xlink:href="#Suite_Toys_300x600_html5_psd_Asset_Suite_Products_Toys_text_Little_People__Animal_Friends_Farm___0_Layer0_0_MEMBER_25_FILL"/>
</g>

<g transform="matrix( 1, 0, 0, 0.9994049072265625, -57.3,0.7) ">
<use xlink:href="#Suite_Toys_300x600_html5_psd_Asset_Suite_Products_Toys_text_Little_People__Animal_Friends_Farm___0_Layer0_0_MEMBER_26_FILL"/>
</g>

<g transform="matrix( 1, 0, 0, 0.9994049072265625, -57.3,0.7) ">
<use xlink:href="#Suite_Toys_300x600_html5_psd_Asset_Suite_Products_Toys_text_Little_People__Animal_Friends_Farm___0_Layer0_0_MEMBER_27_FILL"/>
</g>

<g transform="matrix( 1, 0, 0, 0.9994049072265625, -57.3,0.7) ">
<use xlink:href="#Suite_Toys_300x600_html5_psd_Asset_Suite_Products_Toys_text_Little_People__Animal_Friends_Farm___0_Layer0_0_MEMBER_28_FILL"/>
</g>

<g transform="matrix( 1, 0, 0, 0.9994049072265625, -57.3,0.7) ">
<use xlink:href="#Suite_Toys_300x600_html5_psd_Asset_Suite_Products_Toys_text_Little_People__Animal_Friends_Farm___0_Layer0_0_MEMBER_29_FILL"/>
</g>
</g>
</svg>
