
<svg xmlns="http://www.w3.org/2000/svg" version="1.1" xmlns:xlink="http://www.w3.org/1999/xlink" preserveAspectRatio="none" x="0px" y="0px" width="728px" height="90px" viewBox="0 0 728 90">
<defs>
<g id="Suite_BabyGear_728x90_html5_psd_Asset_1_Suite_Products_Baby_Gear_Fisher_Price_Kick___Play_Piano_Gym__0_Layer0_0_MEMBER_0_FILL">
<path fill="#6B6E71" stroke="none" d="
M 23.95 3.1
L 23.95 0.95 17.9 0.95 17.9 1.95 18.9 1.95 18.9 8.25 17.9 8.25 17.9 9.25 21.2 9.25 21.2 8.25 20.05 8.25 20.05 5.7 22.65 5.7 22.65 4.7 20.05 4.7 20.05 1.95 22.85 1.95 22.85 3.1 23.95 3.1 Z"/>
</g>

<g id="Suite_BabyGear_728x90_html5_psd_Asset_1_Suite_Products_Baby_Gear_Fisher_Price_Kick___Play_Piano_Gym__0_Layer0_0_MEMBER_1_FILL">
<path fill="#6B6E71" stroke="none" d="
M 24.8 3.8
L 24.8 4.75 25.65 4.75 25.65 8.35 24.8 8.35 24.8 9.25 27.65 9.25 27.65 8.35 26.75 8.35 26.75 3.8 24.8 3.8
M 26.1 2.65
Q 26.4 2.65 26.65 2.4 26.9 2.2 26.9 1.85 26.9 1.55 26.65 1.35 26.4 1.1 26.1 1.1 25.75 1.1 25.55 1.35 25.3 1.55 25.3 1.85 25.3 2.65 26.1 2.65 Z"/>
</g>

<g id="Suite_BabyGear_728x90_html5_psd_Asset_1_Suite_Products_Baby_Gear_Fisher_Price_Kick___Play_Piano_Gym__0_Layer0_0_MEMBER_2_FILL">
<path fill="#6B6E71" stroke="none" d="
M 32.25 5.6
Q 32.85 5.6 32.85 4.95 32.85 4.6 32.55 4.3 31.95 3.7 30.8 3.7 29.8 3.7 29.2 4.2 28.65 4.65 28.65 5.35 28.65 6 29.2 6.4 29.65 6.7 30.8 7 32 7.3 32 7.8 32 8.55 30.8 8.55 30.1 8.55 29.7 8.25
L 29.75 8
Q 29.75 7.35 29.1 7.35 28.5 7.35 28.5 8 28.5 8.45 28.8 8.75 29.45 9.4 30.8 9.4 31.75 9.4 32.4 8.95 33.05 8.45 33.05 7.7 33.05 7 32.5 6.6 32.05 6.3 31 6.05 29.7 5.65 29.7 5.25 29.7 4.55 30.8 4.55 31.35 4.55 31.65 4.7
L 31.6 5
Q 31.6 5.6 32.25 5.6 Z"/>
</g>

<g id="Suite_BabyGear_728x90_html5_psd_Asset_1_Suite_Products_Baby_Gear_Fisher_Price_Kick___Play_Piano_Gym__0_Layer0_0_MEMBER_3_FILL">
<path fill="#6B6E71" stroke="none" d="
M 35.75 4.7
L 35.75 0 33.8 0 33.8 0.95 34.65 0.95 34.65 8.35 33.8 8.35 33.8 9.25 36.55 9.25 36.55 8.35 35.75 8.35 35.75 5.55
Q 36.5 4.7 37.35 4.7 37.9 4.7 38.1 5 38.3 5.25 38.3 5.8
L 38.3 8.35 37.5 8.35 37.5 9.25 40.25 9.25 40.25 8.35 39.4 8.35 39.4 5.55
Q 39.4 4.7 39.05 4.3 38.6 3.7 37.65 3.7 36.65 3.7 35.75 4.7 Z"/>
</g>

<g id="Suite_BabyGear_728x90_html5_psd_Asset_1_Suite_Products_Baby_Gear_Fisher_Price_Kick___Play_Piano_Gym__0_Layer0_0_MEMBER_4_FILL">
<path fill="#6B6E71" stroke="none" d="
M 45.55 4.5
Q 44.85 3.7 43.6 3.7 42.4 3.7 41.65 4.55 40.9 5.35 40.9 6.55 40.9 7.8 41.7 8.55 42.55 9.35 43.85 9.35 45.05 9.35 45.85 8.85
L 45.95 7.85
Q 44.85 8.45 44 8.45 42.3 8.45 42.05 6.9
L 46.1 6.9 46.2 6.3
Q 46.2 5.2 45.55 4.5
M 42.05 6.05
Q 42.3 4.6 43.6 4.6 45 4.6 45.1 6.05
L 42.05 6.05 Z"/>
</g>

<g id="Suite_BabyGear_728x90_html5_psd_Asset_1_Suite_Products_Baby_Gear_Fisher_Price_Kick___Play_Piano_Gym__0_Layer0_0_MEMBER_5_FILL">
<path fill="#6B6E71" stroke="none" d="
M 51.35 3.95
Q 51.1 3.7 50.7 3.7 49.7 3.7 49 5.05
L 49 3.8 47.1 3.8 47.1 4.75 47.95 4.75 47.95 8.35 47.1 8.35 47.1 9.25 50 9.25 50 8.35 49 8.35 49 5.85
Q 49.5 5 50.15 4.75 50.35 5.25 50.9 5.25 51.15 5.25 51.4 5.05 51.6 4.8 51.6 4.5 51.6 4.2 51.35 3.95 Z"/>
</g>

<g id="Suite_BabyGear_728x90_html5_psd_Asset_1_Suite_Products_Baby_Gear_Fisher_Price_Kick___Play_Piano_Gym__0_Layer0_0_MEMBER_6_FILL">
<path fill="#6B6E71" stroke="none" d="
M 52.45 5.15
L 52.45 6.3 55.7 6.3 55.7 5.15 52.45 5.15 Z"/>
</g>

<g id="Suite_BabyGear_728x90_html5_psd_Asset_1_Suite_Products_Baby_Gear_Fisher_Price_Kick___Play_Piano_Gym__0_Layer0_0_MEMBER_7_FILL">
<path fill="#6B6E71" stroke="none" d="
M 62.2 5.65
Q 63.1 4.9 63.1 3.6 63.1 2.4 62.2 1.65 61.35 0.95 60 0.95
L 56.75 0.95 56.75 1.95 57.75 1.95 57.75 8.25 56.75 8.25 56.75 9.25 60 9.25 60 8.25 58.9 8.25 58.9 6.35 59.9 6.35
Q 61.35 6.35 62.2 5.65
M 61.4 2.4
Q 61.95 2.85 61.95 3.6 61.95 5.35 60 5.35
L 58.9 5.35 58.9 1.95 59.95 1.95
Q 60.85 1.95 61.4 2.4 Z"/>
</g>

<g id="Suite_BabyGear_728x90_html5_psd_Asset_1_Suite_Products_Baby_Gear_Fisher_Price_Kick___Play_Piano_Gym__0_Layer0_0_MEMBER_8_FILL">
<path fill="#6B6E71" stroke="none" d="
M 68.5 4.5
Q 68.5 3.7 67.6 3.7 66.6 3.7 65.9 5.05
L 65.9 3.8 64 3.8 64 4.75 64.85 4.75 64.85 8.35 64 8.35 64 9.25 66.95 9.25 66.95 8.35 65.95 8.35 65.95 5.85
Q 66.35 5 67.05 4.75 67.25 5.25 67.8 5.25 68.05 5.25 68.3 5.05 68.5 4.8 68.5 4.5 Z"/>
</g>

<g id="Suite_BabyGear_728x90_html5_psd_Asset_1_Suite_Products_Baby_Gear_Fisher_Price_Kick___Play_Piano_Gym__0_Layer0_0_MEMBER_9_FILL">
<path fill="#6B6E71" stroke="none" d="
M 71.2 1.85
Q 71.2 1.55 71 1.35 70.75 1.1 70.45 1.1 69.65 1.1 69.65 1.85 69.65 2.2 69.9 2.4 70.1 2.65 70.4 2.65 71.2 2.65 71.2 1.85
M 71.1 8.35
L 71.1 3.8 69.1 3.8 69.1 4.75 70 4.75 70 8.35 69.1 8.35 69.1 9.25 71.95 9.25 71.95 8.35 71.1 8.35 Z"/>
</g>

<g id="Suite_BabyGear_728x90_html5_psd_Asset_1_Suite_Products_Baby_Gear_Fisher_Price_Kick___Play_Piano_Gym__0_Layer0_0_MEMBER_10_FILL">
<path fill="#6B6E71" stroke="none" d="
M 77.95 5.45
Q 77.95 4.8 77.3 4.25 76.6 3.7 75.6 3.7 74.45 3.7 73.65 4.55 72.85 5.4 72.85 6.5 72.85 7.75 73.7 8.55 74.55 9.35 75.8 9.35 76.9 9.35 77.7 8.85
L 77.8 7.85
Q 76.75 8.45 75.9 8.45 75.05 8.45 74.5 7.9 73.95 7.35 73.95 6.55 73.95 5.65 74.5 5.1 74.95 4.6 75.6 4.6 76.5 4.6 76.7 5.1 76.5 5.3 76.5 5.55 76.5 6.25 77.15 6.25 77.95 6.25 77.95 5.45 Z"/>
</g>

<g id="Suite_BabyGear_728x90_html5_psd_Asset_1_Suite_Products_Baby_Gear_Fisher_Price_Kick___Play_Piano_Gym__0_Layer0_0_MEMBER_11_FILL">
<path fill="#6B6E71" stroke="none" d="
M 83.95 7.85
Q 82.85 8.45 82 8.45 80.25 8.45 80 6.9
L 84.1 6.9 84.15 6.3
Q 84.15 5.2 83.5 4.5 82.8 3.7 81.6 3.7 80.4 3.7 79.65 4.55 78.9 5.35 78.9 6.55 78.9 7.8 79.7 8.55 80.5 9.35 81.85 9.35 83 9.35 83.85 8.85
L 83.95 7.85
M 81.55 4.6
Q 82.95 4.6 83.05 6.05
L 80 6.05
Q 80.25 4.6 81.55 4.6 Z"/>
</g>

<g id="Suite_BabyGear_728x90_html5_psd_Asset_1_Suite_Products_Baby_Gear_Fisher_Price_Kick___Play_Piano_Gym__0_Layer0_0_MEMBER_12_FILL">
<path fill="#6B6E71" stroke="none" d="
M 91.2 1.95
L 91.2 0.95 88 0.95 88 1.95 89 1.95 89 8.25 88 8.25 88 9.25 91.2 9.25 91.2 8.25 90.15 8.25 90.15 6.55 91.45 5.25 94 9.25 95.8 9.25 95.8 8.25 94.75 8.25 92.3 4.5 94.85 1.95 95.8 1.95 95.8 0.95 92.35 0.95 92.35 1.95 93.4 1.95 90.15 5.25 90.15 1.95 91.2 1.95 Z"/>
</g>

<g id="Suite_BabyGear_728x90_html5_psd_Asset_1_Suite_Products_Baby_Gear_Fisher_Price_Kick___Play_Piano_Gym__0_Layer0_0_MEMBER_13_FILL">
<path fill="#6B6E71" stroke="none" d="
M 96.8 4.75
L 97.7 4.75 97.7 8.35 96.8 8.35 96.8 9.25 99.65 9.25 99.65 8.35 98.75 8.35 98.75 3.8 96.8 3.8 96.8 4.75
M 97.3 1.85
Q 97.3 2.65 98.1 2.65 98.4 2.65 98.65 2.4 98.9 2.2 98.9 1.85 98.9 1.55 98.65 1.35 98.45 1.1 98.1 1.1 97.8 1.1 97.55 1.35 97.3 1.55 97.3 1.85 Z"/>
</g>

<g id="Suite_BabyGear_728x90_html5_psd_Asset_1_Suite_Products_Baby_Gear_Fisher_Price_Kick___Play_Piano_Gym__0_Layer0_0_MEMBER_14_FILL">
<path fill="#6B6E71" stroke="none" d="
M 103.3 3.7
Q 102.15 3.7 101.35 4.55 100.55 5.4 100.55 6.5 100.55 7.75 101.4 8.55 102.2 9.35 103.5 9.35 104.55 9.35 105.4 8.85
L 105.5 7.85
Q 104.45 8.45 103.6 8.45 102.75 8.45 102.2 7.9 101.65 7.35 101.65 6.55 101.65 5.65 102.2 5.1 102.65 4.6 103.3 4.6 104.2 4.6 104.4 5.1 104.15 5.25 104.15 5.55 104.15 6.25 104.85 6.25 105.65 6.25 105.65 5.45 105.65 4.8 105 4.25 104.3 3.7 103.3 3.7 Z"/>
</g>

<g id="Suite_BabyGear_728x90_html5_psd_Asset_1_Suite_Products_Baby_Gear_Fisher_Price_Kick___Play_Piano_Gym__0_Layer0_0_MEMBER_15_FILL">
<path fill="#6B6E71" stroke="none" d="
M 112.7 4.75
L 112.7 3.8 109.55 3.8 109.55 4.7 110.45 4.7 108.5 6.4 108.5 0 106.55 0 106.55 0.95 107.4 0.95 107.4 8.35 106.55 8.35 106.55 9.25 109.3 9.25 109.3 8.35 108.5 8.35 108.5 7.4 109.35 6.65 111.1 9.25 112.7 9.25 112.7 8.35 111.75 8.35 110.15 6.05 111.7 4.75 112.7 4.75 Z"/>
</g>

<g id="Suite_BabyGear_728x90_html5_psd_Asset_1_Suite_Products_Baby_Gear_Fisher_Price_Kick___Play_Piano_Gym__0_Layer0_0_MEMBER_16_FILL">
<path fill="#6B6E71" stroke="none" d="
M 122.85 5.85
L 123.6 5.85 123.6 4.95 121.25 4.95 121.25 5.85 121.95 5.85
Q 121.65 6.65 121.4 6.95
L 119.4 5.1
Q 121.2 4.15 121.2 2.95 121.2 2.15 120.65 1.7 120.05 1.2 119.15 1.2 118.2 1.2 117.6 1.85 117.05 2.4 117.05 3.15 117.05 4.05 117.9 4.95 116.2 5.85 116.2 7.25 116.2 8.2 116.9 8.8 117.6 9.4 118.9 9.4 120.4 9.4 121.5 8.3
L 122.75 9.4 123.4 8.7 122.1 7.6
Q 122.55 6.9 122.85 5.85
M 119.15 2.1
Q 120.05 2.1 120.05 2.95 120.05 3.85 118.8 4.55 118.15 3.7 118.15 3.15 118.15 2.7 118.45 2.4 118.7 2.1 119.15 2.1
M 120.75 7.7
Q 119.9 8.45 118.9 8.45 118.15 8.45 117.7 8.05 117.3 7.7 117.3 7.2 117.3 6.2 118.45 5.55
L 120.75 7.7 Z"/>
</g>

<g id="Suite_BabyGear_728x90_html5_psd_Asset_1_Suite_Products_Baby_Gear_Fisher_Price_Kick___Play_Piano_Gym__0_Layer0_0_MEMBER_17_FILL">
<path fill="#6B6E71" stroke="none" d="
M 27.95 22.15
L 27.95 23.2 31.2 23.2 31.2 22.15 30.15 22.15 30.15 20.25 31.15 20.3
Q 32.6 20.3 33.45 19.6 34.35 18.85 34.35 17.55 34.35 16.35 33.45 15.6 32.6 14.85 31.25 14.85
L 27.95 14.85 27.95 15.9 29 15.9 29 22.15 27.95 22.15
M 30.15 19.25
L 30.15 15.9 31.2 15.9
Q 32.05 15.9 32.6 16.35 33.15 16.8 33.15 17.55 33.15 19.25 31.25 19.25
L 30.15 19.25 Z"/>
</g>

<g id="Suite_BabyGear_728x90_html5_psd_Asset_1_Suite_Products_Baby_Gear_Fisher_Price_Kick___Play_Piano_Gym__0_Layer0_0_MEMBER_18_FILL">
<path fill="#6B6E71" stroke="none" d="
M 35.15 13.9
L 35.15 14.85 36.05 14.85 36.05 22.25 35.15 22.25 35.15 23.2 38 23.2 38 22.25 37.15 22.25 37.15 13.9 35.15 13.9 Z"/>
</g>

<g id="Suite_BabyGear_728x90_html5_psd_Asset_1_Suite_Products_Baby_Gear_Fisher_Price_Kick___Play_Piano_Gym__0_Layer0_0_MEMBER_19_FILL">
<path fill="#6B6E71" stroke="none" d="
M 43.05 18.3
Q 42.5 17.65 41.25 17.65 40.25 17.65 39.7 18.05 39.15 18.4 39.15 18.95 39.15 19.6 39.75 19.6 40.4 19.6 40.4 18.95
L 40.35 18.65
Q 40.8 18.5 41.05 18.5 41.8 18.5 42.2 18.9 42.45 19.25 42.45 19.7
L 42.45 20.3
Q 41.85 20.1 40.95 20.1 40 20.1 39.4 20.55 38.8 21 38.8 21.75 38.8 22.45 39.35 22.9 39.85 23.3 40.6 23.3 41.65 23.3 42.45 22.5
L 42.45 23.2 44.35 23.2 44.35 22.25 43.5 22.25 43.5 19.55
Q 43.5 18.85 43.05 18.3
M 41.1 20.75
Q 41.65 20.75 42.45 20.95
L 42.45 21.8
Q 41.7 22.45 40.9 22.45 39.9 22.45 39.9 21.65 39.9 20.75 41.1 20.75 Z"/>
</g>

<g id="Suite_BabyGear_728x90_html5_psd_Asset_1_Suite_Products_Baby_Gear_Fisher_Price_Kick___Play_Piano_Gym__0_Layer0_0_MEMBER_20_FILL">
<path fill="#6B6E71" stroke="none" d="
M 44.4 18.65
L 45.1 18.65 47.1 22.9 46.4 24.25
Q 46.1 24.7 45.85 24.75 45.75 24.3 45.25 24.3 44.65 24.3 44.65 24.95 44.65 25.25 44.95 25.5 45.25 25.7 45.7 25.7 46.5 25.7 47.15 24.9
L 50.15 18.65 50.85 18.65 50.85 17.75 48.2 17.75 48.2 18.65 49.1 18.65 47.65 21.85 46.25 18.65 47.05 18.65 47.05 17.75 44.4 17.75 44.4 18.65 Z"/>
</g>

<g id="Suite_BabyGear_728x90_html5_psd_Asset_1_Suite_Products_Baby_Gear_Fisher_Price_Kick___Play_Piano_Gym__0_Layer0_0_MEMBER_21_FILL">
<path fill="#6B6E71" stroke="none" d="
M 60.65 17.55
Q 60.65 16.35 59.75 15.6 58.9 14.85 57.55 14.85
L 54.3 14.85 54.3 15.9 55.3 15.9 55.3 22.15 54.3 22.15 54.3 23.2 57.55 23.2 57.55 22.15 56.45 22.15 56.45 20.25 57.5 20.3
Q 58.95 20.3 59.8 19.6 60.65 18.85 60.65 17.55
M 58.95 16.35
Q 59.5 16.8 59.5 17.55 59.5 19.25 57.55 19.25
L 56.45 19.25 56.45 15.9 57.55 15.9
Q 58.4 15.9 58.95 16.35 Z"/>
</g>

<g id="Suite_BabyGear_728x90_html5_psd_Asset_1_Suite_Products_Baby_Gear_Fisher_Price_Kick___Play_Piano_Gym__0_Layer0_0_MEMBER_22_FILL">
<path fill="#6B6E71" stroke="none" d="
M 62.9 16.6
Q 63.2 16.6 63.45 16.35 63.7 16.1 63.7 15.8 63.7 15.45 63.45 15.25 63.2 15 62.9 15 62.1 15 62.1 15.8 62.1 16.1 62.35 16.35 62.55 16.6 62.9 16.6
M 63.55 17.75
L 61.6 17.75 61.6 18.65 62.45 18.65 62.45 22.25 61.6 22.25 61.6 23.2 64.45 23.2 64.45 22.25 63.55 22.25 63.55 17.75 Z"/>
</g>

<g id="Suite_BabyGear_728x90_html5_psd_Asset_1_Suite_Products_Baby_Gear_Fisher_Price_Kick___Play_Piano_Gym__0_Layer0_0_MEMBER_23_FILL">
<path fill="#6B6E71" stroke="none" d="
M 69.55 18.3
Q 68.9 17.65 67.7 17.65 66.7 17.65 66.15 18.05 65.6 18.4 65.6 18.95 65.6 19.6 66.25 19.6 66.9 19.6 66.9 18.95
L 66.8 18.65
Q 67.4 18.5 67.5 18.5 68.35 18.5 68.65 18.9 68.9 19.25 68.9 19.7
L 68.9 20.3
Q 68.3 20.1 67.4 20.1 66.45 20.1 65.85 20.55 65.25 21 65.25 21.75 65.25 22.45 65.8 22.9 66.3 23.3 67.05 23.3 68.2 23.3 68.9 22.5
L 68.9 23.2 70.8 23.2 70.8 22.25 69.95 22.25 69.95 19.55
Q 69.95 18.85 69.55 18.3
M 66.35 21.65
Q 66.35 20.75 67.55 20.75 68.2 20.75 68.9 20.95
L 68.9 21.8
Q 68.25 22.45 67.35 22.45 66.35 22.45 66.35 21.65 Z"/>
</g>

<g id="Suite_BabyGear_728x90_html5_psd_Asset_1_Suite_Products_Baby_Gear_Fisher_Price_Kick___Play_Piano_Gym__0_Layer0_0_MEMBER_24_FILL">
<path fill="#6B6E71" stroke="none" d="
M 73.4 17.75
L 71.55 17.75 71.55 18.65 72.4 18.65 72.4 22.25 71.55 22.25 71.55 23.2 74.25 23.2 74.25 22.25 73.45 22.25 73.45 19.45
Q 74.25 18.65 75.1 18.65 75.7 18.65 75.9 19.05 76 19.2 76 19.7
L 76 22.25 75.2 22.25 75.2 23.2 77.95 23.2 77.95 22.25 77.1 22.25 77.1 19.45
Q 77.1 18.9 76.85 18.3 76.35 17.65 75.4 17.65 74.35 17.65 73.4 18.7
L 73.4 17.75 Z"/>
</g>

<g id="Suite_BabyGear_728x90_html5_psd_Asset_1_Suite_Products_Baby_Gear_Fisher_Price_Kick___Play_Piano_Gym__0_Layer0_0_MEMBER_25_FILL">
<path fill="#6B6E71" stroke="none" d="
M 83.55 18.45
Q 82.75 17.65 81.5 17.65 80.25 17.65 79.4 18.5 78.65 19.3 78.65 20.45 78.65 21.65 79.4 22.45 80.2 23.3 81.5 23.3 82.75 23.3 83.55 22.45 84.3 21.65 84.3 20.45 84.3 19.25 83.55 18.45
M 82.75 21.8
Q 82.25 22.35 81.5 22.35 80.7 22.35 80.25 21.8 79.75 21.3 79.75 20.45 79.75 19.6 80.25 19.1 80.7 18.55 81.5 18.55 82.25 18.55 82.75 19.1 83.2 19.6 83.2 20.45 83.2 21.3 82.75 21.8 Z"/>
</g>

<g id="Suite_BabyGear_728x90_html5_psd_Asset_1_Suite_Products_Baby_Gear_Fisher_Price_Kick___Play_Piano_Gym__0_Layer0_0_MEMBER_26_FILL">
<path fill="#6B6E71" stroke="none" d="
M 88.3 19.05
Q 88.3 21 89.55 22.2 90.7 23.35 92.35 23.35 93.7 23.35 94.8 22.5
L 94.8 23.2 95.9 23.2 95.9 19 92.55 19 92.55 20 94.75 20 94.75 21.6
Q 93.75 22.3 92.5 22.3 91.25 22.3 90.4 21.4 89.5 20.5 89.5 19.05 89.5 17.6 90.4 16.7 91.25 15.75 92.6 15.75 93.75 15.75 94.4 16.3 94.2 16.6 94.2 16.8 94.2 17.55 95.05 17.55 95.8 17.55 95.8 16.65 95.8 15.95 94.95 15.35 94 14.7 92.65 14.7 90.85 14.7 89.6 15.9 88.3 17.15 88.3 19.05 Z"/>
</g>

<g id="Suite_BabyGear_728x90_html5_psd_Asset_1_Suite_Products_Baby_Gear_Fisher_Price_Kick___Play_Piano_Gym__0_Layer0_0_MEMBER_27_FILL">
<path fill="#6B6E71" stroke="none" d="
M 102.55 18.65
L 103.25 18.65 103.25 17.75 100.6 17.75 100.6 18.65 101.5 18.65 100.05 21.85 98.6 18.65 99.45 18.65 99.45 17.75 96.8 17.75 96.8 18.65 97.5 18.65 99.5 22.9 98.8 24.25
Q 98.5 24.7 98.25 24.75 98.15 24.3 97.65 24.3 97.05 24.3 97.05 24.95 97.05 25.25 97.35 25.5 97.65 25.7 98.1 25.7 98.9 25.7 99.55 24.9
L 102.55 18.65 Z"/>
</g>

<g id="Suite_BabyGear_728x90_html5_psd_Asset_1_Suite_Products_Baby_Gear_Fisher_Price_Kick___Play_Piano_Gym__0_Layer0_0_MEMBER_28_FILL">
<path fill="#6B6E71" stroke="none" d="
M 108.9 18.25
Q 108.55 17.65 107.6 17.65 106.5 17.65 105.65 18.7
L 105.65 17.75 103.8 17.75 103.8 18.65 104.65 18.65 104.65 22.25 103.8 22.25 103.8 23.2 106.5 23.2 106.5 22.25 105.7 22.25 105.7 19.45
Q 106.5 18.65 107.25 18.65 107.85 18.65 108.05 19.05
L 108.15 19.7 108.15 22.25 107.3 22.25 107.3 23.2 110 23.2 110 22.25 109.2 22.25 109.2 19.4
Q 110.05 18.65 110.8 18.65 111.35 18.65 111.55 19.05
L 111.65 19.7 111.65 22.25 110.85 22.25 110.85 23.2 113.6 23.2 113.6 22.25 112.75 22.25 112.75 19.45
Q 112.75 18.9 112.5 18.4 112.15 17.65 111 17.65 110 17.65 109.1 18.65
L 108.9 18.25 Z"/>
</g>
</defs>

<g transform="matrix( 1, 0, 0, 1, 611,34) ">
<g transform="matrix( 1, 0, 0, 0.9994049072265625, -17.65,1.2) ">
<use xlink:href="#Suite_BabyGear_728x90_html5_psd_Asset_1_Suite_Products_Baby_Gear_Fisher_Price_Kick___Play_Piano_Gym__0_Layer0_0_MEMBER_0_FILL"/>
</g>

<g transform="matrix( 1, 0, 0, 0.9994049072265625, -17.65,1.2) ">
<use xlink:href="#Suite_BabyGear_728x90_html5_psd_Asset_1_Suite_Products_Baby_Gear_Fisher_Price_Kick___Play_Piano_Gym__0_Layer0_0_MEMBER_1_FILL"/>
</g>

<g transform="matrix( 1, 0, 0, 0.9994049072265625, -17.65,1.2) ">
<use xlink:href="#Suite_BabyGear_728x90_html5_psd_Asset_1_Suite_Products_Baby_Gear_Fisher_Price_Kick___Play_Piano_Gym__0_Layer0_0_MEMBER_2_FILL"/>
</g>

<g transform="matrix( 1, 0, 0, 0.9994049072265625, -17.65,1.2) ">
<use xlink:href="#Suite_BabyGear_728x90_html5_psd_Asset_1_Suite_Products_Baby_Gear_Fisher_Price_Kick___Play_Piano_Gym__0_Layer0_0_MEMBER_3_FILL"/>
</g>

<g transform="matrix( 1, 0, 0, 0.9994049072265625, -17.65,1.2) ">
<use xlink:href="#Suite_BabyGear_728x90_html5_psd_Asset_1_Suite_Products_Baby_Gear_Fisher_Price_Kick___Play_Piano_Gym__0_Layer0_0_MEMBER_4_FILL"/>
</g>

<g transform="matrix( 1, 0, 0, 0.9994049072265625, -17.65,1.2) ">
<use xlink:href="#Suite_BabyGear_728x90_html5_psd_Asset_1_Suite_Products_Baby_Gear_Fisher_Price_Kick___Play_Piano_Gym__0_Layer0_0_MEMBER_5_FILL"/>
</g>

<g transform="matrix( 1, 0, 0, 0.9994049072265625, -17.65,1.2) ">
<use xlink:href="#Suite_BabyGear_728x90_html5_psd_Asset_1_Suite_Products_Baby_Gear_Fisher_Price_Kick___Play_Piano_Gym__0_Layer0_0_MEMBER_6_FILL"/>
</g>

<g transform="matrix( 1, 0, 0, 0.9994049072265625, -17.65,1.2) ">
<use xlink:href="#Suite_BabyGear_728x90_html5_psd_Asset_1_Suite_Products_Baby_Gear_Fisher_Price_Kick___Play_Piano_Gym__0_Layer0_0_MEMBER_7_FILL"/>
</g>

<g transform="matrix( 1, 0, 0, 0.9994049072265625, -17.65,1.2) ">
<use xlink:href="#Suite_BabyGear_728x90_html5_psd_Asset_1_Suite_Products_Baby_Gear_Fisher_Price_Kick___Play_Piano_Gym__0_Layer0_0_MEMBER_8_FILL"/>
</g>

<g transform="matrix( 1, 0, 0, 0.9994049072265625, -17.65,1.2) ">
<use xlink:href="#Suite_BabyGear_728x90_html5_psd_Asset_1_Suite_Products_Baby_Gear_Fisher_Price_Kick___Play_Piano_Gym__0_Layer0_0_MEMBER_9_FILL"/>
</g>

<g transform="matrix( 1, 0, 0, 0.9994049072265625, -17.65,1.2) ">
<use xlink:href="#Suite_BabyGear_728x90_html5_psd_Asset_1_Suite_Products_Baby_Gear_Fisher_Price_Kick___Play_Piano_Gym__0_Layer0_0_MEMBER_10_FILL"/>
</g>

<g transform="matrix( 1, 0, 0, 0.9994049072265625, -17.65,1.2) ">
<use xlink:href="#Suite_BabyGear_728x90_html5_psd_Asset_1_Suite_Products_Baby_Gear_Fisher_Price_Kick___Play_Piano_Gym__0_Layer0_0_MEMBER_11_FILL"/>
</g>

<g transform="matrix( 1, 0, 0, 0.9994049072265625, -17.65,1.2) ">
<use xlink:href="#Suite_BabyGear_728x90_html5_psd_Asset_1_Suite_Products_Baby_Gear_Fisher_Price_Kick___Play_Piano_Gym__0_Layer0_0_MEMBER_12_FILL"/>
</g>

<g transform="matrix( 1, 0, 0, 0.9994049072265625, -17.65,1.2) ">
<use xlink:href="#Suite_BabyGear_728x90_html5_psd_Asset_1_Suite_Products_Baby_Gear_Fisher_Price_Kick___Play_Piano_Gym__0_Layer0_0_MEMBER_13_FILL"/>
</g>

<g transform="matrix( 1, 0, 0, 0.9994049072265625, -17.65,1.2) ">
<use xlink:href="#Suite_BabyGear_728x90_html5_psd_Asset_1_Suite_Products_Baby_Gear_Fisher_Price_Kick___Play_Piano_Gym__0_Layer0_0_MEMBER_14_FILL"/>
</g>

<g transform="matrix( 1, 0, 0, 0.9994049072265625, -17.65,1.2) ">
<use xlink:href="#Suite_BabyGear_728x90_html5_psd_Asset_1_Suite_Products_Baby_Gear_Fisher_Price_Kick___Play_Piano_Gym__0_Layer0_0_MEMBER_15_FILL"/>
</g>

<g transform="matrix( 1, 0, 0, 0.9994049072265625, -17.65,1.2) ">
<use xlink:href="#Suite_BabyGear_728x90_html5_psd_Asset_1_Suite_Products_Baby_Gear_Fisher_Price_Kick___Play_Piano_Gym__0_Layer0_0_MEMBER_16_FILL"/>
</g>

<g transform="matrix( 1, 0, 0, 0.9994049072265625, -17.65,1.2) ">
<use xlink:href="#Suite_BabyGear_728x90_html5_psd_Asset_1_Suite_Products_Baby_Gear_Fisher_Price_Kick___Play_Piano_Gym__0_Layer0_0_MEMBER_17_FILL"/>
</g>

<g transform="matrix( 1, 0, 0, 0.9994049072265625, -17.65,1.2) ">
<use xlink:href="#Suite_BabyGear_728x90_html5_psd_Asset_1_Suite_Products_Baby_Gear_Fisher_Price_Kick___Play_Piano_Gym__0_Layer0_0_MEMBER_18_FILL"/>
</g>

<g transform="matrix( 1, 0, 0, 0.9994049072265625, -17.65,1.2) ">
<use xlink:href="#Suite_BabyGear_728x90_html5_psd_Asset_1_Suite_Products_Baby_Gear_Fisher_Price_Kick___Play_Piano_Gym__0_Layer0_0_MEMBER_19_FILL"/>
</g>

<g transform="matrix( 1, 0, 0, 0.9994049072265625, -17.65,1.2) ">
<use xlink:href="#Suite_BabyGear_728x90_html5_psd_Asset_1_Suite_Products_Baby_Gear_Fisher_Price_Kick___Play_Piano_Gym__0_Layer0_0_MEMBER_20_FILL"/>
</g>

<g transform="matrix( 1, 0, 0, 0.9994049072265625, -17.65,1.2) ">
<use xlink:href="#Suite_BabyGear_728x90_html5_psd_Asset_1_Suite_Products_Baby_Gear_Fisher_Price_Kick___Play_Piano_Gym__0_Layer0_0_MEMBER_21_FILL"/>
</g>

<g transform="matrix( 1, 0, 0, 0.9994049072265625, -17.65,1.2) ">
<use xlink:href="#Suite_BabyGear_728x90_html5_psd_Asset_1_Suite_Products_Baby_Gear_Fisher_Price_Kick___Play_Piano_Gym__0_Layer0_0_MEMBER_22_FILL"/>
</g>

<g transform="matrix( 1, 0, 0, 0.9994049072265625, -17.65,1.2) ">
<use xlink:href="#Suite_BabyGear_728x90_html5_psd_Asset_1_Suite_Products_Baby_Gear_Fisher_Price_Kick___Play_Piano_Gym__0_Layer0_0_MEMBER_23_FILL"/>
</g>

<g transform="matrix( 1, 0, 0, 0.9994049072265625, -17.65,1.2) ">
<use xlink:href="#Suite_BabyGear_728x90_html5_psd_Asset_1_Suite_Products_Baby_Gear_Fisher_Price_Kick___Play_Piano_Gym__0_Layer0_0_MEMBER_24_FILL"/>
</g>

<g transform="matrix( 1, 0, 0, 0.9994049072265625, -17.65,1.2) ">
<use xlink:href="#Suite_BabyGear_728x90_html5_psd_Asset_1_Suite_Products_Baby_Gear_Fisher_Price_Kick___Play_Piano_Gym__0_Layer0_0_MEMBER_25_FILL"/>
</g>

<g transform="matrix( 1, 0, 0, 0.9994049072265625, -17.65,1.2) ">
<use xlink:href="#Suite_BabyGear_728x90_html5_psd_Asset_1_Suite_Products_Baby_Gear_Fisher_Price_Kick___Play_Piano_Gym__0_Layer0_0_MEMBER_26_FILL"/>
</g>

<g transform="matrix( 1, 0, 0, 0.9994049072265625, -17.65,1.2) ">
<use xlink:href="#Suite_BabyGear_728x90_html5_psd_Asset_1_Suite_Products_Baby_Gear_Fisher_Price_Kick___Play_Piano_Gym__0_Layer0_0_MEMBER_27_FILL"/>
</g>

<g transform="matrix( 1, 0, 0, 0.9994049072265625, -17.65,1.2) ">
<use xlink:href="#Suite_BabyGear_728x90_html5_psd_Asset_1_Suite_Products_Baby_Gear_Fisher_Price_Kick___Play_Piano_Gym__0_Layer0_0_MEMBER_28_FILL"/>
</g>
</g>
</svg>
