
<svg xmlns="http://www.w3.org/2000/svg" version="1.1" xmlns:xlink="http://www.w3.org/1999/xlink" preserveAspectRatio="none" x="0px" y="0px" width="160px" height="600px" viewBox="0 0 160 600">
<defs>
<g id="Suite_BabyGear_160x600_html5_psd_Asset_Suite_Products_Baby_Gear_text_And_it_will_come_in_leaps___bounds__copy_0_Layer0_0_MEMBER_0_FILL">
<path fill="#FFFFFF" stroke="none" d="
M 33.8 3.4
L 33.8 1.45 26.55 1.45 26.55 3.4 27.95 3.4 24.75 12.3 23.65 12.3 23.65 14.25 28.55 14.25 28.55 12.3 27 12.3 27.75 10.2 32.5 10.2 33.25 12.3 31.75 12.3 31.75 14.25 36.7 14.25 36.7 12.3 35.6 12.3 32.4 3.4 33.8 3.4
M 28.35 8.35
L 30.1 3.3 31.9 8.35 28.35 8.35 Z"/>
</g>

<g id="Suite_BabyGear_160x600_html5_psd_Asset_Suite_Products_Baby_Gear_text_And_it_will_come_in_leaps___bounds__copy_0_Layer0_0_MEMBER_1_FILL">
<path fill="#FFFFFF" stroke="none" d="
M 40.85 7.1
L 40.85 5.7 37.55 5.7 37.55 7.5 38.8 7.5 38.8 12.5 37.55 12.5 37.55 14.25 42.1 14.25 42.1 12.5 40.95 12.5 40.95 8.5
Q 42.05 7.5 43.15 7.5 43.9 7.5 44.2 8.05 44.35 8.35 44.35 8.95
L 44.35 12.5 43.2 12.5 43.2 14.25 47.75 14.25 47.75 12.5 46.45 12.5 46.45 8.4
Q 46.45 7.35 46.05 6.65 45.35 5.55 43.85 5.55 42.4 5.55 40.85 7.1 Z"/>
</g>

<g id="Suite_BabyGear_160x600_html5_psd_Asset_Suite_Products_Baby_Gear_text_And_it_will_come_in_leaps___bounds__copy_0_Layer0_0_MEMBER_2_FILL">
<path fill="#FFFFFF" stroke="none" d="
M 53.75 0
L 53.75 1.8 55.05 1.8 55.05 6.4
Q 54.1 5.55 52.65 5.55 50.95 5.55 49.75 6.85 48.55 8.15 48.55 10 48.55 11.95 49.7 13.2 50.8 14.4 52.55 14.4 53.85 14.4 55.05 13.3
L 55.05 14.25 58.45 14.25 58.45 12.5 57.15 12.5 57.15 0 53.75 0
M 55.05 8.05
L 55.05 11.7
Q 54.05 12.55 53 12.55 52.05 12.55 51.4 11.9 50.75 11.2 50.75 10 50.75 8.8 51.45 8.05 52.1 7.4 53 7.4 54.1 7.4 55.05 8.05 Z"/>
</g>

<g id="Suite_BabyGear_160x600_html5_psd_Asset_Suite_Products_Baby_Gear_text_And_it_will_come_in_leaps___bounds__copy_0_Layer0_0_MEMBER_3_FILL">
<path fill="#FFFFFF" stroke="none" d="
M 63.75 7.5
L 65.05 7.5 65.05 12.5 63.75 12.5 63.75 14.25 68.45 14.25 68.45 12.5 67.15 12.5 67.15 5.7 63.75 5.7 63.75 7.5
M 65.9 4.4
Q 66.45 4.4 66.9 4 67.3 3.6 67.3 3 67.3 2.45 66.9 2 66.5 1.6 65.9 1.6 65.35 1.6 64.9 2 64.5 2.45 64.5 3 64.5 3.6 64.9 4 65.3 4.4 65.9 4.4 Z"/>
</g>

<g id="Suite_BabyGear_160x600_html5_psd_Asset_Suite_Products_Baby_Gear_text_And_it_will_come_in_leaps___bounds__copy_0_Layer0_0_MEMBER_4_FILL">
<path fill="#FFFFFF" stroke="none" d="
M 75.55 5.7
L 73 5.7 73 3 70.9 3.95 70.9 5.7 69.2 5.7 69.2 7.5 70.9 7.5 70.9 11.9
Q 70.9 12.65 71.15 13.25 71.8 14.4 73.45 14.4 74.6 14.4 75.5 13.9
L 75.7 12.05
Q 74.8 12.5 74 12.5 73.3 12.5 73.1 12.1 73 11.95 73 11.5
L 73 7.5 75.55 7.5 75.55 5.7 Z"/>
</g>

<g id="Suite_BabyGear_160x600_html5_psd_Asset_Suite_Products_Baby_Gear_text_And_it_will_come_in_leaps___bounds__copy_0_Layer0_0_MEMBER_5_FILL">
<path fill="#FFFFFF" stroke="none" d="
M 94.55 7.5
L 94.55 5.7 90.15 5.7 90.15 7.45 91.55 7.45 90.4 11.65 88.4 6.6 86.95 6.6 84.95 11.65 83.8 7.45 85 7.45 85 5.7 80.6 5.7 80.6 7.5 81.85 7.5 83.95 14.6 85.45 14.6 87.6 9.35 89.7 14.6 91.2 14.6 93.3 7.5 94.55 7.5 Z"/>
</g>

<g id="Suite_BabyGear_160x600_html5_psd_Asset_Suite_Products_Baby_Gear_text_And_it_will_come_in_leaps___bounds__copy_0_Layer0_0_MEMBER_6_FILL">
<path fill="#FFFFFF" stroke="none" d="
M 95.25 7.5
L 96.55 7.5 96.55 12.5 95.25 12.5 95.25 14.25 99.95 14.25 99.95 12.5 98.7 12.5 98.7 5.7 95.25 5.7 95.25 7.5
M 97.4 4.4
Q 98 4.4 98.4 4 98.85 3.6 98.85 3 98.85 2.45 98.45 2 98 1.6 97.45 1.6 96.9 1.6 96.45 2 96 2.45 96 3 96 3.6 96.4 4 96.85 4.4 97.4 4.4 Z"/>
</g>

<g id="Suite_BabyGear_160x600_html5_psd_Asset_Suite_Products_Baby_Gear_text_And_it_will_come_in_leaps___bounds__copy_0_Layer0_0_MEMBER_7_FILL">
<path fill="#FFFFFF" stroke="none" d="
M 105.8 14.25
L 105.8 12.5 104.55 12.5 104.55 0 101.1 0 101.1 1.8 102.4 1.8 102.4 12.5 101.1 12.5 101.1 14.25 105.8 14.25 Z"/>
</g>

<g id="Suite_BabyGear_160x600_html5_psd_Asset_Suite_Products_Baby_Gear_text_And_it_will_come_in_leaps___bounds__copy_0_Layer0_0_MEMBER_8_FILL">
<path fill="#FFFFFF" stroke="none" d="
M 106.85 1.8
L 108.15 1.8 108.15 12.5 106.85 12.5 106.85 14.25 111.55 14.25 111.55 12.5 110.25 12.5 110.25 0 106.85 0 106.85 1.8 Z"/>
</g>

<g id="Suite_BabyGear_160x600_html5_psd_Asset_Suite_Products_Baby_Gear_text_And_it_will_come_in_leaps___bounds__copy_0_Layer0_0_MEMBER_9_FILL">
<path fill="#FFFFFF" stroke="none" d="
M 43 31.4
Q 43 30.3 41.95 29.45 40.8 28.55 39.1 28.55 37.25 28.55 36 29.9 34.8 31.15 34.8 32.9 34.8 34.95 36.15 36.2 37.45 37.4 39.5 37.4 41.25 37.4 42.55 36.6
L 42.75 34.7
Q 41.05 35.6 39.7 35.6 38.5 35.6 37.7 34.9 36.9 34.15 36.9 32.95 36.9 31.65 37.65 30.9 38.25 30.25 39.1 30.25 40.15 30.25 40.6 30.85 40.35 31.2 40.35 31.55 40.35 32.1 40.75 32.45 41.15 32.85 41.65 32.85 42.25 32.85 42.6 32.45 43 32.05 43 31.4 Z"/>
</g>

<g id="Suite_BabyGear_160x600_html5_psd_Asset_Suite_Products_Baby_Gear_text_And_it_will_come_in_leaps___bounds__copy_0_Layer0_0_MEMBER_10_FILL">
<path fill="#FFFFFF" stroke="none" d="
M 53.45 32.95
Q 53.45 31.1 52.25 29.85 50.95 28.55 48.9 28.55 46.9 28.55 45.6 29.9 44.4 31.15 44.4 32.95 44.4 34.8 45.6 36.1 46.85 37.4 48.9 37.4 50.95 37.4 52.25 36.05 53.45 34.8 53.45 32.95
M 48.9 35.6
Q 47.9 35.6 47.2 34.9 46.55 34.15 46.55 32.95 46.55 31.8 47.2 31.05 47.9 30.3 48.9 30.3 49.95 30.3 50.6 31.05 51.25 31.8 51.25 32.95 51.25 34.15 50.6 34.9 49.95 35.6 48.9 35.6 Z"/>
</g>

<g id="Suite_BabyGear_160x600_html5_psd_Asset_Suite_Products_Baby_Gear_text_And_it_will_come_in_leaps___bounds__copy_0_Layer0_0_MEMBER_11_FILL">
<path fill="#FFFFFF" stroke="none" d="
M 58 30.05
L 58 28.7 54.7 28.7 54.7 30.5 56 30.5 56 35.5 54.7 35.5 54.7 37.25 59.25 37.25 59.25 35.5 58.1 35.5 58.1 31.45
Q 59.2 30.5 60.2 30.5 60.95 30.5 61.2 31.1 61.35 31.4 61.35 31.9
L 61.35 35.5 60.15 35.5 60.15 37.25 64.6 37.25 64.6 35.5 63.45 35.5 63.45 31.45
Q 64.55 30.5 65.55 30.5 66.35 30.5 66.55 31.1 66.7 31.4 66.7 31.9
L 66.7 35.5 65.55 35.5 65.55 37.25 70.1 37.25 70.1 35.5 68.8 35.5 68.8 31.4
Q 68.8 30.35 68.45 29.8 67.85 28.55 66.05 28.55 64.7 28.55 63.2 29.95 63.05 29.6 62.9 29.45 62.25 28.55 60.9 28.55 59.5 28.55 58 30.05 Z"/>
</g>

<g id="Suite_BabyGear_160x600_html5_psd_Asset_Suite_Products_Baby_Gear_text_And_it_will_come_in_leaps___bounds__copy_0_Layer0_0_MEMBER_12_FILL">
<path fill="#FFFFFF" stroke="none" d="
M 75.25 28.55
Q 73.3 28.55 72.1 29.9 70.9 31.15 70.9 33 70.9 35 72.2 36.2 73.5 37.4 75.6 37.4 77.55 37.4 78.85 36.6
L 79.05 34.7
Q 77.4 35.6 75.95 35.6 73.5 35.6 73.15 33.7
L 79.3 33.7 79.4 32.65
Q 79.4 30.9 78.35 29.75 77.2 28.55 75.25 28.55
M 73.1 32.2
Q 73.45 30.25 75.2 30.25 76.1 30.25 76.7 30.8 77.2 31.3 77.25 32.2
L 73.1 32.2 Z"/>
</g>

<g id="Suite_BabyGear_160x600_html5_psd_Asset_Suite_Products_Baby_Gear_text_And_it_will_come_in_leaps___bounds__copy_0_Layer0_0_MEMBER_13_FILL">
<path fill="#FFFFFF" stroke="none" d="
M 84.9 28.7
L 84.9 30.5 86.2 30.5 86.2 35.5 84.9 35.5 84.9 37.25 89.55 37.25 89.55 35.5 88.3 35.5 88.3 28.7 84.9 28.7
M 87 27.4
Q 87.6 27.4 88.05 27 88.45 26.6 88.45 26 88.45 25.4 88.05 25 87.6 24.6 87.05 24.6 86.5 24.6 86.05 25 85.6 25.4 85.6 26 85.6 26.6 86 27 86.45 27.4 87 27.4 Z"/>
</g>

<g id="Suite_BabyGear_160x600_html5_psd_Asset_Suite_Products_Baby_Gear_text_And_it_will_come_in_leaps___bounds__copy_0_Layer0_0_MEMBER_14_FILL">
<path fill="#FFFFFF" stroke="none" d="
M 99.3 29.65
Q 98.6 28.55 97.1 28.55 95.7 28.55 94.1 30.05
L 94.1 28.7 90.8 28.7 90.8 30.5 92.05 30.5 92.05 35.5 90.8 35.5 90.8 37.25 95.35 37.25 95.35 35.5 94.2 35.5 94.2 31.45
Q 95.3 30.5 96.4 30.5 97.2 30.5 97.45 31.05 97.6 31.35 97.6 31.9
L 97.6 35.5 96.45 35.5 96.45 37.25 101 37.25 101 35.5 99.75 35.5 99.75 31.4
Q 99.75 30.35 99.3 29.65 Z"/>
</g>

<g id="Suite_BabyGear_160x600_html5_psd_Asset_Suite_Products_Baby_Gear_text_And_it_will_come_in_leaps___bounds__copy_0_Layer0_0_MEMBER_15_FILL">
<path fill="#FFFFFF" stroke="none" d="
M 17.65 42.85
L 19.8 42.85 19.8 60.35 17.65 60.35 17.65 63.2 25.35 63.2 25.35 60.35 23.3 60.35 23.3 39.9 17.65 39.9 17.65 42.85 Z"/>
</g>

<g id="Suite_BabyGear_160x600_html5_psd_Asset_Suite_Products_Baby_Gear_text_And_it_will_come_in_leaps___bounds__copy_0_Layer0_0_MEMBER_16_FILL">
<path fill="#FFFFFF" stroke="none" d="
M 35.5 60.55
Q 31.6 60.55 30.9 57.4
L 41 57.4
Q 41.15 56.75 41.15 55.7 41.15 52.8 39.4 50.95 37.55 49 34.35 49 31.2 49 29.2 51.15 27.3 53.2 27.3 56.25 27.3 59.5 29.45 61.5 31.55 63.45 35 63.45 38.1 63.45 40.3 62.2
L 40.55 59.05
Q 38.05 60.55 35.5 60.55
M 32.2 52.55
Q 33.1 51.8 34.35 51.8 35.85 51.8 36.75 52.7 37.6 53.55 37.65 55
L 30.9 55
Q 31.15 53.4 32.2 52.55 Z"/>
</g>

<g id="Suite_BabyGear_160x600_html5_psd_Asset_Suite_Products_Baby_Gear_text_And_it_will_come_in_leaps___bounds__copy_0_Layer0_0_MEMBER_17_FILL">
<path fill="#FFFFFF" stroke="none" d="
M 52.05 54.6
L 52.05 55.75
Q 50.55 55.35 48.55 55.35 46 55.35 44.5 56.5 42.95 57.6 42.95 59.55 42.95 61.4 44.3 62.5 45.55 63.45 47.45 63.45 50.05 63.45 52.15 61.7
L 52.15 63.2 57.5 63.2 57.5 60.35 55.45 60.35 55.45 54.4
Q 55.45 52.2 54.35 50.9 52.75 49 49.35 49 46.7 49 45.15 50.15 43.8 51.15 43.8 52.55 43.8 53.4 44.35 53.9 44.85 54.4 45.65 54.4 46.45 54.4 47 53.9 47.55 53.4 47.55 52.6 47.55 52.2 47.4 51.9 48.1 51.7 48.8 51.7 50.75 51.7 51.55 52.7 52.05 53.35 52.05 54.6
M 52.05 57.5
L 52.05 59.7
Q 50.3 60.95 48.55 60.95 46.5 60.95 46.5 59.25 46.5 57.2 49.2 57.2 50.85 57.2 52.05 57.5 Z"/>
</g>

<g id="Suite_BabyGear_160x600_html5_psd_Asset_Suite_Products_Baby_Gear_text_And_it_will_come_in_leaps___bounds__copy_0_Layer0_0_MEMBER_18_FILL">
<path fill="#FFFFFF" stroke="none" d="
M 64.05 49.25
L 58.65 49.25 58.65 52.2 60.7 52.2 60.7 66.6 58.65 66.6 58.65 69.45 66.45 69.45 66.45 66.6 64.15 66.6 64.15 62.15
Q 65.85 63.45 67.95 63.45 70.7 63.45 72.65 61.35 74.55 59.2 74.55 56.2 74.55 53.05 72.75 51 70.95 49 68.2 49 66.1 49 64.05 50.85
L 64.05 49.25
M 69.9 59.4
Q 68.9 60.45 67.4 60.45 65.6 60.45 64.15 59.4
L 64.15 53.4
Q 65.8 52 67.4 52 68.95 52 69.95 53.1 71 54.25 71 56.2 71 58.2 69.9 59.4 Z"/>
</g>

<g id="Suite_BabyGear_160x600_html5_psd_Asset_Suite_Products_Baby_Gear_text_And_it_will_come_in_leaps___bounds__copy_0_Layer0_0_MEMBER_19_FILL">
<path fill="#FFFFFF" stroke="none" d="
M 85.75 49.4
Q 84.4 49 83.1 49 80.35 49 78.8 50.4 77.4 51.65 77.4 53.4 77.4 55.1 78.7 56.1 79.85 56.9 82.9 57.75 84.5 58.15 85.1 58.5 85.65 58.85 85.65 59.4 85.65 60.9 83.1 60.9 81.55 60.9 80.55 60.45
L 80.65 59.9
Q 80.65 59.05 80.05 58.55 79.5 58.05 78.75 58.05 77.95 58.05 77.45 58.6 76.9 59.15 76.9 59.95 76.9 61 77.7 61.8 78.4 62.5 79.95 63 81.5 63.5 83.05 63.5 85.55 63.5 87.2 62.35 88.95 61.1 88.95 59 88.95 57.25 87.55 56.3 86.45 55.5 83.65 54.75 82.05 54.35 81.4 53.95 80.75 53.6 80.75 53 80.75 52.4 81.3 52 81.95 51.55 83.05 51.55 84 51.55 85.05 51.9 84.95 52.1 84.95 52.5 84.95 53.3 85.5 53.75 86 54.25 86.85 54.25 87.6 54.25 88.1 53.7 88.55 53.2 88.55 52.35 88.55 51.4 87.8 50.55 87.1 49.85 85.75 49.4 Z"/>
</g>

<g id="Suite_BabyGear_160x600_html5_psd_Asset_Suite_Products_Baby_Gear_text_And_it_will_come_in_leaps___bounds__copy_0_Layer0_0_MEMBER_20_FILL">
<path fill="#FFFFFF" stroke="none" d="
M 101.75 44.2
Q 100.25 45.65 100.25 47.6 100.25 49.8 102.35 52.2 98.2 54.25 98.2 57.9 98.2 60.45 100.1 61.95 102.1 63.55 105.65 63.55 109.45 63.55 112.15 61
L 115.15 63.6 117.15 61.3 114.15 58.75
Q 115.25 57 115.95 54.5
L 117.75 54.5 117.75 51.65 111.45 51.65 111.45 54.45 113.1 54.45
Q 112.65 55.75 111.95 56.95
L 107.35 52.85
Q 111.75 50.8 111.75 47.4 111.75 45.2 110.2 43.9 108.6 42.6 106 42.6 103.4 42.6 101.75 44.2
M 107.65 45.9
Q 108.2 46.5 108.2 47.4 108.2 49.75 105.45 51.1 103.8 49.15 103.8 47.65 103.8 46.75 104.4 46.05 105 45.3 106 45.3 107 45.3 107.65 45.9
M 104.25 54
L 109.85 59.15
Q 108 60.6 105.65 60.6 103.9 60.6 102.8 59.65 101.8 58.75 101.8 57.6 101.8 55.3 104.25 54 Z"/>
</g>

<g id="Suite_BabyGear_160x600_html5_psd_Asset_Suite_Products_Baby_Gear_text_And_it_will_come_in_leaps___bounds__copy_0_Layer0_0_MEMBER_21_FILL">
<path fill="#FFFFFF" stroke="none" d="
M 18.2 68.85
L 12.65 68.85 12.65 71.8 14.75 71.8 14.75 92.25 17.1 92.25 17.85 90.85
Q 19.85 92.45 22.1 92.45 24.9 92.45 26.85 90.3 28.8 88.2 28.8 85.15 28.8 82 26.95 80 25.1 78 22.3 78 20.05 78 18.2 79.75
L 18.2 68.85
M 18.2 88.35
L 18.2 82.35
Q 19.85 80.95 21.5 80.95 23.1 80.95 24.1 82.05 25.2 83.2 25.2 85.15 25.2 87.15 24.1 88.35 23.05 89.45 21.5 89.45 19.8 89.45 18.2 88.35 Z"/>
</g>

<g id="Suite_BabyGear_160x600_html5_psd_Asset_Suite_Products_Baby_Gear_text_And_it_will_come_in_leaps___bounds__copy_0_Layer0_0_MEMBER_22_FILL">
<path fill="#FFFFFF" stroke="none" d="
M 32.95 90.3
Q 35 92.45 38.35 92.45 41.7 92.45 43.8 90.25 45.8 88.2 45.8 85.2 45.8 82.15 43.8 80.15 41.75 78 38.35 78 35.05 78 32.95 80.2 30.95 82.25 30.95 85.2 30.95 88.25 32.95 90.3
M 35.6 82.1
Q 36.65 80.9 38.35 80.9 40.1 80.9 41.15 82.1 42.25 83.3 42.25 85.2 42.25 87.1 41.15 88.35 40.05 89.55 38.35 89.55 36.65 89.55 35.6 88.35 34.5 87.1 34.5 85.2 34.5 83.3 35.6 82.1 Z"/>
</g>

<g id="Suite_BabyGear_160x600_html5_psd_Asset_Suite_Products_Baby_Gear_text_And_it_will_come_in_leaps___bounds__copy_0_Layer0_0_MEMBER_23_FILL">
<path fill="#FFFFFF" stroke="none" d="
M 56.15 81.15
L 58.3 81.15 58.3 87.65
Q 56.4 89.3 54.7 89.3 53.5 89.3 53 88.35 52.7 87.85 52.7 86.95
L 52.7 78.25 47.15 78.25 47.15 81.15 49.25 81.15 49.25 87.8
Q 49.25 89.45 49.95 90.6 51.1 92.45 53.55 92.45 55.85 92.45 58.45 89.95
L 58.45 92.2 63.85 92.2 63.85 89.3 61.8 89.3 61.8 78.25 56.15 78.25 56.15 81.15 Z"/>
</g>

<g id="Suite_BabyGear_160x600_html5_psd_Asset_Suite_Products_Baby_Gear_text_And_it_will_come_in_leaps___bounds__copy_0_Layer0_0_MEMBER_24_FILL">
<path fill="#FFFFFF" stroke="none" d="
M 82.35 92.2
L 82.35 89.3 80.3 89.3 80.3 82.65
Q 80.3 80.9 79.55 79.75 78.35 78 75.95 78 73.55 78 71.1 80.45
L 71.1 78.25 65.65 78.25 65.65 81.15 67.75 81.15 67.75 89.3 65.65 89.3 65.65 92.2 73.1 92.2 73.1 89.3 71.2 89.3 71.2 82.75
Q 73.25 81.15 74.8 81.15 76.05 81.15 76.55 82.05 76.8 82.65 76.8 83.5
L 76.8 89.3 74.9 89.3 74.9 92.2 82.35 92.2 Z"/>
</g>

<g id="Suite_BabyGear_160x600_html5_psd_Asset_Suite_Products_Baby_Gear_text_And_it_will_come_in_leaps___bounds__copy_0_Layer0_0_MEMBER_25_FILL">
<path fill="#FFFFFF" stroke="none" d="
M 97.75 68.85
L 92.2 68.85 92.2 71.8 94.3 71.8 94.3 79.3
Q 92.7 78 90.4 78 87.6 78 85.65 80.15 83.75 82.25 83.75 85.25 83.75 88.4 85.6 90.45 87.4 92.45 90.2 92.45 92.5 92.45 94.3 90.65
L 94.3 92.2 99.85 92.2 99.85 89.3 97.75 89.3 97.75 68.85
M 88.4 82.05
Q 89.45 80.95 91 80.95 92.8 80.95 94.3 82.05
L 94.3 88.05
Q 92.65 89.45 91 89.45 89.4 89.45 88.4 88.35 87.3 87.2 87.3 85.25 87.3 83.25 88.4 82.05 Z"/>
</g>

<g id="Suite_BabyGear_160x600_html5_psd_Asset_Suite_Products_Baby_Gear_text_And_it_will_come_in_leaps___bounds__copy_0_Layer0_0_MEMBER_26_FILL">
<path fill="#FFFFFF" stroke="none" d="
M 112.75 82.7
Q 113.2 82.15 113.2 81.3 113.2 80.3 112.45 79.55 111.75 78.85 110.4 78.4 109.05 77.95 107.75 77.95 105 77.95 103.45 79.35 102.05 80.6 102.05 82.35 102.05 84.1 103.35 85.05 104.5 85.9 107.55 86.7 109.15 87.15 109.75 87.5 110.3 87.85 110.3 88.4 110.3 89.1 109.55 89.55 108.85 89.9 107.75 89.9 106.35 89.9 105.25 89.45
L 105.3 88.85
Q 105.3 88 104.7 87.5 104.15 87 103.4 87 102.65 87 102.1 87.6 101.55 88.15 101.55 88.9 101.55 89.95 102.35 90.8 103.1 91.5 104.6 91.95 106.15 92.45 107.7 92.45 110.2 92.45 111.85 91.3 113.6 90.1 113.6 88 113.6 86.25 112.2 85.25 111.15 84.5 108.3 83.75 106.65 83.3 106.05 82.95 105.4 82.55 105.4 81.95 105.4 81.35 105.95 80.95 106.6 80.5 107.7 80.5 108.75 80.5 109.7 80.9 109.6 81.05 109.6 81.5 109.6 82.3 110.15 82.75 110.65 83.2 111.5 83.2 112.25 83.2 112.75 82.7 Z"/>
</g>

<g id="Suite_BabyGear_160x600_html5_psd_Asset_Suite_Products_Baby_Gear_text_And_it_will_come_in_leaps___bounds__copy_0_Layer0_0_MEMBER_27_FILL">
<path fill="#FFFFFF" stroke="none" d="
M 117.1 91.65
Q 117.85 92.45 118.95 92.45 120.05 92.45 120.8 91.65 121.55 90.9 121.55 89.8 121.55 88.7 120.8 87.95 120.05 87.2 118.95 87.2 117.85 87.2 117.1 87.95 116.35 88.7 116.35 89.8 116.35 90.9 117.1 91.65 Z"/>
</g>
</defs>

<g transform="matrix( 1, 0, 0, 1, 15,67) ">
<g transform="matrix( 1, 0, 0, 1, 3,0) ">
<g transform="matrix( 1.1206512451171875, 0, 0, 1.1260833740234375, -13.65,-0.45) ">
<use xlink:href="#Suite_BabyGear_160x600_html5_psd_Asset_Suite_Products_Baby_Gear_text_And_it_will_come_in_leaps___bounds__copy_0_Layer0_0_MEMBER_0_FILL"/>
</g>

<g transform="matrix( 1.1206512451171875, 0, 0, 1.1260833740234375, -13.65,-0.45) ">
<use xlink:href="#Suite_BabyGear_160x600_html5_psd_Asset_Suite_Products_Baby_Gear_text_And_it_will_come_in_leaps___bounds__copy_0_Layer0_0_MEMBER_1_FILL"/>
</g>

<g transform="matrix( 1.1206512451171875, 0, 0, 1.1260833740234375, -13.65,-0.45) ">
<use xlink:href="#Suite_BabyGear_160x600_html5_psd_Asset_Suite_Products_Baby_Gear_text_And_it_will_come_in_leaps___bounds__copy_0_Layer0_0_MEMBER_2_FILL"/>
</g>

<g transform="matrix( 1.1206512451171875, 0, 0, 1.1260833740234375, -13.65,-0.45) ">
<use xlink:href="#Suite_BabyGear_160x600_html5_psd_Asset_Suite_Products_Baby_Gear_text_And_it_will_come_in_leaps___bounds__copy_0_Layer0_0_MEMBER_3_FILL"/>
</g>

<g transform="matrix( 1.1206512451171875, 0, 0, 1.1260833740234375, -13.65,-0.45) ">
<use xlink:href="#Suite_BabyGear_160x600_html5_psd_Asset_Suite_Products_Baby_Gear_text_And_it_will_come_in_leaps___bounds__copy_0_Layer0_0_MEMBER_4_FILL"/>
</g>

<g transform="matrix( 1.1206512451171875, 0, 0, 1.1260833740234375, -13.65,-0.45) ">
<use xlink:href="#Suite_BabyGear_160x600_html5_psd_Asset_Suite_Products_Baby_Gear_text_And_it_will_come_in_leaps___bounds__copy_0_Layer0_0_MEMBER_5_FILL"/>
</g>

<g transform="matrix( 1.1206512451171875, 0, 0, 1.1260833740234375, -13.65,-0.45) ">
<use xlink:href="#Suite_BabyGear_160x600_html5_psd_Asset_Suite_Products_Baby_Gear_text_And_it_will_come_in_leaps___bounds__copy_0_Layer0_0_MEMBER_6_FILL"/>
</g>

<g transform="matrix( 1.1206512451171875, 0, 0, 1.1260833740234375, -13.65,-0.45) ">
<use xlink:href="#Suite_BabyGear_160x600_html5_psd_Asset_Suite_Products_Baby_Gear_text_And_it_will_come_in_leaps___bounds__copy_0_Layer0_0_MEMBER_7_FILL"/>
</g>

<g transform="matrix( 1.1206512451171875, 0, 0, 1.1260833740234375, -13.65,-0.45) ">
<use xlink:href="#Suite_BabyGear_160x600_html5_psd_Asset_Suite_Products_Baby_Gear_text_And_it_will_come_in_leaps___bounds__copy_0_Layer0_0_MEMBER_8_FILL"/>
</g>

<g transform="matrix( 1.1206512451171875, 0, 0, 1.1260833740234375, -13.65,-0.45) ">
<use xlink:href="#Suite_BabyGear_160x600_html5_psd_Asset_Suite_Products_Baby_Gear_text_And_it_will_come_in_leaps___bounds__copy_0_Layer0_0_MEMBER_9_FILL"/>
</g>

<g transform="matrix( 1.1206512451171875, 0, 0, 1.1260833740234375, -13.65,-0.45) ">
<use xlink:href="#Suite_BabyGear_160x600_html5_psd_Asset_Suite_Products_Baby_Gear_text_And_it_will_come_in_leaps___bounds__copy_0_Layer0_0_MEMBER_10_FILL"/>
</g>

<g transform="matrix( 1.1206512451171875, 0, 0, 1.1260833740234375, -13.65,-0.45) ">
<use xlink:href="#Suite_BabyGear_160x600_html5_psd_Asset_Suite_Products_Baby_Gear_text_And_it_will_come_in_leaps___bounds__copy_0_Layer0_0_MEMBER_11_FILL"/>
</g>

<g transform="matrix( 1.1206512451171875, 0, 0, 1.1260833740234375, -13.65,-0.45) ">
<use xlink:href="#Suite_BabyGear_160x600_html5_psd_Asset_Suite_Products_Baby_Gear_text_And_it_will_come_in_leaps___bounds__copy_0_Layer0_0_MEMBER_12_FILL"/>
</g>

<g transform="matrix( 1.1206512451171875, 0, 0, 1.1260833740234375, -13.65,-0.45) ">
<use xlink:href="#Suite_BabyGear_160x600_html5_psd_Asset_Suite_Products_Baby_Gear_text_And_it_will_come_in_leaps___bounds__copy_0_Layer0_0_MEMBER_13_FILL"/>
</g>

<g transform="matrix( 1.1206512451171875, 0, 0, 1.1260833740234375, -13.65,-0.45) ">
<use xlink:href="#Suite_BabyGear_160x600_html5_psd_Asset_Suite_Products_Baby_Gear_text_And_it_will_come_in_leaps___bounds__copy_0_Layer0_0_MEMBER_14_FILL"/>
</g>

<g transform="matrix( 1.1206512451171875, 0, 0, 1.1260833740234375, -13.65,-0.45) ">
<use xlink:href="#Suite_BabyGear_160x600_html5_psd_Asset_Suite_Products_Baby_Gear_text_And_it_will_come_in_leaps___bounds__copy_0_Layer0_0_MEMBER_15_FILL"/>
</g>

<g transform="matrix( 1.1206512451171875, 0, 0, 1.1260833740234375, -13.65,-0.45) ">
<use xlink:href="#Suite_BabyGear_160x600_html5_psd_Asset_Suite_Products_Baby_Gear_text_And_it_will_come_in_leaps___bounds__copy_0_Layer0_0_MEMBER_16_FILL"/>
</g>

<g transform="matrix( 1.1206512451171875, 0, 0, 1.1260833740234375, -13.65,-0.45) ">
<use xlink:href="#Suite_BabyGear_160x600_html5_psd_Asset_Suite_Products_Baby_Gear_text_And_it_will_come_in_leaps___bounds__copy_0_Layer0_0_MEMBER_17_FILL"/>
</g>

<g transform="matrix( 1.1206512451171875, 0, 0, 1.1260833740234375, -13.65,-0.45) ">
<use xlink:href="#Suite_BabyGear_160x600_html5_psd_Asset_Suite_Products_Baby_Gear_text_And_it_will_come_in_leaps___bounds__copy_0_Layer0_0_MEMBER_18_FILL"/>
</g>

<g transform="matrix( 1.1206512451171875, 0, 0, 1.1260833740234375, -13.65,-0.45) ">
<use xlink:href="#Suite_BabyGear_160x600_html5_psd_Asset_Suite_Products_Baby_Gear_text_And_it_will_come_in_leaps___bounds__copy_0_Layer0_0_MEMBER_19_FILL"/>
</g>

<g transform="matrix( 1.1206512451171875, 0, 0, 1.1260833740234375, -13.65,-0.45) ">
<use xlink:href="#Suite_BabyGear_160x600_html5_psd_Asset_Suite_Products_Baby_Gear_text_And_it_will_come_in_leaps___bounds__copy_0_Layer0_0_MEMBER_20_FILL"/>
</g>

<g transform="matrix( 1.1206512451171875, 0, 0, 1.1260833740234375, -13.65,-0.45) ">
<use xlink:href="#Suite_BabyGear_160x600_html5_psd_Asset_Suite_Products_Baby_Gear_text_And_it_will_come_in_leaps___bounds__copy_0_Layer0_0_MEMBER_21_FILL"/>
</g>

<g transform="matrix( 1.1206512451171875, 0, 0, 1.1260833740234375, -13.65,-0.45) ">
<use xlink:href="#Suite_BabyGear_160x600_html5_psd_Asset_Suite_Products_Baby_Gear_text_And_it_will_come_in_leaps___bounds__copy_0_Layer0_0_MEMBER_22_FILL"/>
</g>

<g transform="matrix( 1.1206512451171875, 0, 0, 1.1260833740234375, -13.65,-0.45) ">
<use xlink:href="#Suite_BabyGear_160x600_html5_psd_Asset_Suite_Products_Baby_Gear_text_And_it_will_come_in_leaps___bounds__copy_0_Layer0_0_MEMBER_23_FILL"/>
</g>

<g transform="matrix( 1.1206512451171875, 0, 0, 1.1260833740234375, -13.65,-0.45) ">
<use xlink:href="#Suite_BabyGear_160x600_html5_psd_Asset_Suite_Products_Baby_Gear_text_And_it_will_come_in_leaps___bounds__copy_0_Layer0_0_MEMBER_24_FILL"/>
</g>

<g transform="matrix( 1.1206512451171875, 0, 0, 1.1260833740234375, -13.65,-0.45) ">
<use xlink:href="#Suite_BabyGear_160x600_html5_psd_Asset_Suite_Products_Baby_Gear_text_And_it_will_come_in_leaps___bounds__copy_0_Layer0_0_MEMBER_25_FILL"/>
</g>

<g transform="matrix( 1.1206512451171875, 0, 0, 1.1260833740234375, -13.65,-0.45) ">
<use xlink:href="#Suite_BabyGear_160x600_html5_psd_Asset_Suite_Products_Baby_Gear_text_And_it_will_come_in_leaps___bounds__copy_0_Layer0_0_MEMBER_26_FILL"/>
</g>

<g transform="matrix( 1.1206512451171875, 0, 0, 1.1260833740234375, -13.65,-0.45) ">
<use xlink:href="#Suite_BabyGear_160x600_html5_psd_Asset_Suite_Products_Baby_Gear_text_And_it_will_come_in_leaps___bounds__copy_0_Layer0_0_MEMBER_27_FILL"/>
</g>
</g>
</g>
</svg>
