
<svg xmlns="http://www.w3.org/2000/svg" version="1.1" xmlns:xlink="http://www.w3.org/1999/xlink" preserveAspectRatio="none" x="0px" y="0px" width="728px" height="90px" viewBox="0 0 728 90">
<defs>
<g id="Suite_Toys_728x90_html5_psd_Asset_Suite_Products_Toy_text_Celebrate_their_everyday_victories__0_Layer0_0_MEMBER_0_FILL">
<path fill="#FFFFFF" stroke="none" d="
M 45.05 2.5
Q 43.4 1.4 40.9 1.4 37.65 1.4 35.4 3.55 33.15 5.75 33.15 9.05 33.15 12.5 35.35 14.6 37.5 16.7 40.95 16.7 44.6 16.7 46.9 14.15
L 45.2 12.4
Q 43.4 14.35 40.95 14.35 38.65 14.35 37.2 12.8 35.75 11.3 35.75 9.05 35.75 6.75 37.2 5.25 38.65 3.75 40.85 3.75 42.65 3.75 43.45 4.45 43.3 4.9 43.3 5.2 43.3 5.9 43.8 6.35 44.25 6.8 45 6.8 45.7 6.8 46.2 6.3 46.65 5.75 46.65 4.95 46.65 3.55 45.05 2.5 Z"/>
</g>

<g id="Suite_Toys_728x90_html5_psd_Asset_Suite_Products_Toy_text_Celebrate_their_everyday_victories__0_Layer0_0_MEMBER_1_FILL">
<path fill="#FFFFFF" stroke="none" d="
M 50.8 12.35
L 57.9 12.35 58 11.15
Q 58 9.1 56.8 7.85 55.5 6.45 53.2 6.45 51 6.45 49.6 7.95 48.25 9.4 48.25 11.55 48.25 13.85 49.75 15.25 51.25 16.65 53.65 16.65 55.85 16.65 57.4 15.75
L 57.6 13.55
Q 55.85 14.55 54.05 14.55 51.3 14.55 50.8 12.35
M 50.75 10.65
Q 51.15 8.4 53.2 8.4 54.25 8.4 54.9 9 55.5 9.6 55.55 10.65
L 50.75 10.65 Z"/>
</g>

<g id="Suite_Toys_728x90_html5_psd_Asset_Suite_Products_Toy_text_Celebrate_their_everyday_victories__0_Layer0_0_MEMBER_2_FILL">
<path fill="#FFFFFF" stroke="none" d="
M 64.7 16.45
L 64.7 14.45 63.25 14.45 63.25 0 59.3 0 59.3 2.05 60.8 2.05 60.8 14.45 59.3 14.45 59.3 16.45 64.7 16.45 Z"/>
</g>

<g id="Suite_Toys_728x90_html5_psd_Asset_Suite_Products_Toy_text_Celebrate_their_everyday_victories__0_Layer0_0_MEMBER_3_FILL">
<path fill="#FFFFFF" stroke="none" d="
M 74.65 7.85
Q 73.35 6.45 71.1 6.45 68.85 6.45 67.45 7.95 66.1 9.4 66.1 11.55 66.1 13.85 67.6 15.25 69.1 16.65 71.55 16.65 73.75 16.65 75.25 15.75
L 75.45 13.55
Q 73.7 14.55 71.9 14.55 69.15 14.55 68.65 12.35
L 75.75 12.35 75.85 11.15
Q 75.85 9.1 74.65 7.85
M 72.75 9
Q 73.35 9.6 73.4 10.65
L 68.65 10.65
Q 68.85 9.55 69.55 8.95 70.2 8.4 71.05 8.4 72.1 8.4 72.75 9 Z"/>
</g>

<g id="Suite_Toys_728x90_html5_psd_Asset_Suite_Products_Toy_text_Celebrate_their_everyday_victories__0_Layer0_0_MEMBER_4_FILL">
<path fill="#FFFFFF" stroke="none" d="
M 86.8 7.85
Q 85.5 6.45 83.55 6.45 81.9 6.45 80.65 7.7
L 80.65 0 76.7 0 76.7 2.05 78.2 2.05 78.2 16.5 79.85 16.5 80.4 15.5
Q 81.8 16.65 83.4 16.65 85.4 16.65 86.75 15.15 88.1 13.65 88.1 11.5 88.1 9.25 86.8 7.85
M 84.8 13.75
Q 84.1 14.5 83 14.5 81.75 14.5 80.65 13.75
L 80.65 9.55
Q 81.8 8.55 83 8.55 84.15 8.55 84.85 9.3 85.6 10.1 85.6 11.5 85.6 12.9 84.8 13.75 Z"/>
</g>

<g id="Suite_Toys_728x90_html5_psd_Asset_Suite_Products_Toy_text_Celebrate_their_everyday_victories__0_Layer0_0_MEMBER_5_FILL">
<path fill="#FFFFFF" stroke="none" d="
M 98.35 8.05
Q 98.35 6.45 96.5 6.45 94.8 6.45 93.4 8.85
L 93.4 6.6 89.55 6.6 89.55 8.7 91.05 8.7 91.05 14.45 89.55 14.45 89.55 16.45 95.2 16.45 95.2 14.45 93.5 14.45 93.5 10.55
Q 94.25 9.15 95.45 8.7 95.85 9.55 96.85 9.55 97.5 9.55 97.9 9.1 98.35 8.7 98.35 8.05 Z"/>
</g>

<g id="Suite_Toys_728x90_html5_psd_Asset_Suite_Products_Toy_text_Celebrate_their_everyday_victories__0_Layer0_0_MEMBER_6_FILL">
<path fill="#FFFFFF" stroke="none" d="
M 101.95 9.9
Q 102.35 9.5 102.35 8.95
L 102.25 8.45
Q 103 8.3 103.25 8.3 104.6 8.3 105.15 9.05 105.55 9.55 105.55 10.4
L 105.55 11.15
Q 104.2 10.9 103.05 10.9 101.25 10.9 100.2 11.7 99.1 12.5 99.1 13.85 99.1 15.2 100.05 15.95 100.95 16.65 102.3 16.65 104.1 16.65 105.6 15.35
L 105.6 16.45 109.4 16.45 109.4 14.45 107.95 14.45 107.95 10.2
Q 107.95 8.7 107.15 7.75 106.1 6.45 103.65 6.45 101.75 6.45 100.7 7.25 99.75 7.9 99.75 8.9 99.75 10.25 101.05 10.25 101.6 10.25 101.95 9.9
M 105.55 14
Q 104.3 14.85 103.1 14.85 101.6 14.85 101.6 13.65 101.6 12.2 103.55 12.2 104.65 12.2 105.55 12.45
L 105.55 14 Z"/>
</g>

<g id="Suite_Toys_728x90_html5_psd_Asset_Suite_Products_Toy_text_Celebrate_their_everyday_victories__0_Layer0_0_MEMBER_7_FILL">
<path fill="#FFFFFF" stroke="none" d="
M 111.85 4.55
L 111.85 6.6 109.95 6.6 109.95 8.7 111.85 8.7 111.85 13.75
Q 111.85 14.65 112.2 15.3 112.95 16.65 114.85 16.65 116.1 16.65 117.2 16.05
L 117.4 13.95
Q 116.3 14.45 115.5 14.45 114.7 14.45 114.45 14 114.3 13.65 114.3 13.25
L 114.3 8.7 117.25 8.7 117.25 6.6 114.3 6.6 114.3 3.5 111.85 4.55 Z"/>
</g>

<g id="Suite_Toys_728x90_html5_psd_Asset_Suite_Products_Toy_text_Celebrate_their_everyday_victories__0_Layer0_0_MEMBER_8_FILL">
<path fill="#FFFFFF" stroke="none" d="
M 127.95 13.55
Q 126.2 14.55 124.35 14.55 121.65 14.55 121.15 12.35
L 128.25 12.35 128.35 11.15
Q 128.35 9.1 127.15 7.85 125.85 6.45 123.55 6.45 121.35 6.45 119.95 7.95 118.6 9.4 118.6 11.55 118.6 13.85 120.1 15.25 121.6 16.65 124 16.65 126.2 16.65 127.75 15.75
L 127.95 13.55
M 125.25 9
Q 125.85 9.6 125.9 10.65
L 121.1 10.65
Q 121.5 8.4 123.55 8.4 124.6 8.4 125.25 9 Z"/>
</g>

<g id="Suite_Toys_728x90_html5_psd_Asset_Suite_Products_Toy_text_Celebrate_their_everyday_victories__0_Layer0_0_MEMBER_9_FILL">
<path fill="#FFFFFF" stroke="none" d="
M 136.1 6.6
L 134.2 6.6 134.2 8.7 136.1 8.7 136.1 13.75
Q 136.1 14.65 136.45 15.3 137.2 16.65 139.1 16.65 140.35 16.65 141.45 16.05
L 141.65 13.95
Q 140.45 14.45 139.7 14.45 138.95 14.45 138.7 14 138.55 13.65 138.55 13.25
L 138.55 8.7 141.5 8.7 141.5 6.6 138.55 6.6 138.55 3.5 136.1 4.55 136.1 6.6 Z"/>
</g>

<g id="Suite_Toys_728x90_html5_psd_Asset_Suite_Products_Toy_text_Celebrate_their_everyday_victories__0_Layer0_0_MEMBER_10_FILL">
<path fill="#FFFFFF" stroke="none" d="
M 153.2 9.7
Q 153.2 8.4 152.55 7.5 151.75 6.45 150.1 6.45 148.45 6.45 146.8 8.1
L 146.8 0 142.85 0 142.85 2.05 144.35 2.05 144.35 14.45 142.85 14.45 142.85 16.45 148.1 16.45 148.1 14.45 146.8 14.45 146.8 9.8
Q 148.15 8.65 149.3 8.65 150.05 8.65 150.4 9.1 150.75 9.65 150.75 10.3
L 150.75 14.45 149.4 14.45 149.4 16.45 154.65 16.45 154.65 14.45 153.2 14.45 153.2 9.7 Z"/>
</g>

<g id="Suite_Toys_728x90_html5_psd_Asset_Suite_Products_Toy_text_Celebrate_their_everyday_victories__0_Layer0_0_MEMBER_11_FILL">
<path fill="#FFFFFF" stroke="none" d="
M 164.75 15.75
L 164.95 13.55
Q 163.25 14.55 161.4 14.55 158.65 14.55 158.15 12.35
L 165.25 12.35
Q 165.4 11.85 165.4 11.15 165.4 9.1 164.2 7.85 162.9 6.45 160.6 6.45 158.35 6.45 156.95 7.95 155.6 9.4 155.6 11.55 155.6 13.85 157.15 15.25 158.65 16.65 161.05 16.65 163.25 16.65 164.75 15.75
M 162.3 9
Q 162.9 9.65 162.95 10.65
L 158.15 10.65
Q 158.35 9.55 159.05 8.95 159.7 8.4 160.55 8.4 161.65 8.4 162.3 9 Z"/>
</g>

<g id="Suite_Toys_728x90_html5_psd_Asset_Suite_Products_Toy_text_Celebrate_their_everyday_victories__0_Layer0_0_MEMBER_12_FILL">
<path fill="#FFFFFF" stroke="none" d="
M 166.8 6.6
L 166.8 8.7 168.3 8.7 168.3 14.45 166.8 14.45 166.8 16.45 172.2 16.45 172.2 14.45 170.75 14.45 170.75 6.6 166.8 6.6
M 169.25 5.1
Q 169.95 5.1 170.45 4.65 170.95 4.15 170.95 3.5 170.95 2.85 170.45 2.35 170 1.85 169.3 1.85 168.65 1.85 168.15 2.35 167.65 2.85 167.65 3.5 167.65 4.15 168.15 4.65 168.6 5.1 169.25 5.1 Z"/>
</g>

<g id="Suite_Toys_728x90_html5_psd_Asset_Suite_Products_Toy_text_Celebrate_their_everyday_victories__0_Layer0_0_MEMBER_13_FILL">
<path fill="#FFFFFF" stroke="none" d="
M 180.95 9.55
Q 181.55 9.55 182 9.1 182.4 8.7 182.4 8.05 182.4 6.45 180.55 6.45 178.95 6.45 177.45 8.85
L 177.45 6.6 173.65 6.6 173.65 8.7 175.1 8.7 175.1 14.45 173.65 14.45 173.65 16.45 179.25 16.45 179.25 14.45 177.55 14.45 177.55 10.55
Q 178.3 9.15 179.5 8.7 179.9 9.55 180.95 9.55 Z"/>
</g>

<g id="Suite_Toys_728x90_html5_psd_Asset_Suite_Products_Toy_text_Celebrate_their_everyday_victories__0_Layer0_0_MEMBER_14_FILL">
<path fill="#FFFFFF" stroke="none" d="
M 197 7.85
Q 195.7 6.45 193.4 6.45 191.15 6.45 189.75 7.95 188.4 9.4 188.4 11.55 188.4 13.85 189.95 15.25 191.45 16.65 193.85 16.65 196.05 16.65 197.55 15.75
L 197.8 13.55
Q 196.05 14.55 194.2 14.55 191.45 14.55 190.95 12.35
L 198.05 12.35
Q 198.2 11.85 198.2 11.15 198.2 9.1 197 7.85
M 195.1 9
Q 195.7 9.65 195.75 10.65
L 190.95 10.65
Q 191.15 9.55 191.85 8.95 192.5 8.4 193.35 8.4 194.45 8.4 195.1 9 Z"/>
</g>

<g id="Suite_Toys_728x90_html5_psd_Asset_Suite_Products_Toy_text_Celebrate_their_everyday_victories__0_Layer0_0_MEMBER_15_FILL">
<path fill="#FFFFFF" stroke="none" d="
M 204 8.55
L 204 6.6 199 6.6 199 8.7 200.15 8.7 204.05 16.65 205.8 16.65 209.7 8.7 210.85 8.7 210.85 6.6 205.85 6.6 205.85 8.55 207.35 8.55 204.95 13.7 202.6 8.55 204 8.55 Z"/>
</g>

<g id="Suite_Toys_728x90_html5_psd_Asset_Suite_Products_Toy_text_Celebrate_their_everyday_victories__0_Layer0_0_MEMBER_16_FILL">
<path fill="#FFFFFF" stroke="none" d="
M 216.4 6.45
Q 214.15 6.45 212.75 7.95 211.4 9.4 211.4 11.55 211.4 13.85 212.95 15.25 214.45 16.65 216.85 16.65 219.05 16.65 220.6 15.75
L 220.8 13.55
Q 219.05 14.55 217.2 14.55 214.45 14.55 214 12.35
L 221.1 12.35 221.2 11.15
Q 221.2 9.1 220 7.85 218.7 6.45 216.4 6.45
M 213.95 10.65
Q 214.35 8.4 216.4 8.4 217.45 8.4 218.1 9 218.7 9.65 218.75 10.65
L 213.95 10.65 Z"/>
</g>

<g id="Suite_Toys_728x90_html5_psd_Asset_Suite_Products_Toy_text_Celebrate_their_everyday_victories__0_Layer0_0_MEMBER_17_FILL">
<path fill="#FFFFFF" stroke="none" d="
M 231.35 8.05
Q 231.35 6.45 229.5 6.45 227.9 6.45 226.4 8.85
L 226.4 6.6 222.6 6.6 222.6 8.7 224.05 8.7 224.05 14.45 222.6 14.45 222.6 16.45 228.2 16.45 228.2 14.45 226.5 14.45 226.5 10.55
Q 227.25 9.15 228.45 8.7 228.85 9.55 229.9 9.55 230.5 9.55 230.95 9.1 231.35 8.7 231.35 8.05 Z"/>
</g>

<g id="Suite_Toys_728x90_html5_psd_Asset_Suite_Products_Toy_text_Celebrate_their_everyday_victories__0_Layer0_0_MEMBER_18_FILL">
<path fill="#FFFFFF" stroke="none" d="
M 243.5 8.7
L 243.5 6.6 238.45 6.6 238.45 8.55 239.95 8.55 237.7 13.75 235.4 8.55 236.85 8.55 236.85 6.6 231.75 6.6 231.75 8.7 233 8.7 236.5 15.95 235.3 18.25
Q 235 18.75 234.5 18.85 234.2 18.1 233.45 18.1 232.95 18.1 232.6 18.45 232.2 18.8 232.2 19.35 232.2 20 232.8 20.45 233.4 20.9 234.35 20.9 235.8 20.9 236.95 19.65 237.4 19.15 237.7 18.45
L 242.3 8.7 243.5 8.7 Z"/>
</g>

<g id="Suite_Toys_728x90_html5_psd_Asset_Suite_Products_Toy_text_Celebrate_their_everyday_victories__0_Layer0_0_MEMBER_19_FILL">
<path fill="#FFFFFF" stroke="none" d="
M 250.05 0
L 250.05 2.05 251.5 2.05 251.5 7.35
Q 250.4 6.45 248.8 6.45 246.8 6.45 245.45 7.95 244.05 9.4 244.05 11.55 244.05 13.8 245.35 15.25 246.65 16.65 248.6 16.65 250.2 16.65 251.5 15.35
L 251.5 16.45 255.45 16.45 255.45 14.45 253.95 14.45 253.95 0 250.05 0
M 246.6 11.55
Q 246.6 10.15 247.4 9.3 248.1 8.55 249.2 8.55 250.4 8.55 251.5 9.3
L 251.5 13.55
Q 250.4 14.5 249.2 14.5 248.05 14.5 247.35 13.75 246.6 12.95 246.6 11.55 Z"/>
</g>

<g id="Suite_Toys_728x90_html5_psd_Asset_Suite_Products_Toy_text_Celebrate_their_everyday_victories__0_Layer0_0_MEMBER_20_FILL">
<path fill="#FFFFFF" stroke="none" d="
M 266.8 16.45
L 266.8 14.45 265.35 14.45 265.35 10.2
Q 265.35 8.75 264.6 7.75 263.55 6.45 261.05 6.45 259.2 6.45 258.1 7.25 257.15 7.9 257.15 8.9 257.15 10.25 258.45 10.25 259 10.25 259.4 9.9 259.8 9.5 259.8 8.95
L 259.7 8.45
Q 260.45 8.3 260.65 8.3 262.05 8.3 262.6 9.05 263 9.55 263 10.4
L 263 11.15
Q 261.65 10.9 260.5 10.9 258.7 10.9 257.65 11.7 256.55 12.5 256.55 13.85 256.55 15.15 257.5 15.95 258.4 16.65 259.7 16.65 261.55 16.65 263.05 15.35
L 263.05 16.45 266.8 16.45
M 263 14
Q 261.75 14.85 260.5 14.85 259.05 14.85 259.05 13.65 259.05 12.2 260.95 12.2 262 12.2 263 12.45
L 263 14 Z"/>
</g>

<g id="Suite_Toys_728x90_html5_psd_Asset_Suite_Products_Toy_text_Celebrate_their_everyday_victories__0_Layer0_0_MEMBER_21_FILL">
<path fill="#FFFFFF" stroke="none" d="
M 273.55 8.55
L 275.1 8.55 272.8 13.75 270.55 8.55 271.95 8.55 271.95 6.6 266.9 6.6 266.9 8.7 268.1 8.7 271.6 15.95 270.85 17.5
Q 270.55 18.1 270.4 18.25 270.1 18.75 269.65 18.85 269.35 18.1 268.55 18.1 267.35 18.1 267.35 19.35 267.35 20 267.9 20.45 268.5 20.9 269.45 20.9 270.95 20.9 272.05 19.65 272.5 19.15 272.8 18.45
L 277.45 8.7 278.6 8.7 278.6 6.6 273.55 6.6 273.55 8.55 Z"/>
</g>

<g id="Suite_Toys_728x90_html5_psd_Asset_Suite_Products_Toy_text_Celebrate_their_everyday_victories__0_Layer0_0_MEMBER_22_FILL">
<path fill="#FFFFFF" stroke="none" d="
M 101.05 30.15
L 101.05 32.8 103.05 32.8 99.85 39.7 96.65 32.8 98.6 32.8 98.6 30.15 91.8 30.15 91.8 32.95 93.35 32.95 98.6 43.65 100.95 43.65 106.25 32.95 107.8 32.95 107.8 30.15 101.05 30.15 Z"/>
</g>

<g id="Suite_Toys_728x90_html5_psd_Asset_Suite_Products_Toy_text_Celebrate_their_everyday_victories__0_Layer0_0_MEMBER_23_FILL">
<path fill="#FFFFFF" stroke="none" d="
M 108.9 32.95
L 110.95 32.95 110.95 40.7 108.9 40.7 108.9 43.4 116.2 43.4 116.2 40.7 114.25 40.7 114.25 30.15 108.9 30.15 108.9 32.95
M 113.85 24.4
Q 113.2 23.75 112.3 23.75 111.4 23.75 110.75 24.4 110.05 25.05 110.05 25.95 110.05 26.85 110.7 27.5 111.35 28.1 112.25 28.1 113.15 28.1 113.8 27.5 114.5 26.85 114.5 25.95 114.5 25.05 113.85 24.4 Z"/>
</g>

<g id="Suite_Toys_728x90_html5_psd_Asset_Suite_Products_Toy_text_Celebrate_their_everyday_victories__0_Layer0_0_MEMBER_24_FILL">
<path fill="#FFFFFF" stroke="none" d="
M 121.5 36.75
Q 121.5 34.7 122.65 33.55 123.6 32.6 124.9 32.6 126.6 32.6 127.25 33.5 126.85 33.9 126.85 34.6 126.85 35.45 127.45 36 128.05 36.6 128.85 36.6 129.75 36.6 130.35 36 130.95 35.35 130.95 34.35 130.95 32.65 129.3 31.35 127.55 29.9 124.95 29.9 122.05 29.9 120.1 32 118.2 34 118.2 36.65 118.2 39.8 120.3 41.75 122.35 43.65 125.55 43.65 128.15 43.65 130.25 42.45
L 130.55 39.5
Q 127.85 40.9 125.8 40.9 124 40.9 122.75 39.75 121.5 38.6 121.5 36.75 Z"/>
</g>

<g id="Suite_Toys_728x90_html5_psd_Asset_Suite_Products_Toy_text_Celebrate_their_everyday_victories__0_Layer0_0_MEMBER_25_FILL">
<path fill="#FFFFFF" stroke="none" d="
M 138.4 30.15
L 138.4 25.95 135.15 27.35 135.15 30.15 132.55 30.15 132.55 32.95 135.15 32.95 135.15 39.75
Q 135.15 41.05 135.6 41.85 136.55 43.65 139.15 43.65 140.85 43.65 142.35 42.9
L 142.6 40.05
Q 141.2 40.7 140 40.7 139 40.7 138.6 40.1 138.4 39.7 138.4 39.1
L 138.4 32.95 142.45 32.95 142.45 30.15 138.4 30.15 Z"/>
</g>

<g id="Suite_Toys_728x90_html5_psd_Asset_Suite_Products_Toy_text_Celebrate_their_everyday_victories__0_Layer0_0_MEMBER_26_FILL">
<path fill="#FFFFFF" stroke="none" d="
M 158.3 36.8
Q 158.3 33.9 156.45 31.95 154.45 29.9 151.25 29.9 148.1 29.9 146.1 32 144.2 33.95 144.2 36.8 144.2 39.7 146.1 41.6 148.05 43.65 151.25 43.65 154.4 43.65 156.4 41.6 158.3 39.6 158.3 36.8
M 153.9 33.8
Q 154.9 34.95 154.9 36.8 154.9 38.6 153.9 39.75 152.85 40.9 151.25 40.9 149.65 40.9 148.6 39.75 147.6 38.6 147.6 36.8 147.6 34.95 148.6 33.8 149.65 32.65 151.25 32.65 152.85 32.65 153.9 33.8 Z"/>
</g>

<g id="Suite_Toys_728x90_html5_psd_Asset_Suite_Products_Toy_text_Celebrate_their_everyday_victories__0_Layer0_0_MEMBER_27_FILL">
<path fill="#FFFFFF" stroke="none" d="
M 171.5 30.55
Q 170.8 29.9 169.65 29.9 167.45 29.9 165.45 33.15
L 165.45 30.15 160.3 30.15 160.3 32.95 162.25 32.95 162.25 40.7 160.3 40.7 160.3 43.4 167.85 43.4 167.85 40.7 165.55 40.7 165.55 35.5
Q 166.55 33.55 168.2 32.95 168.65 34.15 170.1 34.15 170.9 34.15 171.5 33.55 172.1 32.95 172.1 32.1 172.1 31.15 171.5 30.55 Z"/>
</g>

<g id="Suite_Toys_728x90_html5_psd_Asset_Suite_Products_Toy_text_Celebrate_their_everyday_victories__0_Layer0_0_MEMBER_28_FILL">
<path fill="#FFFFFF" stroke="none" d="
M 173.5 32.95
L 175.5 32.95 175.5 40.7 173.5 40.7 173.5 43.4 180.8 43.4 180.8 40.7 178.8 40.7 178.8 30.15 173.5 30.15 173.5 32.95
M 178.4 24.4
Q 177.75 23.75 176.9 23.75 176 23.75 175.35 24.4 174.65 25.05 174.65 25.95 174.65 26.85 175.3 27.5 175.95 28.1 176.8 28.1 177.7 28.1 178.4 27.5 179.05 26.85 179.05 25.95 179.05 25.05 178.4 24.4 Z"/>
</g>

<g id="Suite_Toys_728x90_html5_psd_Asset_Suite_Products_Toy_text_Celebrate_their_everyday_victories__0_Layer0_0_MEMBER_29_FILL">
<path fill="#FFFFFF" stroke="none" d="
M 195.95 36.25
Q 195.95 33.5 194.3 31.75 192.55 29.9 189.5 29.9 186.5 29.9 184.6 31.95 182.8 33.9 182.8 36.8 182.8 39.9 184.85 41.8 186.85 43.65 190.1 43.65 193.05 43.65 195.15 42.45
L 195.4 39.5
Q 192.85 40.9 190.6 40.9 186.9 40.9 186.25 37.9
L 195.8 37.9
Q 195.95 37.25 195.95 36.25
M 187.4 33.3
Q 188.3 32.6 189.5 32.6 190.9 32.6 191.75 33.45 192.6 34.25 192.65 35.6
L 186.2 35.6
Q 186.45 34.1 187.4 33.3 Z"/>
</g>

<g id="Suite_Toys_728x90_html5_psd_Asset_Suite_Products_Toy_text_Celebrate_their_everyday_victories__0_Layer0_0_MEMBER_30_FILL">
<path fill="#FFFFFF" stroke="none" d="
M 206.5 30.3
Q 205.25 29.9 204 29.9 201.4 29.9 199.9 31.25 198.6 32.4 198.6 34.1 198.6 35.75 199.85 36.65 200.95 37.45 203.8 38.2 205.3 38.6 205.85 38.95 206.4 39.3 206.4 39.8 206.4 41.25 204 41.25 202.7 41.25 201.6 40.8
L 201.65 40.25
Q 201.65 39.45 201.1 38.95 200.6 38.5 199.85 38.5 199.1 38.5 198.6 39.05 198.1 39.6 198.1 40.3 198.1 41.35 198.85 42.1 199.55 42.75 201 43.2 202.5 43.7 203.95 43.7 206.3 43.7 207.9 42.6 209.55 41.4 209.55 39.4 209.55 37.75 208.25 36.85 207.2 36.1 204.55 35.4 203 35 202.4 34.65 201.75 34.25 201.75 33.7 201.75 33.15 202.3 32.75 202.9 32.35 203.95 32.35 205.05 32.35 205.85 32.65 205.75 32.85 205.75 33.25 205.75 34 206.25 34.45 206.75 34.9 207.55 34.9 208.3 34.9 208.75 34.4 209.2 33.9 209.2 33.1 209.2 32.15 208.45 31.4 207.8 30.75 206.5 30.3 Z"/>
</g>

<g id="Suite_Toys_728x90_html5_psd_Asset_Suite_Products_Toy_text_Celebrate_their_everyday_victories__0_Layer0_0_MEMBER_31_FILL">
<path fill="#FFFFFF" stroke="none" d="
M 212.75 41.4
Q 212.75 42.35 213.4 43 214.05 43.65 215 43.65 215.9 43.65 216.55 43 217.2 42.35 217.2 41.4 217.2 40.5 216.55 39.85 215.9 39.15 215 39.15 214.05 39.15 213.4 39.85 212.75 40.5 212.75 41.4
M 217.05 23.5
L 212.9 23.5 214.05 37.4 215.9 37.4 217.05 23.5 Z"/>
</g>
</defs>

<g transform="matrix( 1, 0, 0, 1, 40,39) ">
<g transform="matrix( 0.891143798828125, 0, 0, 0.8916168212890625, -29,0.45) ">
<use xlink:href="#Suite_Toys_728x90_html5_psd_Asset_Suite_Products_Toy_text_Celebrate_their_everyday_victories__0_Layer0_0_MEMBER_0_FILL"/>
</g>

<g transform="matrix( 0.891143798828125, 0, 0, 0.8916168212890625, -29,0.45) ">
<use xlink:href="#Suite_Toys_728x90_html5_psd_Asset_Suite_Products_Toy_text_Celebrate_their_everyday_victories__0_Layer0_0_MEMBER_1_FILL"/>
</g>

<g transform="matrix( 0.891143798828125, 0, 0, 0.8916168212890625, -29,0.45) ">
<use xlink:href="#Suite_Toys_728x90_html5_psd_Asset_Suite_Products_Toy_text_Celebrate_their_everyday_victories__0_Layer0_0_MEMBER_2_FILL"/>
</g>

<g transform="matrix( 0.891143798828125, 0, 0, 0.8916168212890625, -29,0.45) ">
<use xlink:href="#Suite_Toys_728x90_html5_psd_Asset_Suite_Products_Toy_text_Celebrate_their_everyday_victories__0_Layer0_0_MEMBER_3_FILL"/>
</g>

<g transform="matrix( 0.891143798828125, 0, 0, 0.8916168212890625, -29,0.45) ">
<use xlink:href="#Suite_Toys_728x90_html5_psd_Asset_Suite_Products_Toy_text_Celebrate_their_everyday_victories__0_Layer0_0_MEMBER_4_FILL"/>
</g>

<g transform="matrix( 0.891143798828125, 0, 0, 0.8916168212890625, -29,0.45) ">
<use xlink:href="#Suite_Toys_728x90_html5_psd_Asset_Suite_Products_Toy_text_Celebrate_their_everyday_victories__0_Layer0_0_MEMBER_5_FILL"/>
</g>

<g transform="matrix( 0.891143798828125, 0, 0, 0.8916168212890625, -29,0.45) ">
<use xlink:href="#Suite_Toys_728x90_html5_psd_Asset_Suite_Products_Toy_text_Celebrate_their_everyday_victories__0_Layer0_0_MEMBER_6_FILL"/>
</g>

<g transform="matrix( 0.891143798828125, 0, 0, 0.8916168212890625, -29,0.45) ">
<use xlink:href="#Suite_Toys_728x90_html5_psd_Asset_Suite_Products_Toy_text_Celebrate_their_everyday_victories__0_Layer0_0_MEMBER_7_FILL"/>
</g>

<g transform="matrix( 0.891143798828125, 0, 0, 0.8916168212890625, -29,0.45) ">
<use xlink:href="#Suite_Toys_728x90_html5_psd_Asset_Suite_Products_Toy_text_Celebrate_their_everyday_victories__0_Layer0_0_MEMBER_8_FILL"/>
</g>

<g transform="matrix( 0.891143798828125, 0, 0, 0.8916168212890625, -29,0.45) ">
<use xlink:href="#Suite_Toys_728x90_html5_psd_Asset_Suite_Products_Toy_text_Celebrate_their_everyday_victories__0_Layer0_0_MEMBER_9_FILL"/>
</g>

<g transform="matrix( 0.891143798828125, 0, 0, 0.8916168212890625, -29,0.45) ">
<use xlink:href="#Suite_Toys_728x90_html5_psd_Asset_Suite_Products_Toy_text_Celebrate_their_everyday_victories__0_Layer0_0_MEMBER_10_FILL"/>
</g>

<g transform="matrix( 0.891143798828125, 0, 0, 0.8916168212890625, -29,0.45) ">
<use xlink:href="#Suite_Toys_728x90_html5_psd_Asset_Suite_Products_Toy_text_Celebrate_their_everyday_victories__0_Layer0_0_MEMBER_11_FILL"/>
</g>

<g transform="matrix( 0.891143798828125, 0, 0, 0.8916168212890625, -29,0.45) ">
<use xlink:href="#Suite_Toys_728x90_html5_psd_Asset_Suite_Products_Toy_text_Celebrate_their_everyday_victories__0_Layer0_0_MEMBER_12_FILL"/>
</g>

<g transform="matrix( 0.891143798828125, 0, 0, 0.8916168212890625, -29,0.45) ">
<use xlink:href="#Suite_Toys_728x90_html5_psd_Asset_Suite_Products_Toy_text_Celebrate_their_everyday_victories__0_Layer0_0_MEMBER_13_FILL"/>
</g>

<g transform="matrix( 0.891143798828125, 0, 0, 0.8916168212890625, -29,0.45) ">
<use xlink:href="#Suite_Toys_728x90_html5_psd_Asset_Suite_Products_Toy_text_Celebrate_their_everyday_victories__0_Layer0_0_MEMBER_14_FILL"/>
</g>

<g transform="matrix( 0.891143798828125, 0, 0, 0.8916168212890625, -29,0.45) ">
<use xlink:href="#Suite_Toys_728x90_html5_psd_Asset_Suite_Products_Toy_text_Celebrate_their_everyday_victories__0_Layer0_0_MEMBER_15_FILL"/>
</g>

<g transform="matrix( 0.891143798828125, 0, 0, 0.8916168212890625, -29,0.45) ">
<use xlink:href="#Suite_Toys_728x90_html5_psd_Asset_Suite_Products_Toy_text_Celebrate_their_everyday_victories__0_Layer0_0_MEMBER_16_FILL"/>
</g>

<g transform="matrix( 0.891143798828125, 0, 0, 0.8916168212890625, -29,0.45) ">
<use xlink:href="#Suite_Toys_728x90_html5_psd_Asset_Suite_Products_Toy_text_Celebrate_their_everyday_victories__0_Layer0_0_MEMBER_17_FILL"/>
</g>

<g transform="matrix( 0.891143798828125, 0, 0, 0.8916168212890625, -29,0.45) ">
<use xlink:href="#Suite_Toys_728x90_html5_psd_Asset_Suite_Products_Toy_text_Celebrate_their_everyday_victories__0_Layer0_0_MEMBER_18_FILL"/>
</g>

<g transform="matrix( 0.891143798828125, 0, 0, 0.8916168212890625, -29,0.45) ">
<use xlink:href="#Suite_Toys_728x90_html5_psd_Asset_Suite_Products_Toy_text_Celebrate_their_everyday_victories__0_Layer0_0_MEMBER_19_FILL"/>
</g>

<g transform="matrix( 0.891143798828125, 0, 0, 0.8916168212890625, -29,0.45) ">
<use xlink:href="#Suite_Toys_728x90_html5_psd_Asset_Suite_Products_Toy_text_Celebrate_their_everyday_victories__0_Layer0_0_MEMBER_20_FILL"/>
</g>

<g transform="matrix( 0.891143798828125, 0, 0, 0.8916168212890625, -29,0.45) ">
<use xlink:href="#Suite_Toys_728x90_html5_psd_Asset_Suite_Products_Toy_text_Celebrate_their_everyday_victories__0_Layer0_0_MEMBER_21_FILL"/>
</g>

<g transform="matrix( 0.891143798828125, 0, 0, 0.8916168212890625, -29,0.45) ">
<use xlink:href="#Suite_Toys_728x90_html5_psd_Asset_Suite_Products_Toy_text_Celebrate_their_everyday_victories__0_Layer0_0_MEMBER_22_FILL"/>
</g>

<g transform="matrix( 0.891143798828125, 0, 0, 0.8916168212890625, -29,0.45) ">
<use xlink:href="#Suite_Toys_728x90_html5_psd_Asset_Suite_Products_Toy_text_Celebrate_their_everyday_victories__0_Layer0_0_MEMBER_23_FILL"/>
</g>

<g transform="matrix( 0.891143798828125, 0, 0, 0.8916168212890625, -29,0.45) ">
<use xlink:href="#Suite_Toys_728x90_html5_psd_Asset_Suite_Products_Toy_text_Celebrate_their_everyday_victories__0_Layer0_0_MEMBER_24_FILL"/>
</g>

<g transform="matrix( 0.891143798828125, 0, 0, 0.8916168212890625, -29,0.45) ">
<use xlink:href="#Suite_Toys_728x90_html5_psd_Asset_Suite_Products_Toy_text_Celebrate_their_everyday_victories__0_Layer0_0_MEMBER_25_FILL"/>
</g>

<g transform="matrix( 0.891143798828125, 0, 0, 0.8916168212890625, -29,0.45) ">
<use xlink:href="#Suite_Toys_728x90_html5_psd_Asset_Suite_Products_Toy_text_Celebrate_their_everyday_victories__0_Layer0_0_MEMBER_26_FILL"/>
</g>

<g transform="matrix( 0.891143798828125, 0, 0, 0.8916168212890625, -29,0.45) ">
<use xlink:href="#Suite_Toys_728x90_html5_psd_Asset_Suite_Products_Toy_text_Celebrate_their_everyday_victories__0_Layer0_0_MEMBER_27_FILL"/>
</g>

<g transform="matrix( 0.891143798828125, 0, 0, 0.8916168212890625, -29,0.45) ">
<use xlink:href="#Suite_Toys_728x90_html5_psd_Asset_Suite_Products_Toy_text_Celebrate_their_everyday_victories__0_Layer0_0_MEMBER_28_FILL"/>
</g>

<g transform="matrix( 0.891143798828125, 0, 0, 0.8916168212890625, -29,0.45) ">
<use xlink:href="#Suite_Toys_728x90_html5_psd_Asset_Suite_Products_Toy_text_Celebrate_their_everyday_victories__0_Layer0_0_MEMBER_29_FILL"/>
</g>

<g transform="matrix( 0.891143798828125, 0, 0, 0.8916168212890625, -29,0.45) ">
<use xlink:href="#Suite_Toys_728x90_html5_psd_Asset_Suite_Products_Toy_text_Celebrate_their_everyday_victories__0_Layer0_0_MEMBER_30_FILL"/>
</g>

<g transform="matrix( 0.891143798828125, 0, 0, 0.8916168212890625, -29,0.45) ">
<use xlink:href="#Suite_Toys_728x90_html5_psd_Asset_Suite_Products_Toy_text_Celebrate_their_everyday_victories__0_Layer0_0_MEMBER_31_FILL"/>
</g>
</g>
</svg>
