
<svg xmlns="http://www.w3.org/2000/svg" version="1.1" xmlns:xlink="http://www.w3.org/1999/xlink" preserveAspectRatio="none" x="0px" y="0px" width="300px" height="250px" viewBox="0 0 300 250">
<defs>
<g id="Suite_Toys_300x250_html5_psd_Asset_Suite_Products_Toys_images_Laugh___Learn__Greetings_Globe_0_Layer0_0_MEMBER_0_FILL">
<path fill="#6B6E71" stroke="none" d="
M 32.1 1.95
L 32.1 0.95 28.8 0.95 28.8 1.95 29.85 1.95 29.85 8.25 28.8 8.25 28.8 9.25 34.7 9.25 34.7 7 33.6 7 33.6 8.25 31 8.25 31 1.95 32.1 1.95 Z"/>
</g>

<g id="Suite_Toys_300x250_html5_psd_Asset_Suite_Products_Toys_images_Laugh___Learn__Greetings_Globe_0_Layer0_0_MEMBER_1_FILL">
<path fill="#6B6E71" stroke="none" d="
M 41.3 9.25
L 41.3 8.35 40.45 8.35 40.45 5.65
Q 40.45 4.9 40.05 4.4 39.5 3.7 38.2 3.7 37.2 3.7 36.65 4.15 36.1 4.5 36.1 5 36.1 5.65 36.75 5.65 37.4 5.65 37.4 5.05
L 37.35 4.75
Q 37.6 4.6 38.05 4.6 38.9 4.6 39.15 5 39.4 5.35 39.4 5.75
L 39.4 6.4
Q 38.65 6.15 37.9 6.15 36.95 6.15 36.4 6.6 35.8 7.05 35.8 7.8 35.8 9.35 37.55 9.35 38.6 9.35 39.45 8.6
L 39.45 9.25 41.3 9.25
M 38.1 6.8
Q 38.7 6.8 39.4 7
L 39.4 7.9
Q 38.65 8.55 37.9 8.55 36.9 8.55 36.9 7.7 36.9 6.8 38.1 6.8 Z"/>
</g>

<g id="Suite_Toys_300x250_html5_psd_Asset_Suite_Products_Toys_images_Laugh___Learn__Greetings_Globe_0_Layer0_0_MEMBER_2_FILL">
<path fill="#6B6E71" stroke="none" d="
M 41.75 4.75
L 42.6 4.75 42.6 7.55
Q 42.6 8.15 42.85 8.65 43.3 9.35 44.3 9.35 45.25 9.35 46.3 8.3
L 46.3 9.25 48.2 9.25 48.2 8.35 47.35 8.35 47.35 3.8 45.35 3.8 45.35 4.75 46.25 4.75 46.25 7.55
Q 45.35 8.35 44.6 8.35 44 8.35 43.8 7.95
L 43.7 7.3 43.7 3.8 41.75 3.8 41.75 4.75 Z"/>
</g>

<g id="Suite_Toys_300x250_html5_psd_Asset_Suite_Products_Toys_images_Laugh___Learn__Greetings_Globe_0_Layer0_0_MEMBER_3_FILL">
<path fill="#6B6E71" stroke="none" d="
M 54.4 4.75
L 55.25 4.75 55.25 3.8 53.35 3.8 53.35 4.35
Q 52.6 3.7 51.65 3.7 50.55 3.7 49.8 4.55 49.05 5.35 49.05 6.5 49.05 7.7 49.8 8.45 50.55 9.2 51.6 9.2 52.45 9.2 53.3 8.45
L 53.3 9.4
Q 53.3 10.05 53 10.35 52.6 10.9 51.75 10.9 51.2 10.9 50.8 10.7
L 50.85 10.4
Q 50.85 9.8 50.25 9.8 49.55 9.8 49.55 10.5 49.55 10.85 49.85 11.15 50.5 11.8 51.8 11.8 53.2 11.8 53.85 11 54.4 10.35 54.4 9.4
L 54.4 4.75
M 50.65 5.15
Q 51.1 4.65 51.85 4.65 52.65 4.65 53.3 5.2
L 53.3 7.6
Q 52.65 8.25 51.8 8.25 51.1 8.25 50.6 7.75 50.15 7.3 50.15 6.5 50.15 5.7 50.65 5.15 Z"/>
</g>

<g id="Suite_Toys_300x250_html5_psd_Asset_Suite_Products_Toys_images_Laugh___Learn__Greetings_Globe_0_Layer0_0_MEMBER_4_FILL">
<path fill="#6B6E71" stroke="none" d="
M 61.55 5.55
Q 61.55 4.8 61.15 4.3 60.8 3.7 59.8 3.7 58.85 3.7 57.85 4.7
L 57.85 0 55.95 0 55.95 0.95 56.8 0.95 56.8 8.35 55.95 8.35 55.95 9.25 58.7 9.25 58.7 8.35 57.85 8.35 57.85 5.55
Q 58.7 4.7 59.5 4.7 59.95 4.7 60.25 5 60.45 5.25 60.45 5.8
L 60.45 8.35 59.65 8.35 59.65 9.25 62.4 9.25 62.4 8.35 61.55 8.35 61.55 5.55 Z"/>
</g>

<g id="Suite_Toys_300x250_html5_psd_Asset_Suite_Products_Toys_images_Laugh___Learn__Greetings_Globe_0_Layer0_0_MEMBER_5_FILL">
<path fill="#6B6E71" stroke="none" d="
M 72.55 5.85
L 73.3 5.85 73.3 4.95 70.95 4.95 70.95 5.85 71.65 5.85 71.1 6.95 69.1 5.1
Q 70.85 4.2 70.85 2.95 70.85 2.15 70.3 1.7 69.75 1.2 68.85 1.2 67.9 1.2 67.3 1.85 66.75 2.4 66.75 3.15 66.75 4.05 67.55 4.95 65.85 5.9 65.85 7.25 65.85 8.2 66.55 8.8 67.3 9.4 68.55 9.4 70.05 9.4 71.15 8.3
L 72.4 9.4 73.05 8.7 71.8 7.6
Q 72.25 6.9 72.55 5.85
M 68.85 2.1
Q 69.75 2.1 69.75 2.95 69.75 3.8 68.5 4.55 67.85 3.7 67.85 3.15 67.85 2.7 68.15 2.4 68.4 2.1 68.85 2.1
M 70.45 7.7
Q 69.6 8.45 68.55 8.45 67.85 8.45 67.4 8.05 67 7.7 67 7.2 67 6.2 68.15 5.55
L 70.45 7.7 Z"/>
</g>

<g id="Suite_Toys_300x250_html5_psd_Asset_Suite_Products_Toys_images_Laugh___Learn__Greetings_Globe_0_Layer0_0_MEMBER_6_FILL">
<path fill="#6B6E71" stroke="none" d="
M 81.8 7
L 81.8 8.25 79.15 8.25 79.15 1.95 80.3 1.95 80.3 0.95 77 0.95 77 1.95 78 1.95 78 8.25 77 8.25 77 9.25 82.9 9.25 82.9 7 81.8 7 Z"/>
</g>

<g id="Suite_Toys_300x250_html5_psd_Asset_Suite_Products_Toys_images_Laugh___Learn__Greetings_Globe_0_Layer0_0_MEMBER_7_FILL">
<path fill="#6B6E71" stroke="none" d="
M 88.45 4.5
Q 87.75 3.7 86.5 3.7 85.3 3.7 84.55 4.55 83.8 5.35 83.8 6.55 83.8 7.8 84.6 8.55 85.45 9.35 86.75 9.35 87.95 9.35 88.75 8.85
L 88.85 7.85
Q 87.75 8.45 86.9 8.45 85.2 8.45 84.95 6.9
L 89.05 6.9 89.1 6.3
Q 89.1 5.2 88.45 4.5
M 86.5 4.6
Q 87.9 4.6 88 6.05
L 84.95 6.05
Q 85.2 4.6 86.5 4.6 Z"/>
</g>

<g id="Suite_Toys_300x250_html5_psd_Asset_Suite_Products_Toys_images_Laugh___Learn__Greetings_Globe_0_Layer0_0_MEMBER_8_FILL">
<path fill="#6B6E71" stroke="none" d="
M 93.3 5
Q 93.55 5.35 93.55 5.75
L 93.55 6.4
Q 92.8 6.15 92.05 6.15 91.1 6.15 90.5 6.6 89.9 7.05 89.9 7.8 89.9 8.55 90.45 8.95 90.9 9.35 91.7 9.35 92.7 9.35 93.55 8.6
L 93.55 9.25 95.45 9.25 95.45 8.35 94.6 8.35 94.6 5.65
Q 94.6 4.85 94.15 4.4 93.6 3.7 92.35 3.7 91.35 3.7 90.8 4.15 90.25 4.5 90.25 5 90.25 5.65 90.9 5.65 91.5 5.65 91.5 5.05
L 91.45 4.75
Q 91.7 4.6 92.15 4.6 92.95 4.6 93.3 5
M 93.55 7.9
Q 92.7 8.55 92 8.55 91 8.55 91 7.7 91 6.8 92.2 6.8 92.75 6.8 93.55 7
L 93.55 7.9 Z"/>
</g>

<g id="Suite_Toys_300x250_html5_psd_Asset_Suite_Products_Toys_images_Laugh___Learn__Greetings_Globe_0_Layer0_0_MEMBER_9_FILL">
<path fill="#6B6E71" stroke="none" d="
M 100.65 4.5
Q 100.65 3.7 99.75 3.7 98.85 3.7 98.05 5.05
L 98.05 3.8 96.15 3.8 96.15 4.75 97 4.75 97 8.35 96.15 8.35 96.15 9.25 99.1 9.25 99.1 8.35 98.1 8.35 98.1 5.85
Q 98.5 5.05 99.25 4.75 99.45 5.25 99.95 5.25 100.65 5.25 100.65 4.5 Z"/>
</g>

<g id="Suite_Toys_300x250_html5_psd_Asset_Suite_Products_Toys_images_Laugh___Learn__Greetings_Globe_0_Layer0_0_MEMBER_10_FILL">
<path fill="#6B6E71" stroke="none" d="
M 106.85 5.55
Q 106.85 4.85 106.55 4.4 106.15 3.7 105.15 3.7 104.1 3.7 103.15 4.75
L 103.15 3.8 101.25 3.8 101.25 4.75 102.1 4.75 102.1 8.35 101.25 8.35 101.25 9.25 104 9.25 104 8.35 103.2 8.35 103.2 5.55
Q 103.95 4.7 104.85 4.7 105.45 4.7 105.65 5.15
L 105.75 5.8 105.75 8.35 104.95 8.35 104.95 9.25 107.7 9.25 107.7 8.35 106.85 8.35 106.85 5.55 Z"/>
</g>

<g id="Suite_Toys_300x250_html5_psd_Asset_Suite_Products_Toys_images_Laugh___Learn__Greetings_Globe_0_Layer0_0_MEMBER_11_FILL">
<path fill="#6B6E71" stroke="none" d="
M 112.75 2.75
Q 112.75 1.8 112.1 1.15 111.45 0.5 110.5 0.5 109.55 0.5 108.85 1.15 108.2 1.8 108.2 2.75 108.2 3.7 108.85 4.35 109.55 5 110.5 5 111.45 5 112.1 4.35 112.75 3.7 112.75 2.75
M 112.3 2.75
Q 112.3 3.55 111.75 4.05 111.25 4.6 110.5 4.6 109.75 4.6 109.25 4.05 108.7 3.55 108.7 2.75 108.7 1.95 109.25 1.45 109.75 0.95 110.5 0.95 111.25 0.95 111.75 1.45 112.3 2 112.3 2.75
M 111.45 3.8
L 111.45 3.4 111.25 3.4 110.95 2.9
Q 111.35 2.7 111.35 2.3 111.35 1.65 110.5 1.65
L 109.6 1.65 109.6 2.05 109.85 2.05 109.85 3.4 109.6 3.4 109.6 3.8 110.5 3.8 110.5 3.4 110.25 3.4 110.25 3 110.55 3 110.95 3.8 111.45 3.8
M 110.45 2.65
L 110.25 2.65 110.25 2.05 110.45 2.05
Q 110.9 2.05 110.9 2.35 110.9 2.65 110.45 2.65 Z"/>
</g>

<g id="Suite_Toys_300x250_html5_psd_Asset_Suite_Products_Toys_images_Laugh___Learn__Greetings_Globe_0_Layer0_0_MEMBER_12_FILL">
<path fill="#6B6E71" stroke="none" d="
M 26.35 19.05
Q 26.35 21 27.6 22.2 28.75 23.35 30.4 23.35 31.75 23.35 32.85 22.5
L 32.85 23.2 33.95 23.2 33.95 19 30.6 19 30.6 20 32.8 20 32.8 21.6
Q 31.8 22.3 30.55 22.3 29.3 22.3 28.45 21.4 27.55 20.5 27.55 19.05 27.55 17.6 28.45 16.7 29.3 15.75 30.65 15.75 31.8 15.75 32.45 16.3 32.25 16.6 32.25 16.8 32.25 17.55 33.1 17.55 33.85 17.55 33.85 16.65 33.85 15.95 33 15.35 32.05 14.7 30.7 14.7 28.9 14.7 27.65 15.9 26.35 17.15 26.35 19.05 Z"/>
</g>

<g id="Suite_Toys_300x250_html5_psd_Asset_Suite_Products_Toys_images_Laugh___Learn__Greetings_Globe_0_Layer0_0_MEMBER_13_FILL">
<path fill="#6B6E71" stroke="none" d="
M 39.9 18.4
Q 39.9 17.65 39 17.65 38.1 17.65 37.3 18.95
L 37.3 17.75 35.45 17.75 35.45 18.65 36.3 18.65 36.3 22.25 35.45 22.25 35.45 23.2 38.35 23.2 38.35 22.25 37.35 22.25 37.35 19.8
Q 37.75 18.9 38.5 18.7 38.7 19.15 39.2 19.15 39.9 19.15 39.9 18.4 Z"/>
</g>

<g id="Suite_Toys_300x250_html5_psd_Asset_Suite_Products_Toys_images_Laugh___Learn__Greetings_Globe_0_Layer0_0_MEMBER_14_FILL">
<path fill="#6B6E71" stroke="none" d="
M 45 18.4
Q 44.3 17.65 43.1 17.65 41.9 17.65 41.15 18.5 40.4 19.3 40.4 20.45 40.4 21.75 41.2 22.5 42 23.3 43.35 23.3 44.4 23.3 45.35 22.75
L 45.45 21.75
Q 44.5 22.35 43.5 22.35 41.7 22.35 41.5 20.8
L 45.6 20.8 45.65 20.2
Q 45.65 19.15 45 18.4
M 44.55 20
L 41.5 20
Q 41.7 18.55 43.05 18.55 44.45 18.55 44.55 20 Z"/>
</g>

<g id="Suite_Toys_300x250_html5_psd_Asset_Suite_Products_Toys_images_Laugh___Learn__Greetings_Globe_0_Layer0_0_MEMBER_15_FILL">
<path fill="#6B6E71" stroke="none" d="
M 49.7 22.35
Q 47.95 22.35 47.75 20.8
L 51.8 20.8 51.85 20.2
Q 51.85 19.1 51.2 18.4 50.5 17.65 49.3 17.65 48.1 17.65 47.35 18.5 46.6 19.3 46.6 20.45 46.6 21.7 47.4 22.5 48.25 23.3 49.55 23.3 50.7 23.3 51.55 22.75
L 51.65 21.75
Q 50.7 22.35 49.7 22.35
M 47.75 20
Q 47.9 18.55 49.3 18.55 50.7 18.55 50.8 20
L 47.75 20 Z"/>
</g>

<g id="Suite_Toys_300x250_html5_psd_Asset_Suite_Products_Toys_images_Laugh___Learn__Greetings_Globe_0_Layer0_0_MEMBER_16_FILL">
<path fill="#6B6E71" stroke="none" d="
M 53.5 17.75
L 52.5 17.75 52.5 18.65 53.5 18.65 53.5 21.8
Q 53.5 22.2 53.7 22.6 54 23.3 55 23.3 55.7 23.3 56.2 22.95
L 56.35 22
Q 55.65 22.3 55.3 22.3 54.85 22.3 54.7 22.05
L 54.6 21.6 54.6 18.65 56.25 18.65 56.25 17.75 54.6 17.75 54.6 16.05 53.5 16.5 53.5 17.75 Z"/>
</g>

<g id="Suite_Toys_300x250_html5_psd_Asset_Suite_Products_Toys_images_Laugh___Learn__Greetings_Globe_0_Layer0_0_MEMBER_17_FILL">
<path fill="#6B6E71" stroke="none" d="
M 58.5 16.6
Q 58.85 16.6 59.05 16.35 59.3 16.1 59.3 15.8 59.3 15 58.5 15 57.75 15 57.75 15.8 57.75 16.1 58 16.35 58.2 16.6 58.5 16.6
M 59.2 17.75
L 57.2 17.75 57.2 18.65 58.1 18.65 58.1 22.25 57.2 22.25 57.2 23.2 60.05 23.2 60.05 22.25 59.2 22.25 59.2 17.75 Z"/>
</g>

<g id="Suite_Toys_300x250_html5_psd_Asset_Suite_Products_Toys_images_Laugh___Learn__Greetings_Globe_0_Layer0_0_MEMBER_18_FILL">
<path fill="#6B6E71" stroke="none" d="
M 62.85 17.75
L 60.95 17.75 60.95 18.65 61.8 18.65 61.8 22.25 60.95 22.25 60.95 23.2 63.65 23.2 63.65 22.25 62.85 22.25 62.85 19.45
Q 63.75 18.65 64.5 18.65 65.1 18.65 65.3 19.05 65.45 19.3 65.45 19.7
L 65.45 22.25 64.6 22.25 64.6 23.2 67.35 23.2 67.35 22.25 66.5 22.25 66.5 19.45
Q 66.5 18.9 66.25 18.3 65.75 17.65 64.8 17.65 63.75 17.65 62.85 18.7
L 62.85 17.75 Z"/>
</g>

<g id="Suite_Toys_300x250_html5_psd_Asset_Suite_Products_Toys_images_Laugh___Learn__Greetings_Globe_0_Layer0_0_MEMBER_19_FILL">
<path fill="#6B6E71" stroke="none" d="
M 70.65 17.65
Q 69.55 17.65 68.8 18.45 68.05 19.25 68.05 20.4 68.05 21.6 68.8 22.35 69.55 23.1 70.6 23.1 71.55 23.1 72.3 22.35
L 72.3 23.3
Q 72.3 23.95 72 24.3 71.55 24.8 70.75 24.8 70.4 24.8 69.8 24.65
L 69.85 24.35
Q 69.85 23.7 69.25 23.7 68.55 23.7 68.55 24.4 68.55 24.8 68.85 25.1 69.45 25.7 70.8 25.7 72.2 25.7 72.85 24.9 73.4 24.25 73.4 23.3
L 73.4 18.65 74.25 18.65 74.25 17.75 72.35 17.75 72.35 18.25
Q 71.65 17.65 70.65 17.65
M 69.15 20.4
Q 69.15 19.6 69.65 19.1 70.1 18.6 70.85 18.6 71.65 18.6 72.3 19.1
L 72.3 21.5
Q 71.6 22.2 70.8 22.2 70.1 22.2 69.6 21.7 69.15 21.2 69.15 20.4 Z"/>
</g>

<g id="Suite_Toys_300x250_html5_psd_Asset_Suite_Products_Toys_images_Laugh___Learn__Greetings_Globe_0_Layer0_0_MEMBER_20_FILL">
<path fill="#6B6E71" stroke="none" d="
M 79.05 18.2
Q 78.5 17.65 77.3 17.65 76.3 17.65 75.7 18.15 75.15 18.6 75.15 19.25 75.15 19.95 75.7 20.35 76.1 20.6 77.3 20.95 78.5 21.25 78.5 21.7 78.5 22.45 77.3 22.45 76.7 22.45 76.2 22.2
L 76.25 21.9
Q 76.25 21.3 75.6 21.3 74.95 21.3 74.95 21.95 74.95 22.35 75.25 22.65 76 23.3 77.3 23.3 78.25 23.3 78.85 22.85 79.5 22.4 79.5 21.6 79.5 20.9 78.95 20.5 78.55 20.2 77.5 19.95 76.2 19.65 76.2 19.15 76.2 18.45 77.25 18.45 77.65 18.45 78.15 18.65
L 78.1 18.9
Q 78.1 19.5 78.75 19.5 79.3 19.5 79.3 18.85 79.3 18.45 79.05 18.2 Z"/>
</g>

<g id="Suite_Toys_300x250_html5_psd_Asset_Suite_Products_Toys_images_Laugh___Learn__Greetings_Globe_0_Layer0_0_MEMBER_21_FILL">
<path fill="#6B6E71" stroke="none" d="
M 90.2 15.35
Q 89.25 14.7 87.9 14.7 86.1 14.7 84.85 15.9 83.55 17.15 83.55 19.05 83.55 21 84.8 22.2 85.95 23.35 87.55 23.35 88.85 23.35 90.05 22.5
L 90.05 23.2 91.15 23.2 91.15 19 87.8 19 87.8 20 90 20 90 21.6
Q 89 22.3 87.75 22.3 86.5 22.3 85.65 21.4 84.75 20.5 84.75 19.05 84.75 17.6 85.65 16.7 86.5 15.75 87.85 15.75 89.05 15.75 89.6 16.3 89.45 16.55 89.45 16.8 89.45 17.55 90.25 17.55 91.05 17.55 91.05 16.65 91.05 15.95 90.2 15.35 Z"/>
</g>

<g id="Suite_Toys_300x250_html5_psd_Asset_Suite_Products_Toys_images_Laugh___Learn__Greetings_Globe_0_Layer0_0_MEMBER_22_FILL">
<path fill="#6B6E71" stroke="none" d="
M 94.5 13.9
L 92.55 13.9 92.55 14.85 93.4 14.85 93.4 22.25 92.55 22.25 92.55 23.2 95.4 23.2 95.4 22.25 94.5 22.25 94.5 13.9 Z"/>
</g>

<g id="Suite_Toys_300x250_html5_psd_Asset_Suite_Products_Toys_images_Laugh___Learn__Greetings_Globe_0_Layer0_0_MEMBER_23_FILL">
<path fill="#6B6E71" stroke="none" d="
M 101.2 18.45
Q 100.4 17.65 99.1 17.65 97.85 17.65 97.05 18.5 96.25 19.3 96.25 20.45 96.25 21.65 97 22.45 97.8 23.3 99.1 23.3 100.4 23.3 101.2 22.45 101.95 21.65 101.95 20.45 101.95 19.25 101.2 18.45
M 100.35 19.1
Q 100.85 19.6 100.85 20.45 100.85 21.3 100.35 21.8 99.9 22.35 99.1 22.35 98.35 22.35 97.9 21.8 97.4 21.3 97.4 20.45 97.4 19.6 97.9 19.1 98.35 18.55 99.1 18.55 99.9 18.55 100.35 19.1 Z"/>
</g>

<g id="Suite_Toys_300x250_html5_psd_Asset_Suite_Products_Toys_images_Laugh___Learn__Greetings_Globe_0_Layer0_0_MEMBER_24_FILL">
<path fill="#6B6E71" stroke="none" d="
M 106.25 17.65
Q 105.2 17.65 104.55 18.4
L 104.55 13.9 102.6 13.9 102.6 14.85 103.45 14.85 103.45 23.2 104.15 23.2 104.45 22.65
Q 105.2 23.3 106.15 23.3 107.3 23.3 108.1 22.45 108.85 21.65 108.85 20.45 108.85 19.25 108.1 18.45 107.35 17.65 106.25 17.65
M 104.55 19.25
Q 105.2 18.6 106.05 18.6 106.8 18.6 107.25 19.1 107.75 19.6 107.75 20.45 107.75 21.3 107.25 21.85 106.75 22.35 106.05 22.35 105.2 22.35 104.55 21.8
L 104.55 19.25 Z"/>
</g>

<g id="Suite_Toys_300x250_html5_psd_Asset_Suite_Products_Toys_images_Laugh___Learn__Greetings_Globe_0_Layer0_0_MEMBER_25_FILL">
<path fill="#6B6E71" stroke="none" d="
M 109.85 20.45
Q 109.85 21.7 110.65 22.5 111.5 23.3 112.8 23.3 113.95 23.3 114.8 22.75
L 114.9 21.75
Q 113.95 22.35 112.95 22.35 111.2 22.35 111 20.8
L 115.05 20.8 115.1 20.2
Q 115.1 19.1 114.45 18.4 113.75 17.65 112.55 17.65 111.35 17.65 110.6 18.5 109.85 19.3 109.85 20.45
M 112.55 18.55
Q 113.95 18.55 114.05 20
L 111 20
Q 111.15 18.55 112.55 18.55 Z"/>
</g>
</defs>

<g transform="matrix( 1, 0, 0, 1, 185,220) ">
<g transform="matrix( 0.8753509521484375, 0, 0, 0.874847412109375, -22.5,0.35) ">
<use xlink:href="#Suite_Toys_300x250_html5_psd_Asset_Suite_Products_Toys_images_Laugh___Learn__Greetings_Globe_0_Layer0_0_MEMBER_0_FILL"/>
</g>

<g transform="matrix( 0.8753509521484375, 0, 0, 0.874847412109375, -22.5,0.35) ">
<use xlink:href="#Suite_Toys_300x250_html5_psd_Asset_Suite_Products_Toys_images_Laugh___Learn__Greetings_Globe_0_Layer0_0_MEMBER_1_FILL"/>
</g>

<g transform="matrix( 0.8753509521484375, 0, 0, 0.874847412109375, -22.5,0.35) ">
<use xlink:href="#Suite_Toys_300x250_html5_psd_Asset_Suite_Products_Toys_images_Laugh___Learn__Greetings_Globe_0_Layer0_0_MEMBER_2_FILL"/>
</g>

<g transform="matrix( 0.8753509521484375, 0, 0, 0.874847412109375, -22.5,0.35) ">
<use xlink:href="#Suite_Toys_300x250_html5_psd_Asset_Suite_Products_Toys_images_Laugh___Learn__Greetings_Globe_0_Layer0_0_MEMBER_3_FILL"/>
</g>

<g transform="matrix( 0.8753509521484375, 0, 0, 0.874847412109375, -22.5,0.35) ">
<use xlink:href="#Suite_Toys_300x250_html5_psd_Asset_Suite_Products_Toys_images_Laugh___Learn__Greetings_Globe_0_Layer0_0_MEMBER_4_FILL"/>
</g>

<g transform="matrix( 0.8753509521484375, 0, 0, 0.874847412109375, -22.5,0.35) ">
<use xlink:href="#Suite_Toys_300x250_html5_psd_Asset_Suite_Products_Toys_images_Laugh___Learn__Greetings_Globe_0_Layer0_0_MEMBER_5_FILL"/>
</g>

<g transform="matrix( 0.8753509521484375, 0, 0, 0.874847412109375, -22.5,0.35) ">
<use xlink:href="#Suite_Toys_300x250_html5_psd_Asset_Suite_Products_Toys_images_Laugh___Learn__Greetings_Globe_0_Layer0_0_MEMBER_6_FILL"/>
</g>

<g transform="matrix( 0.8753509521484375, 0, 0, 0.874847412109375, -22.5,0.35) ">
<use xlink:href="#Suite_Toys_300x250_html5_psd_Asset_Suite_Products_Toys_images_Laugh___Learn__Greetings_Globe_0_Layer0_0_MEMBER_7_FILL"/>
</g>

<g transform="matrix( 0.8753509521484375, 0, 0, 0.874847412109375, -22.5,0.35) ">
<use xlink:href="#Suite_Toys_300x250_html5_psd_Asset_Suite_Products_Toys_images_Laugh___Learn__Greetings_Globe_0_Layer0_0_MEMBER_8_FILL"/>
</g>

<g transform="matrix( 0.8753509521484375, 0, 0, 0.874847412109375, -22.5,0.35) ">
<use xlink:href="#Suite_Toys_300x250_html5_psd_Asset_Suite_Products_Toys_images_Laugh___Learn__Greetings_Globe_0_Layer0_0_MEMBER_9_FILL"/>
</g>

<g transform="matrix( 0.8753509521484375, 0, 0, 0.874847412109375, -22.5,0.35) ">
<use xlink:href="#Suite_Toys_300x250_html5_psd_Asset_Suite_Products_Toys_images_Laugh___Learn__Greetings_Globe_0_Layer0_0_MEMBER_10_FILL"/>
</g>

<g transform="matrix( 0.8753509521484375, 0, 0, 0.874847412109375, -22.5,0.35) ">
<use xlink:href="#Suite_Toys_300x250_html5_psd_Asset_Suite_Products_Toys_images_Laugh___Learn__Greetings_Globe_0_Layer0_0_MEMBER_11_FILL"/>
</g>

<g transform="matrix( 0.8753509521484375, 0, 0, 0.874847412109375, -22.5,0.35) ">
<use xlink:href="#Suite_Toys_300x250_html5_psd_Asset_Suite_Products_Toys_images_Laugh___Learn__Greetings_Globe_0_Layer0_0_MEMBER_12_FILL"/>
</g>

<g transform="matrix( 0.8753509521484375, 0, 0, 0.874847412109375, -22.5,0.35) ">
<use xlink:href="#Suite_Toys_300x250_html5_psd_Asset_Suite_Products_Toys_images_Laugh___Learn__Greetings_Globe_0_Layer0_0_MEMBER_13_FILL"/>
</g>

<g transform="matrix( 0.8753509521484375, 0, 0, 0.874847412109375, -22.5,0.35) ">
<use xlink:href="#Suite_Toys_300x250_html5_psd_Asset_Suite_Products_Toys_images_Laugh___Learn__Greetings_Globe_0_Layer0_0_MEMBER_14_FILL"/>
</g>

<g transform="matrix( 0.8753509521484375, 0, 0, 0.874847412109375, -22.5,0.35) ">
<use xlink:href="#Suite_Toys_300x250_html5_psd_Asset_Suite_Products_Toys_images_Laugh___Learn__Greetings_Globe_0_Layer0_0_MEMBER_15_FILL"/>
</g>

<g transform="matrix( 0.8753509521484375, 0, 0, 0.874847412109375, -22.5,0.35) ">
<use xlink:href="#Suite_Toys_300x250_html5_psd_Asset_Suite_Products_Toys_images_Laugh___Learn__Greetings_Globe_0_Layer0_0_MEMBER_16_FILL"/>
</g>

<g transform="matrix( 0.8753509521484375, 0, 0, 0.874847412109375, -22.5,0.35) ">
<use xlink:href="#Suite_Toys_300x250_html5_psd_Asset_Suite_Products_Toys_images_Laugh___Learn__Greetings_Globe_0_Layer0_0_MEMBER_17_FILL"/>
</g>

<g transform="matrix( 0.8753509521484375, 0, 0, 0.874847412109375, -22.5,0.35) ">
<use xlink:href="#Suite_Toys_300x250_html5_psd_Asset_Suite_Products_Toys_images_Laugh___Learn__Greetings_Globe_0_Layer0_0_MEMBER_18_FILL"/>
</g>

<g transform="matrix( 0.8753509521484375, 0, 0, 0.874847412109375, -22.5,0.35) ">
<use xlink:href="#Suite_Toys_300x250_html5_psd_Asset_Suite_Products_Toys_images_Laugh___Learn__Greetings_Globe_0_Layer0_0_MEMBER_19_FILL"/>
</g>

<g transform="matrix( 0.8753509521484375, 0, 0, 0.874847412109375, -22.5,0.35) ">
<use xlink:href="#Suite_Toys_300x250_html5_psd_Asset_Suite_Products_Toys_images_Laugh___Learn__Greetings_Globe_0_Layer0_0_MEMBER_20_FILL"/>
</g>

<g transform="matrix( 0.8753509521484375, 0, 0, 0.874847412109375, -22.5,0.35) ">
<use xlink:href="#Suite_Toys_300x250_html5_psd_Asset_Suite_Products_Toys_images_Laugh___Learn__Greetings_Globe_0_Layer0_0_MEMBER_21_FILL"/>
</g>

<g transform="matrix( 0.8753509521484375, 0, 0, 0.874847412109375, -22.5,0.35) ">
<use xlink:href="#Suite_Toys_300x250_html5_psd_Asset_Suite_Products_Toys_images_Laugh___Learn__Greetings_Globe_0_Layer0_0_MEMBER_22_FILL"/>
</g>

<g transform="matrix( 0.8753509521484375, 0, 0, 0.874847412109375, -22.5,0.35) ">
<use xlink:href="#Suite_Toys_300x250_html5_psd_Asset_Suite_Products_Toys_images_Laugh___Learn__Greetings_Globe_0_Layer0_0_MEMBER_23_FILL"/>
</g>

<g transform="matrix( 0.8753509521484375, 0, 0, 0.874847412109375, -22.5,0.35) ">
<use xlink:href="#Suite_Toys_300x250_html5_psd_Asset_Suite_Products_Toys_images_Laugh___Learn__Greetings_Globe_0_Layer0_0_MEMBER_24_FILL"/>
</g>

<g transform="matrix( 0.8753509521484375, 0, 0, 0.874847412109375, -22.5,0.35) ">
<use xlink:href="#Suite_Toys_300x250_html5_psd_Asset_Suite_Products_Toys_images_Laugh___Learn__Greetings_Globe_0_Layer0_0_MEMBER_25_FILL"/>
</g>
</g>
</svg>
